Version:1.0
start_time,total_distance,total_distance_units,total_timer_time,total_timer_time_units,total_cycles,total_calories,pool_length,pool_length_units
2014-12-06,1700.0,m,2278.367,s,1123,352,50,m
split,swim_stroke,total_distance,total_distance_units,total_timer_time,total_timer_time_units,total_cycles,total_calories
Lap,FREESTYLE,500.0,m,595.141,s,316,90
1,FREESTYLE,50.0,m,54.562,s,31,
2,FREESTYLE,50.0,m,57.187,s,31,
3,FREESTYLE,50.0,m,58.625,s,32,
4,FREESTYLE,50.0,m,59.187,s,32,
5,FREESTYLE,50.0,m,63.625,s,34,
6,FREESTYLE,50.0,m,59.375,s,31,
7,FREESTYLE,50.0,m,59.875,s,32,
8,FREESTYLE,50.0,m,60.500,s,31,
9,FREESTYLE,50.0,m,63.750,s,32,
10,FREESTYLE,50.0,m,58.125,s,30,
Rest,Rest,,,28.656,s,,
Lap,BREASTSTROKE,400.0,m,553.180,s,287,103
1,BREASTSTROKE,50.0,m,73.375,s,39,
2,BREASTSTROKE,50.0,m,65.687,s,34,
3,BREASTSTROKE,50.0,m,68.687,s,36,
4,BREASTSTROKE,50.0,m,70.250,s,36,
5,BREASTSTROKE,50.0,m,68.562,s,35,
6,BREASTSTROKE,50.0,m,70.000,s,35,
7,BREASTSTROKE,50.0,m,69.125,s,37,
8,BREASTSTROKE,50.0,m,67.562,s,35,
Rest,Rest,,,58.758,s,,
Lap,FREESTYLE,400.0,m,474.453,s,249,72
1,FREESTYLE,50.0,m,55.562,s,30,
2,FREESTYLE,50.0,m,59.625,s,30,
3,FREESTYLE,50.0,m,61.250,s,31,
4,FREESTYLE,50.0,m,57.500,s,32,
5,FREESTYLE,50.0,m,59.875,s,32,
6,FREESTYLE,50.0,m,57.375,s,30,
7,FREESTYLE,50.0,m,64.620,s,33,
8,FREESTYLE,50.0,m,59.250,s,31,
Rest,Rest,,,28.422,s,,
Lap,BREASTSTROKE,200.0,m,278.148,s,144,51
1,BREASTSTROKE,50.0,m,74.812,s,38,
2,BREASTSTROKE,50.0,m,65.687,s,35,
3,BREASTSTROKE,50.0,m,71.620,s,37,
4,BREASTSTROKE,50.0,m,66.562,s,34,
Rest,Rest,,,19.914,s,,
Lap,FREESTYLE,200.0,m,241.625,s,127,36
1,FREESTYLE,50.0,m,58.125,s,31,
2,FREESTYLE,50.0,m,62.875,s,33,
3,FREESTYLE,50.0,m,62.125,s,33,
4,FREESTYLE,50.0,m,58.500,s,30,
