Version:1.0
start_time,total_distance,total_distance_units,total_timer_time,total_timer_time_units,total_cycles,total_calories,pool_length,pool_length_units
2014-11-23,2150.0,m,4008.734,s,1058,382,50,m
split,swim_stroke,total_distance,total_distance_units,total_timer_time,total_timer_time_units,total_cycles,total_calories
Lap,FREESTYLE,200.0,m,229.977,s,117,46
1,FREESTYLE,50.0,m,50.620,s,26,
2,FREESTYLE,50.0,m,61.624,s,31,
3,FREESTYLE,50.0,m,61.875,s,31,
4,FREESTYLE,50.0,m,56.125,s,29,
Rest,Rest,,,9.133,s,,
Lap,BREASTSTROKE,200.0,m,274.680,s,129,51
1,BREASTSTROKE,50.0,m,66.437,s,32,
2,BREASTSTROKE,50.0,m,73.375,s,33,
3,BREASTSTROKE,50.0,m,66.812,s,32,
4,BREASTSTROKE,50.0,m,68.620,s,32,
Rest,Rest,,,51.695,s,,
Lap,FREESTYLE,200.0,m,234.367,s,117,36
1,FREESTYLE,50.0,m,52.375,s,27,
2,FREESTYLE,50.0,m,61.250,s,30,
3,FREESTYLE,50.0,m,61.562,s,31,
4,FREESTYLE,50.0,m,59.187,s,29,
Rest,Rest,,,113.195,s,,
Lap,BREASTSTROKE,200.0,m,282.188,s,117,68
1,BREASTSTROKE,50.0,m,67.125,s,33,
2,BREASTSTROKE,50.0,m,77.620,s,34,
3,BREASTSTROKE,50.0,m,70.687,s,30,
4,BREASTSTROKE,50.0,m,46.812,s,20,
Rest,Rest,,,91.313,s,,
Lap,FREESTYLE,100.0,m,99.258,s,59,18
1,FREESTYLE,50.0,m,49.437,s,30,
2,FREESTYLE,50.0,m,49.812,s,29,
Rest,Rest,,,21.680,s,,
Lap,BREASTSTROKE,100.0,m,145.630,s,68,25
1,BREASTSTROKE,50.0,m,73.937,s,36,
2,BREASTSTROKE,50.0,m,71.125,s,32,
Rest,Rest,,,98.188,s,,
Lap,DRILL,200.0,m,335.969,s,,
1,DRILL,50.0,m,83.992,s,0,
2,DRILL,50.0,m,83.992,s,0,
3,DRILL,50.0,m,83.992,s,0,
4,DRILL,50.0,m,83.992,s,0,
Rest,Rest,,,52.719,s,,
Lap,FREESTYLE,100.0,m,107.141,s,60,18
1,FREESTYLE,50.0,m,51.250,s,29,
2,FREESTYLE,50.0,m,55.937,s,31,
Rest,Rest,,,62.422,s,,
Lap,DRILL,50.0,m,76.160,s,,
1,DRILL,50.0,m,76.160,s,0,
Rest,Rest,,,41.547,s,,
Lap,DRILL,100.0,m,108.930,s,,
1,DRILL,50.0,m,54.465,s,0,
2,DRILL,50.0,m,54.465,s,0,
Rest,Rest,,,152.445,s,,
Lap,FREESTYLE,200.0,m,235.531,s,104,36
1,FREESTYLE,50.0,m,54.000,s,25,
2,FREESTYLE,50.0,m,60.187,s,27,
3,FREESTYLE,50.0,m,53.687,s,23,
4,FREESTYLE,50.0,m,67.625,s,29,
Rest,Rest,,,288.906,s,,
Lap,FREESTYLE,100.0,m,102.852,s,65,18
1,FREESTYLE,50.0,m,48.875,s,31,
2,FREESTYLE,50.0,m,54.000,s,34,
Rest,Rest,,,7.148,s,,
Lap,BREASTSTROKE,200.0,m,302.375,s,155,48
1,BREASTSTROKE,50.0,m,77.250,s,41,
2,BREASTSTROKE,50.0,m,78.000,s,39,
3,BREASTSTROKE,50.0,m,73.620,s,37,
4,BREASTSTROKE,50.0,m,74.125,s,38,
Rest,Rest,,,17.438,s,,
Lap,FREESTYLE,100.0,m,118.164,s,67,18
1,FREESTYLE,50.0,m,56.562,s,32,
2,FREESTYLE,50.0,m,61.625,s,35,
Rest,Rest,,,171.773,s,,
Lap,DRILL,100.0,m,176.477,s,,
1,DRILL,50.0,m,88.238,s,0,
2,DRILL,50.0,m,88.238,s,0,
