Version:1.0
start_time,total_distance,total_distance_units,total_timer_time,total_timer_time_units,total_cycles,total_calories,pool_length,pool_length_units
2015-06-20,1000.0,m,3181.234,s,480,175,50,m
split,swim_stroke,total_distance,total_distance_units,total_timer_time,total_timer_time_units,total_cycles,total_calories
Lap,FREESTYLE,100.0,m,81.641,s,50,18
1,FREESTYLE,50.0,m,39.620,s,26,
2,FREESTYLE,50.0,m,42.250,s,24,
Rest,Rest,,,69.860,s,,
Lap,FREESTYLE,200.0,m,197.734,s,114,36
1,FREESTYLE,50.0,m,46.562,s,27,
2,FREESTYLE,50.0,m,53.375,s,30,
3,FREESTYLE,50.0,m,48.625,s,28,
4,FREESTYLE,50.0,m,49.187,s,29,
Rest,Rest,,,80.828,s,,
Lap,FREESTYLE,200.0,m,193.430,s,109,36
1,FREESTYLE,50.0,m,46.125,s,26,
2,FREESTYLE,50.0,m,50.750,s,28,
3,FREESTYLE,50.0,m,49.250,s,28,
4,FREESTYLE,50.0,m,47.312,s,27,
Rest,Rest,,,1525.945,s,,
Lap,DRILL,50.0,m,82.203,s,,
1,DRILL,50.0,m,82.203,s,0,
Rest,Rest,,,38.297,s,,
Lap,DRILL,50.0,m,96.700,s,,
1,DRILL,50.0,m,96.700,s,0,
Rest,Rest,,,36.550,s,,
Lap,BREASTSTROKE,50.0,m,59.828,s,29,13
1,BREASTSTROKE,50.0,m,59.875,s,29,
Rest,Rest,,,3.734,s,,
Rest,Rest,,,21.219,s,,
Lap,BREASTSTROKE,50.0,m,57.844,s,29,13
1,BREASTSTROKE,50.0,m,57.875,s,29,
Rest,Rest,,,130.906,s,,
Lap,FREESTYLE,50.0,m,47.609,s,23,9
1,FREESTYLE,50.0,m,47.687,s,23,
Rest,Rest,,,10.891,s,,
Lap,FREESTYLE,50.0,m,52.656,s,27,9
1,FREESTYLE,50.0,m,52.625,s,27,
Rest,Rest,,,108.656,s,,
Lap,FREESTYLE,50.0,m,46.898,s,22,9
1,FREESTYLE,50.0,m,46.875,s,22,
Rest,Rest,,,40.727,s,,
Lap,BREASTSTROKE,50.0,m,68.422,s,24,14
1,BREASTSTROKE,50.0,m,53.687,s,24,
Rest,Rest,,,43.703,s,,
Lap,FREESTYLE,100.0,m,86.313,s,53,18
1,FREESTYLE,50.0,m,44.250,s,27,
2,FREESTYLE,50.0,m,42.125,s,26,
