Version:1.0
start_time,total_distance,total_distance_units,total_timer_time,total_timer_time_units,total_cycles,total_calories,pool_length,pool_length_units
2015-07-15,1000.0,m,3038.625,s,279,124,25,m
split,swim_stroke,total_distance,total_distance_units,total_timer_time,total_timer_time_units,total_cycles,total_calories
Lap,FREESTYLE,100.0,m,93.867,s,45,20
1,FREESTYLE,25.0,m,22.437,s,9,
2,FREESTYLE,25.0,m,24.375,s,12,
3,FREESTYLE,25.0,m,23.875,s,12,
4,FREESTYLE,25.0,m,23.000,s,12,
Rest,Rest,,,34.258,s,,
Lap,FREESTYLE,100.0,m,97.860,s,50,20
1,FREESTYLE,25.0,m,23.312,s,11,
2,FREESTYLE,25.0,m,24.562,s,13,
3,FREESTYLE,25.0,m,24.620,s,12,
4,FREESTYLE,25.0,m,25.250,s,14,
Rest,Rest,,,256.914,s,,
Lap,FREESTYLE,100.0,m,101.375,s,49,20
1,FREESTYLE,25.0,m,23.312,s,11,
2,FREESTYLE,25.0,m,26.250,s,12,
3,FREESTYLE,25.0,m,28.000,s,14,
4,FREESTYLE,25.0,m,23.812,s,12,
Rest,Rest,,,100.500,s,,
Lap,FREESTYLE,100.0,m,96.422,s,48,20
1,FREESTYLE,25.0,m,21.875,s,11,
2,FREESTYLE,25.0,m,24.812,s,12,
3,FREESTYLE,25.0,m,24.625,s,12,
4,FREESTYLE,25.0,m,25.125,s,13,
Rest,Rest,,,524.703,s,,
Lap,DRILL,25.0,m,38.102,s,,
1,DRILL,25.0,m,38.102,s,0,
Rest,Rest,,,26.398,s,,
Lap,DRILL,25.0,m,39.156,s,,
1,DRILL,25.0,m,39.156,s,0,
Rest,Rest,,,43.719,s,,
Lap,DRILL,25.0,m,33.258,s,,
1,DRILL,25.0,m,33.258,s,0,
Rest,Rest,,,46.742,s,,
Lap,DRILL,25.0,m,34.961,s,,
1,DRILL,25.0,m,34.961,s,0,
Rest,Rest,,,88.289,s,,
Lap,DRILL,25.0,m,32.703,s,,
1,DRILL,25.0,m,32.703,s,0,
Rest,Rest,,,9.297,s,,
Lap,DRILL,25.0,m,35.172,s,,
1,DRILL,25.0,m,35.172,s,0,
Rest,Rest,,,111.391,s,,
Lap,DRILL,25.0,m,30.109,s,,
1,DRILL,25.0,m,30.109,s,0,
Rest,Rest,,,13.953,s,,
Rest,Rest,,,34.305,s,,
Rest,Rest,,,8.570,s,,
Lap,DRILL,25.0,m,28.297,s,,
1,DRILL,25.0,m,28.297,s,0,
Rest,Rest,,,110.891,s,,
Lap,DRILL,50.0,m,61.133,s,,
1,DRILL,25.0,m,30.566,s,0,
2,DRILL,25.0,m,30.566,s,0,
Rest,Rest,,,34.555,s,,
Lap,DRILL,50.0,m,60.250,s,,
1,DRILL,25.0,m,30.125,s,0,
2,DRILL,25.0,m,30.125,s,0,
Rest,Rest,,,35.938,s,,
Lap,DRILL,50.0,m,52.555,s,,
1,DRILL,25.0,m,26.277,s,0,
2,DRILL,25.0,m,26.277,s,0,
Rest,Rest,,,32.080,s,,
Lap,DRILL,50.0,m,51.656,s,,
1,DRILL,25.0,m,25.828,s,0,
2,DRILL,25.0,m,25.828,s,0,
Rest,Rest,,,222.469,s,,
Lap,BUTTERFLY,25.0,m,22.310,s,9,6
1,BUTTERFLY,25.0,m,22.125,s,9,
Rest,Rest,,,44.656,s,,
Lap,BUTTERFLY,25.0,m,21.648,s,10,6
1,BUTTERFLY,25.0,m,21.687,s,10,
Rest,Rest,,,75.852,s,,
Lap,BUTTERFLY,25.0,m,20.914,s,10,6
1,BUTTERFLY,25.0,m,20.937,s,10,
Rest,Rest,,,65.461,s,,
Lap,BUTTERFLY,25.0,m,21.780,s,9,6
1,BUTTERFLY,25.0,m,21.620,s,9,
Rest,Rest,,,48.172,s,,
Lap,FREESTYLE,100.0,m,97.164,s,49,20
1,FREESTYLE,25.0,m,21.937,s,11,
2,FREESTYLE,25.0,m,23.125,s,13,
3,FREESTYLE,25.0,m,25.437,s,15,
4,FREESTYLE,25.0,m,19.187,s,10,
