Version:1.0
start_time,total_distance,total_distance_units,total_timer_time,total_timer_time_units,total_cycles,total_calories,pool_length,pool_length_units
2015-11-05,1600.0,m,2649.141,s,654,335,50,m
split,swim_stroke,total_distance,total_distance_units,total_timer_time,total_timer_time_units,total_cycles,total_calories
Lap,FREESTYLE,100.0,m,91.555,s,50,18
1,FREESTYLE,50.0,m,43.500,s,24,
2,FREESTYLE,50.0,m,47.625,s,26,
Rest,Rest,,,16.766,s,,
Lap,FREESTYLE,100.0,m,94.367,s,52,18
1,FREESTYLE,50.0,m,47.125,s,25,
2,FREESTYLE,50.0,m,47.250,s,27,
Rest,Rest,,,50.695,s,,
Lap,FREESTYLE,100.0,m,92.672,s,42,18
1,FREESTYLE,50.0,m,45.875,s,24,
2,FREESTYLE,50.0,m,32.875,s,18,
Rest,Rest,,,26.391,s,,
Lap,FREESTYLE,100.0,m,93.453,s,51,18
1,FREESTYLE,50.0,m,46.500,s,25,
2,FREESTYLE,50.0,m,47.000,s,26,
Rest,Rest,,,30.470,s,,
Lap,BREASTSTROKE,50.0,m,56.406,s,28,13
1,BREASTSTROKE,50.0,m,56.437,s,28,
Rest,Rest,,,56.940,s,,
Lap,BREASTSTROKE,50.0,m,55.080,s,27,13
1,BREASTSTROKE,50.0,m,55.620,s,27,
Rest,Rest,,,28.242,s,,
Lap,FREESTYLE,100.0,m,95.688,s,51,19
1,FREESTYLE,50.0,m,47.843,s,25,
2,FREESTYLE,50.0,m,47.843,s,26,
Rest,Rest,,,85.630,s,,
Lap,FREESTYLE,100.0,m,92.828,s,49,18
1,FREESTYLE,50.0,m,46.437,s,24,
2,FREESTYLE,50.0,m,46.437,s,25,
Rest,Rest,,,51.359,s,,
Lap,FREESTYLE,100.0,m,90.297,s,50,18
1,FREESTYLE,50.0,m,45.312,s,24,
2,FREESTYLE,50.0,m,45.000,s,26,
Rest,Rest,,,59.453,s,,
Lap,FREESTYLE,100.0,m,92.406,s,39,19
1,FREESTYLE,50.0,m,46.000,s,24,
2,FREESTYLE,50.0,m,27.687,s,15,
Rest,Rest,,,106.469,s,,
Lap,FREESTYLE,100.0,m,92.117,s,50,18
1,FREESTYLE,50.0,m,45.250,s,24,
2,FREESTYLE,50.0,m,46.875,s,26,
Rest,Rest,,,71.633,s,,
Lap,MIXED,100.0,m,109.230,s,56,56
1,FREESTYLE,50.0,m,52.620,s,27,
2,BREASTSTROKE,50.0,m,56.999,s,29,
Rest,Rest,,,181.289,s,,
Lap,DRILL,100.0,m,93.125,s,,
1,DRILL,50.0,m,46.562,s,0,
2,DRILL,50.0,m,46.562,s,0,
Rest,Rest,,,17.125,s,,
Lap,DRILL,100.0,m,91.953,s,,
1,DRILL,50.0,m,45.976,s,0,
2,DRILL,50.0,m,45.976,s,0,
Rest,Rest,,,89.297,s,,
Lap,DRILL,100.0,m,88.477,s,,
1,DRILL,50.0,m,44.238,s,0,
2,DRILL,50.0,m,44.238,s,0,
Rest,Rest,,,43.523,s,,
Lap,BREASTSTROKE,100.0,m,132.750,s,61,42
1,BREASTSTROKE,50.0,m,66.562,s,29,
2,BREASTSTROKE,50.0,m,66.187,s,32,
Rest,Rest,,,128.687,s,,
Lap,FREESTYLE,50.0,m,46.734,s,18,14
1,FREESTYLE,50.0,m,32.561,s,18,
Rest,Rest,,,41.766,s,,
Lap,FREESTYLE,50.0,m,55.734,s,30,33
1,FREESTYLE,50.0,m,55.750,s,30,
