Version:1.0
start_time,total_distance,total_distance_units,total_timer_time,total_timer_time_units,total_cycles,total_calories,pool_length,pool_length_units
2015-07-19,1700.0,m,3686.781,s,686,241,50,m
split,swim_stroke,total_distance,total_distance_units,total_timer_time,total_timer_time_units,total_cycles,total_calories
Lap,FREESTYLE,800.0,m,803.000,s,440,144
1,FREESTYLE,50.0,m,45.562,s,24,
2,FREESTYLE,50.0,m,50.500,s,27,
3,FREESTYLE,50.0,m,47.750,s,26,
4,FREESTYLE,50.0,m,52.250,s,28,
5,FREESTYLE,50.0,m,51.625,s,27,
6,FREESTYLE,50.0,m,51.937,s,27,
7,FREESTYLE,50.0,m,48.562,s,28,
8,FREESTYLE,50.0,m,46.312,s,27,
9,FREESTYLE,50.0,m,50.500,s,29,
10,FREESTYLE,50.0,m,52.687,s,29,
11,FREESTYLE,50.0,m,52.187,s,28,
12,FREESTYLE,50.0,m,53.437,s,29,
13,FREESTYLE,50.0,m,51.187,s,28,
14,FREESTYLE,50.0,m,53.375,s,29,
15,FREESTYLE,50.0,m,48.937,s,28,
16,FREESTYLE,50.0,m,45.812,s,26,
Rest,Rest,,,120.930,s,,
Lap,BACKSTROKE,100.0,m,126.633,s,53,22
1,BACKSTROKE,50.0,m,64.187,s,27,
2,BACKSTROKE,50.0,m,62.500,s,26,
Rest,Rest,,,62.930,s,,
Lap,BREASTSTROKE,100.0,m,111.359,s,66,26
1,BREASTSTROKE,50.0,m,55.620,s,33,
2,BREASTSTROKE,50.0,m,56.312,s,33,
Rest,Rest,,,288.780,s,,
Lap,DRILL,100.0,m,192.188,s,,
1,DRILL,50.0,m,96.940,s,0,
2,DRILL,50.0,m,96.940,s,0,
Rest,Rest,,,107.750,s,,
Lap,DRILL,50.0,m,97.550,s,,
1,DRILL,50.0,m,97.550,s,0,
Rest,Rest,,,41.508,s,,
Lap,DRILL,50.0,m,88.688,s,,
1,DRILL,50.0,m,88.688,s,0,
Rest,Rest,,,104.438,s,,
Lap,DRILL,50.0,m,84.477,s,,
1,DRILL,50.0,m,84.477,s,0,
Rest,Rest,,,234.148,s,,
Lap,DRILL,50.0,m,75.555,s,,
1,DRILL,50.0,m,75.555,s,0,
Rest,Rest,,,35.133,s,,
Lap,DRILL,50.0,m,154.125,s,,
1,DRILL,50.0,m,154.125,s,0,
Rest,Rest,,,63.813,s,,
Lap,DRILL,50.0,m,104.813,s,,
1,DRILL,50.0,m,104.813,s,0,
Rest,Rest,,,50.563,s,,
Lap,DRILL,50.0,m,47.219,s,,
1,DRILL,50.0,m,47.219,s,0,
Rest,Rest,,,128.310,s,,
Lap,BUTTERFLY,50.0,m,46.805,s,25,11
1,BUTTERFLY,50.0,m,46.875,s,25,
Rest,Rest,,,88.445,s,,
Rest,Rest,,,1.164,s,,
Rest,Rest,,,24.211,s,,
Lap,BUTTERFLY,50.0,m,49.586,s,23,11
1,BUTTERFLY,50.0,m,49.625,s,23,
Rest,Rest,,,86.789,s,,
Rest,Rest,,,41.977,s,,
Rest,Rest,,,21.211,s,,
Lap,FREESTYLE,50.0,m,43.539,s,27,9
1,FREESTYLE,50.0,m,43.562,s,27,
Rest,Rest,,,65.773,s,,
Lap,FREESTYLE,100.0,m,94.211,s,52,18
1,FREESTYLE,50.0,m,46.625,s,25,
2,FREESTYLE,50.0,m,47.625,s,27,
