Version:1.0
start_time,total_distance,total_distance_units,total_timer_time,total_timer_time_units,total_cycles,total_calories,pool_length,pool_length_units
2015-08-17,1900.0,m,4768.234,s,762,337,50,m
split,swim_stroke,total_distance,total_distance_units,total_timer_time,total_timer_time_units,total_cycles,total_calories
Lap,BACKSTROKE,50.0,m,55.945,s,18,10
1,BACKSTROKE,50.0,m,55.750,s,18,
Rest,Rest,,,31.406,s,,
Lap,BACKSTROKE,50.0,m,53.852,s,17,10
1,BACKSTROKE,50.0,m,53.875,s,17,
Rest,Rest,,,24.961,s,,
Lap,BACKSTROKE,100.0,m,117.500,s,40,21
1,BACKSTROKE,50.0,m,39.375,s,14,
2,BACKSTROKE,50.0,m,78.125,s,26,
Rest,Rest,,,18.563,s,,
Lap,BACKSTROKE,50.0,m,57.080,s,17,11
1,BACKSTROKE,50.0,m,57.620,s,17,
Rest,Rest,,,25.367,s,,
Lap,BACKSTROKE,50.0,m,50.766,s,20,10
1,BACKSTROKE,50.0,m,50.750,s,20,
Rest,Rest,,,99.859,s,,
Lap,FREESTYLE,100.0,m,88.461,s,39,19
1,FREESTYLE,50.0,m,44.500,s,25,
2,FREESTYLE,50.0,m,25.250,s,14,
Rest,Rest,,,86.414,s,,
Lap,BREASTSTROKE,50.0,m,56.672,s,29,13
1,BREASTSTROKE,50.0,m,56.687,s,29,
Rest,Rest,,,50.160,s,,
Lap,BREASTSTROKE,50.0,m,53.648,s,28,14
1,BREASTSTROKE,50.0,m,53.687,s,28,
Rest,Rest,,,109.914,s,,
Lap,BUTTERFLY,50.0,m,49.000,s,22,9
1,BUTTERFLY,50.0,m,49.620,s,22,
Rest,Rest,,,386.313,s,,
Lap,BUTTERFLY,50.0,m,47.352,s,21,9
1,BUTTERFLY,50.0,m,47.312,s,21,
Rest,Rest,,,89.586,s,,
Lap,BUTTERFLY,50.0,m,48.984,s,24,11
1,BUTTERFLY,50.0,m,49.000,s,24,
Rest,Rest,,,101.703,s,,
Lap,BUTTERFLY,50.0,m,47.234,s,22,11
1,BUTTERFLY,50.0,m,47.250,s,22,
Rest,Rest,,,61.203,s,,
Lap,DRILL,50.0,m,65.953,s,,
1,DRILL,50.0,m,65.953,s,0,
Rest,Rest,,,108.422,s,,
Lap,DRILL,50.0,m,53.570,s,,
1,DRILL,50.0,m,53.570,s,0,
Rest,Rest,,,121.550,s,,
Lap,DRILL,50.0,m,56.289,s,,
1,DRILL,50.0,m,56.289,s,0,
Rest,Rest,,,130.711,s,,
Lap,DRILL,50.0,m,54.938,s,,
1,DRILL,50.0,m,54.938,s,0,
Rest,Rest,,,85.313,s,,
Lap,DRILL,50.0,m,163.688,s,,
1,DRILL,50.0,m,163.688,s,0,
Rest,Rest,,,36.875,s,,
Lap,DRILL,50.0,m,37.578,s,,
1,DRILL,50.0,m,37.578,s,0,
Rest,Rest,,,324.922,s,,
Lap,BUTTERFLY,50.0,m,45.508,s,23,9
1,BUTTERFLY,50.0,m,45.562,s,23,
Rest,Rest,,,123.430,s,,
Lap,BUTTERFLY,50.0,m,46.594,s,21,11
1,BUTTERFLY,50.0,m,46.562,s,21,
Rest,Rest,,,54.906,s,,
Lap,FREESTYLE,100.0,m,95.859,s,53,18
1,FREESTYLE,50.0,m,35.812,s,19,
2,FREESTYLE,50.0,m,60.312,s,34,
Rest,Rest,,,83.578,s,,
Lap,FREESTYLE,100.0,m,94.992,s,52,18
1,FREESTYLE,50.0,m,47.500,s,26,
2,FREESTYLE,50.0,m,47.500,s,26,
Rest,Rest,,,158.758,s,,
Lap,FREESTYLE,100.0,m,95.398,s,51,18
1,FREESTYLE,50.0,m,45.687,s,24,
2,FREESTYLE,50.0,m,49.750,s,27,
Rest,Rest,,,58.789,s,,
Lap,FREESTYLE,100.0,m,90.398,s,49,18
1,FREESTYLE,50.0,m,46.620,s,24,
2,FREESTYLE,50.0,m,44.375,s,25,
Rest,Rest,,,40.164,s,,
Lap,BREASTSTROKE,100.0,m,118.711,s,60,26
1,BREASTSTROKE,50.0,m,61.687,s,30,
2,BREASTSTROKE,50.0,m,57.620,s,30,
Rest,Rest,,,42.227,s,,
Lap,BREASTSTROKE,50.0,m,56.470,s,28,13
1,BREASTSTROKE,50.0,m,56.620,s,28,
Rest,Rest,,,60.953,s,,
Lap,BREASTSTROKE,50.0,m,56.914,s,29,13
1,BREASTSTROKE,50.0,m,56.937,s,29,
Rest,Rest,,,47.230,s,,
Lap,BREASTSTROKE,100.0,m,117.648,s,60,26
1,BREASTSTROKE,50.0,m,58.375,s,30,
2,BREASTSTROKE,50.0,m,59.312,s,30,
Rest,Rest,,,83.914,s,,
Lap,FREESTYLE,50.0,m,45.547,s,24,9
1,FREESTYLE,50.0,m,45.562,s,24,
Rest,Rest,,,60.160,s,,
Lap,FREESTYLE,50.0,m,38.523,s,15,10
1,FREESTYLE,50.0,m,24.187,s,15,
