Version:1.0
start_time,total_distance,total_distance_units,total_timer_time,total_timer_time_units,total_cycles,total_calories,pool_length,pool_length_units
2015-02-02,1225.0,m,1866.852,s,645,236,25,m
split,swim_stroke,total_distance,total_distance_units,total_timer_time,total_timer_time_units,total_cycles,total_calories
Lap,FREESTYLE,150.0,m,143.922,s,77,30
1,FREESTYLE,25.0,m,21.812,s,11,
2,FREESTYLE,25.0,m,23.625,s,12,
3,FREESTYLE,25.0,m,24.500,s,13,
4,FREESTYLE,25.0,m,24.562,s,13,
5,FREESTYLE,25.0,m,25.620,s,14,
6,FREESTYLE,25.0,m,24.000,s,14,
Rest,Rest,,,32.711,s,,
Lap,FREESTYLE,200.0,m,208.516,s,113,40
1,FREESTYLE,25.0,m,25.875,s,14,
2,FREESTYLE,25.0,m,26.620,s,14,
3,FREESTYLE,25.0,m,26.625,s,15,
4,FREESTYLE,25.0,m,26.125,s,14,
5,FREESTYLE,25.0,m,26.750,s,14,
6,FREESTYLE,25.0,m,26.625,s,14,
7,FREESTYLE,25.0,m,26.312,s,15,
8,FREESTYLE,25.0,m,24.187,s,13,
Rest,Rest,,,32.421,s,,
Lap,FREESTYLE,200.0,m,209.563,s,109,40
1,FREESTYLE,25.0,m,25.875,s,13,
2,FREESTYLE,25.0,m,24.562,s,13,
3,FREESTYLE,25.0,m,26.500,s,14,
4,FREESTYLE,25.0,m,26.562,s,14,
5,FREESTYLE,25.0,m,26.687,s,15,
6,FREESTYLE,25.0,m,29.620,s,16,
7,FREESTYLE,25.0,m,25.187,s,14,
8,FREESTYLE,25.0,m,25.125,s,10,
Rest,Rest,,,44.500,s,,
Lap,FREESTYLE,100.0,m,103.383,s,56,20
1,FREESTYLE,25.0,m,25.437,s,13,
2,FREESTYLE,25.0,m,27.620,s,14,
3,FREESTYLE,25.0,m,24.875,s,14,
4,FREESTYLE,25.0,m,26.000,s,15,
Rest,Rest,,,26.492,s,,
Lap,FREESTYLE,150.0,m,162.313,s,82,24
1,FREESTYLE,25.0,m,24.000,s,13,
2,FREESTYLE,25.0,m,28.875,s,15,
3,FREESTYLE,25.0,m,29.406,s,12,
4,FREESTYLE,25.0,m,29.406,s,13,
5,FREESTYLE,25.0,m,25.620,s,15,
6,FREESTYLE,25.0,m,25.562,s,14,
Rest,Rest,,,65.813,s,,
Lap,DRILL,50.0,m,77.227,s,,
1,DRILL,25.0,m,38.613,s,0,
2,DRILL,25.0,m,38.613,s,0,
Rest,Rest,,,80.961,s,,
Lap,FREESTYLE,50.0,m,50.617,s,28,10
1,FREESTYLE,25.0,m,23.250,s,13,
2,FREESTYLE,25.0,m,27.437,s,15,
Rest,Rest,,,24.445,s,,
Lap,FREESTYLE,100.0,m,97.630,s,53,20
1,FREESTYLE,25.0,m,26.437,s,14,
2,FREESTYLE,25.0,m,23.937,s,13,
3,FREESTYLE,25.0,m,24.500,s,14,
4,FREESTYLE,25.0,m,22.187,s,12,
Rest,Rest,,,126.563,s,,
Lap,BREASTSTROKE,100.0,m,117.586,s,60,27
1,BREASTSTROKE,25.0,m,28.000,s,15,
2,BREASTSTROKE,25.0,m,33.500,s,17,
3,BREASTSTROKE,25.0,m,28.312,s,14,
4,BREASTSTROKE,25.0,m,27.750,s,14,
Rest,Rest,,,16.727,s,,
Lap,FREESTYLE,25.0,m,46.445,s,14,5
1,FREESTYLE,25.0,m,26.620,s,14,
Rest,Rest,,,55.930,s,,
Lap,BUTTERFLY,25.0,m,25.477,s,14,5
1,BUTTERFLY,25.0,m,25.437,s,14,
Rest,Rest,,,24.586,s,,
Lap,FREESTYLE,25.0,m,24.563,s,12,5
1,FREESTYLE,25.0,m,24.562,s,12,
Rest,Rest,,,24.250,s,,
Lap,FREESTYLE,50.0,m,44.289,s,27,10
1,FREESTYLE,25.0,m,22.687,s,14,
2,FREESTYLE,25.0,m,21.687,s,13,
