Version:1.0
start_time,total_distance,total_distance_units,total_timer_time,total_timer_time_units,total_cycles,total_calories,pool_length,pool_length_units
2015-11-02,1725.0,m,5582.195,s,424,374,25,m
split,swim_stroke,total_distance,total_distance_units,total_timer_time,total_timer_time_units,total_cycles,total_calories
Lap,FREESTYLE,200.0,m,180.203,s,91,40
1,FREESTYLE,25.0,m,19.812,s,10,
2,FREESTYLE,25.0,m,21.312,s,10,
3,FREESTYLE,25.0,m,22.250,s,11,
4,FREESTYLE,25.0,m,23.562,s,11,
5,FREESTYLE,25.0,m,22.375,s,12,
6,FREESTYLE,25.0,m,24.687,s,13,
7,FREESTYLE,25.0,m,22.625,s,12,
8,FREESTYLE,25.0,m,23.250,s,12,
Rest,Rest,,,124.328,s,,
Lap,FREESTYLE,50.0,m,46.313,s,23,10
1,FREESTYLE,25.0,m,20.562,s,11,
2,FREESTYLE,25.0,m,25.750,s,12,
Rest,Rest,,,55.188,s,,
Lap,DRILL,50.0,m,74.773,s,,
1,DRILL,25.0,m,37.386,s,0,
2,DRILL,25.0,m,37.386,s,0,
Rest,Rest,,,36.289,s,,
Lap,DRILL,50.0,m,62.789,s,,
1,DRILL,25.0,m,31.394,s,0,
2,DRILL,25.0,m,31.394,s,0,
Rest,Rest,,,36.273,s,,
Lap,DRILL,50.0,m,77.797,s,,
1,DRILL,25.0,m,38.898,s,0,
2,DRILL,25.0,m,38.898,s,0,
Rest,Rest,,,12.203,s,,
Lap,DRILL,25.0,m,20.000,s,,
1,DRILL,25.0,m,20.000,s,0,
Rest,Rest,,,29.500,s,,
Lap,DRILL,25.0,m,22.578,s,,
1,DRILL,25.0,m,22.578,s,0,
Rest,Rest,,,38.609,s,,
Lap,DRILL,25.0,m,25.859,s,,
1,DRILL,25.0,m,25.859,s,0,
Rest,Rest,,,23.828,s,,
Lap,DRILL,25.0,m,23.141,s,,
1,DRILL,25.0,m,23.141,s,0,
Rest,Rest,,,39.922,s,,
Lap,DRILL,25.0,m,34.500,s,,
1,DRILL,25.0,m,34.500,s,0,
Rest,Rest,,,30.500,s,,
Lap,DRILL,25.0,m,27.906,s,,
1,DRILL,25.0,m,27.906,s,0,
Rest,Rest,,,75.531,s,,
Lap,DRILL,25.0,m,22.195,s,,
1,DRILL,25.0,m,22.195,s,0,
Rest,Rest,,,31.492,s,,
Lap,DRILL,25.0,m,21.672,s,,
1,DRILL,25.0,m,21.672,s,0,
Rest,Rest,,,87.203,s,,
Rest,Rest,,,1.758,s,,
Rest,Rest,,,67.550,s,,
Lap,BUTTERFLY,25.0,m,18.242,s,10,7
1,BUTTERFLY,25.0,m,18.250,s,10,
Rest,Rest,,,57.133,s,,
Lap,BUTTERFLY,25.0,m,18.680,s,9,7
1,BUTTERFLY,25.0,m,18.687,s,9,
Rest,Rest,,,76.883,s,,
Lap,BUTTERFLY,25.0,m,18.820,s,8,7
1,BUTTERFLY,25.0,m,18.812,s,8,
Rest,Rest,,,125.555,s,,
Lap,BUTTERFLY,25.0,m,18.230,s,10,7
1,BUTTERFLY,25.0,m,18.620,s,10,
Rest,Rest,,,67.289,s,,
Lap,BUTTERFLY,25.0,m,18.766,s,9,7
1,BUTTERFLY,25.0,m,18.750,s,9,
Rest,Rest,,,113.359,s,,
Lap,BUTTERFLY,25.0,m,19.550,s,10,7
1,BUTTERFLY,25.0,m,19.125,s,10,
Rest,Rest,,,41.133,s,,
Lap,BUTTERFLY,25.0,m,18.758,s,11,7
1,BUTTERFLY,25.0,m,18.812,s,11,
Rest,Rest,,,107.930,s,,
Lap,BUTTERFLY,25.0,m,19.125,s,8,7
1,BUTTERFLY,25.0,m,19.187,s,8,
Rest,Rest,,,64.125,s,,
Lap,BUTTERFLY,25.0,m,19.289,s,8,7
1,BUTTERFLY,25.0,m,19.312,s,8,
Rest,Rest,,,74.898,s,,
Lap,BUTTERFLY,25.0,m,18.734,s,9,7
1,BUTTERFLY,25.0,m,18.812,s,9,
Rest,Rest,,,33.578,s,,
Lap,BUTTERFLY,25.0,m,19.586,s,9,6
1,BUTTERFLY,25.0,m,19.562,s,9,
Rest,Rest,,,136.789,s,,
Lap,FREESTYLE,100.0,m,83.727,s,45,20
1,FREESTYLE,25.0,m,19.125,s,9,
2,FREESTYLE,25.0,m,21.875,s,11,
3,FREESTYLE,25.0,m,23.687,s,14,
4,FREESTYLE,25.0,m,19.620,s,11,
Rest,Rest,,,200.211,s,,
Lap,FREESTYLE,100.0,m,84.789,s,43,20
1,FREESTYLE,25.0,m,20.250,s,9,
2,FREESTYLE,25.0,m,21.500,s,10,
3,FREESTYLE,25.0,m,21.812,s,12,
4,FREESTYLE,25.0,m,21.250,s,12,
Rest,Rest,,,88.148,s,,
Lap,BREASTSTROKE,50.0,m,57.914,s,21,14
1,BREASTSTROKE,25.0,m,28.937,s,10,
2,BREASTSTROKE,25.0,m,29.000,s,11,
Rest,Rest,,,113.648,s,,
Lap,DRILL,50.0,m,48.305,s,,
1,DRILL,25.0,m,24.152,s,0,
2,DRILL,25.0,m,24.152,s,0,
Rest,Rest,,,125.445,s,,
Lap,BACKSTROKE,25.0,m,26.430,s,11,5
1,BACKSTROKE,25.0,m,26.500,s,11,
Rest,Rest,,,28.700,s,,
Lap,BACKSTROKE,25.0,m,23.188,s,7,5
1,BACKSTROKE,25.0,m,23.250,s,7,
Rest,Rest,,,130.875,s,,
Lap,DRILL,25.0,m,26.117,s,,
1,DRILL,25.0,m,26.117,s,0,
Rest,Rest,,,19.820,s,,
Lap,DRILL,25.0,m,29.836,s,,
1,DRILL,25.0,m,29.836,s,0,
Rest,Rest,,,98.390,s,,
Lap,DRILL,25.0,m,28.700,s,,
1,DRILL,25.0,m,28.700,s,0,
Rest,Rest,,,68.242,s,,
Lap,DRILL,25.0,m,27.477,s,,
1,DRILL,25.0,m,27.477,s,0,
Rest,Rest,,,159.898,s,,
Lap,FREESTYLE,50.0,m,38.780,s,20,10
1,FREESTYLE,25.0,m,18.687,s,10,
2,FREESTYLE,25.0,m,19.437,s,10,
Rest,Rest,,,54.172,s,,
Lap,FREESTYLE,50.0,m,37.700,s,19,10
1,FREESTYLE,25.0,m,20.500,s,9,
2,FREESTYLE,25.0,m,16.562,s,10,
Rest,Rest,,,666.930,s,,
Lap,DRILL,25.0,m,22.164,s,,
1,DRILL,25.0,m,22.164,s,0,
Rest,Rest,,,26.230,s,,
Lap,DRILL,25.0,m,23.180,s,,
1,DRILL,25.0,m,23.180,s,0,
Rest,Rest,,,54.080,s,,
Lap,DRILL,25.0,m,22.780,s,,
1,DRILL,25.0,m,22.780,s,0,
Rest,Rest,,,121.797,s,,
Lap,DRILL,25.0,m,22.906,s,,
1,DRILL,25.0,m,22.906,s,0,
Rest,Rest,,,63.906,s,,
Lap,DRILL,25.0,m,24.406,s,,
1,DRILL,25.0,m,24.406,s,0,
Rest,Rest,,,10.531,s,,
Lap,DRILL,25.0,m,22.445,s,,
1,DRILL,25.0,m,22.445,s,0,
Rest,Rest,,,56.930,s,,
Lap,DRILL,25.0,m,23.492,s,,
1,DRILL,25.0,m,23.492,s,0,
Rest,Rest,,,51.633,s,,
Lap,DRILL,25.0,m,21.313,s,,
1,DRILL,25.0,m,21.313,s,0,
Rest,Rest,,,123.250,s,,
Lap,FREESTYLE,50.0,m,40.836,s,21,10
1,FREESTYLE,25.0,m,20.187,s,10,
2,FREESTYLE,25.0,m,20.687,s,11,
Rest,Rest,,,69.602,s,,
Lap,BREASTSTROKE,25.0,m,25.516,s,11,7
1,BREASTSTROKE,25.0,m,25.500,s,11,
Rest,Rest,,,30.484,s,,
Lap,BREASTSTROKE,25.0,m,24.195,s,11,7
1,BREASTSTROKE,25.0,m,24.187,s,11,
