Version:1.0
start_time,total_distance,total_distance_units,total_timer_time,total_timer_time_units,total_cycles,total_calories,pool_length,pool_length_units
2015-01-26,1000.0,m,1495.813,s,565,210,50,m
split,swim_stroke,total_distance,total_distance_units,total_timer_time,total_timer_time_units,total_cycles,total_calories
Lap,FREESTYLE,400.0,m,440.906,s,223,92
1,FREESTYLE,50.0,m,49.875,s,28,
2,FREESTYLE,50.0,m,39.250,s,20,
3,FREESTYLE,50.0,m,56.812,s,28,
4,FREESTYLE,50.0,m,56.812,s,28,
5,FREESTYLE,50.0,m,56.813,s,30,
6,FREESTYLE,50.0,m,56.813,s,30,
7,FREESTYLE,50.0,m,69.562,s,35,
8,FREESTYLE,50.0,m,43.125,s,24,
Rest,Rest,,,109.180,s,,
Lap,FREESTYLE,200.0,m,219.164,s,106,46
1,FREESTYLE,50.0,m,51.687,s,28,
2,FREESTYLE,50.0,m,66.375,s,32,
3,FREESTYLE,50.0,m,44.437,s,25,
4,FREESTYLE,50.0,m,42.250,s,21,
Rest,Rest,,,116.336,s,,
Lap,FREESTYLE,200.0,m,211.797,s,122,36
1,FREESTYLE,50.0,m,50.500,s,29,
2,FREESTYLE,50.0,m,52.937,s,31,
3,FREESTYLE,50.0,m,55.125,s,32,
4,FREESTYLE,50.0,m,53.250,s,30,
Rest,Rest,,,186.891,s,,
Lap,FREESTYLE,200.0,m,211.359,s,114,36
1,FREESTYLE,50.0,m,53.125,s,29,
2,FREESTYLE,50.0,m,39.750,s,23,
3,FREESTYLE,50.0,m,68.125,s,39,
4,FREESTYLE,50.0,m,39.125,s,23,
