Version:1.0
start_time,total_distance,total_distance_units,total_timer_time,total_timer_time_units,total_cycles,total_calories,pool_length,pool_length_units
2015-03-27,2000.0,m,3398.656,s,1174,386,50,m
split,swim_stroke,total_distance,total_distance_units,total_timer_time,total_timer_time_units,total_cycles,total_calories
Lap,FREESTYLE,200.0,m,201.391,s,112,36
1,FREESTYLE,50.0,m,47.562,s,27,
2,FREESTYLE,50.0,m,53.375,s,30,
3,FREESTYLE,50.0,m,50.500,s,28,
4,FREESTYLE,50.0,m,49.562,s,27,
Rest,Rest,,,37.273,s,,
Lap,FREESTYLE,200.0,m,215.742,s,122,46
1,FREESTYLE,50.0,m,50.874,s,30,
2,FREESTYLE,50.0,m,56.187,s,32,
3,FREESTYLE,50.0,m,54.562,s,31,
4,FREESTYLE,50.0,m,54.125,s,29,
Rest,Rest,,,33.195,s,,
Lap,FREESTYLE,400.0,m,455.508,s,246,72
1,FREESTYLE,50.0,m,54.000,s,29,
2,FREESTYLE,50.0,m,60.312,s,32,
3,FREESTYLE,50.0,m,55.375,s,30,
4,FREESTYLE,50.0,m,61.125,s,33,
5,FREESTYLE,50.0,m,58.375,s,31,
6,FREESTYLE,50.0,m,55.312,s,31,
7,FREESTYLE,50.0,m,56.620,s,30,
8,FREESTYLE,50.0,m,55.000,s,30,
Rest,Rest,,,112.867,s,,
Lap,FREESTYLE,200.0,m,211.930,s,119,36
1,FREESTYLE,50.0,m,50.500,s,28,
2,FREESTYLE,50.0,m,56.437,s,32,
3,FREESTYLE,50.0,m,52.187,s,29,
4,FREESTYLE,50.0,m,52.812,s,30,
Rest,Rest,,,96.883,s,,
Lap,FREESTYLE,200.0,m,218.700,s,121,36
1,FREESTYLE,50.0,m,54.687,s,29,
2,FREESTYLE,50.0,m,54.437,s,30,
3,FREESTYLE,50.0,m,56.375,s,32,
4,FREESTYLE,50.0,m,52.625,s,30,
Rest,Rest,,,70.367,s,,
Lap,BREASTSTROKE,100.0,m,140.508,s,66,25
1,BREASTSTROKE,50.0,m,70.281,s,33,
2,BREASTSTROKE,50.0,m,70.281,s,33,
Rest,Rest,,,149.430,s,,
Lap,BUTTERFLY,50.0,m,59.328,s,27,9
1,BUTTERFLY,50.0,m,59.375,s,27,
Rest,Rest,,,93.922,s,,
Lap,BUTTERFLY,50.0,m,59.805,s,26,9
1,BUTTERFLY,50.0,m,59.875,s,26,
Rest,Rest,,,91.633,s,,
Lap,FREESTYLE,200.0,m,223.820,s,127,46
1,FREESTYLE,50.0,m,42.187,s,24,
2,FREESTYLE,50.0,m,66.312,s,38,
3,FREESTYLE,50.0,m,60.187,s,34,
4,FREESTYLE,50.0,m,55.125,s,31,
Rest,Rest,,,224.550,s,,
Lap,DRILL,50.0,m,71.648,s,,
1,DRILL,50.0,m,71.648,s,0,
Rest,Rest,,,35.664,s,,
Lap,BREASTSTROKE,50.0,m,68.727,s,33,13
1,BREASTSTROKE,50.0,m,68.750,s,33,
Rest,Rest,,,3.773,s,,
Lap,FREESTYLE,100.0,m,108.438,s,56,18
1,FREESTYLE,50.0,m,39.125,s,20,
2,FREESTYLE,50.0,m,69.312,s,36,
Rest,Rest,,,59.188,s,,
Lap,BUTTERFLY,50.0,m,60.859,s,27,9
1,BUTTERFLY,50.0,m,60.875,s,27,
Rest,Rest,,,20.203,s,,
Lap,BREASTSTROKE,50.0,m,69.180,s,33,13
1,BREASTSTROKE,50.0,m,69.187,s,33,
Rest,Rest,,,104.320,s,,
Lap,FREESTYLE,100.0,m,100.211,s,59,18
1,FREESTYLE,50.0,m,48.562,s,28,
2,FREESTYLE,50.0,m,51.687,s,31,
