Version:1.0
start_time,total_distance,total_distance_units,total_timer_time,total_timer_time_units,total_cycles,total_calories,pool_length,pool_length_units
2015-08-16,700.0,m,1896.940,s,280,122,50,m
split,swim_stroke,total_distance,total_distance_units,total_timer_time,total_timer_time_units,total_cycles,total_calories
Lap,BUTTERFLY,50.0,m,48.438,s,22,11
1,BUTTERFLY,50.0,m,48.250,s,22,
Rest,Rest,,,82.555,s,,
Lap,BUTTERFLY,50.0,m,48.633,s,21,9
1,BUTTERFLY,50.0,m,48.687,s,21,
Rest,Rest,,,42.617,s,,
Lap,FREESTYLE,100.0,m,93.789,s,52,18
1,FREESTYLE,50.0,m,46.125,s,25,
2,FREESTYLE,50.0,m,47.687,s,27,
Rest,Rest,,,228.586,s,,
Lap,BUTTERFLY,50.0,m,50.297,s,20,9
1,BUTTERFLY,50.0,m,50.375,s,20,
Rest,Rest,,,102.766,s,,
Lap,BUTTERFLY,50.0,m,47.711,s,22,9
1,BUTTERFLY,50.0,m,47.750,s,22,
Rest,Rest,,,53.414,s,,
Lap,FREESTYLE,100.0,m,93.780,s,47,18
1,FREESTYLE,50.0,m,46.937,s,27,
2,FREESTYLE,50.0,m,35.750,s,20,
Rest,Rest,,,227.984,s,,
Lap,BACKSTROKE,100.0,m,123.539,s,47,22
1,BACKSTROKE,50.0,m,60.375,s,23,
2,BACKSTROKE,50.0,m,63.187,s,24,
Rest,Rest,,,180.398,s,,
Lap,DRILL,50.0,m,69.953,s,,
1,DRILL,50.0,m,69.953,s,0,
Rest,Rest,,,26.172,s,,
Lap,DRILL,50.0,m,78.992,s,,
1,DRILL,50.0,m,78.992,s,0,
Rest,Rest,,,140.758,s,,
Lap,BREASTSTROKE,50.0,m,56.648,s,24,13
1,BREASTSTROKE,50.0,m,56.687,s,24,
Rest,Rest,,,42.352,s,,
Lap,BREASTSTROKE,50.0,m,57.164,s,25,13
1,BREASTSTROKE,50.0,m,57.187,s,25,
