Version:1.0
start_time,total_distance,total_distance_units,total_timer_time,total_timer_time_units,total_cycles,total_calories,pool_length,pool_length_units
2015-10-06,1300.0,m,4355.297,s,293,155,25,m
split,swim_stroke,total_distance,total_distance_units,total_timer_time,total_timer_time_units,total_cycles,total_calories
Lap,FREESTYLE,50.0,m,43.211,s,20,10
1,FREESTYLE,25.0,m,21.500,s,9,
2,FREESTYLE,25.0,m,21.437,s,11,
Rest,Rest,,,55.313,s,,
Lap,DRILL,50.0,m,44.398,s,,
1,DRILL,25.0,m,22.199,s,0,
2,DRILL,25.0,m,22.199,s,0,
Rest,Rest,,,34.352,s,,
Lap,DRILL,50.0,m,44.547,s,,
1,DRILL,25.0,m,22.273,s,0,
2,DRILL,25.0,m,22.273,s,0,
Rest,Rest,,,29.828,s,,
Lap,DRILL,50.0,m,45.320,s,,
1,DRILL,25.0,m,22.660,s,0,
2,DRILL,25.0,m,22.660,s,0,
Rest,Rest,,,29.305,s,,
Lap,DRILL,50.0,m,45.195,s,,
1,DRILL,25.0,m,22.597,s,0,
2,DRILL,25.0,m,22.597,s,0,
Rest,Rest,,,37.367,s,,
Lap,DRILL,50.0,m,50.852,s,,
1,DRILL,25.0,m,25.426,s,0,
2,DRILL,25.0,m,25.426,s,0,
Rest,Rest,,,31.898,s,,
Lap,DRILL,50.0,m,80.938,s,,
1,DRILL,25.0,m,40.469,s,0,
2,DRILL,25.0,m,40.469,s,0,
Rest,Rest,,,70.250,s,,
Lap,DRILL,50.0,m,72.700,s,,
1,DRILL,25.0,m,36.350,s,0,
2,DRILL,25.0,m,36.350,s,0,
Rest,Rest,,,70.492,s,,
Lap,DRILL,25.0,m,39.547,s,,
1,DRILL,25.0,m,39.547,s,0,
Rest,Rest,,,33.641,s,,
Lap,DRILL,25.0,m,32.258,s,,
1,DRILL,25.0,m,32.258,s,0,
Rest,Rest,,,52.305,s,,
Lap,DRILL,25.0,m,33.492,s,,
1,DRILL,25.0,m,33.492,s,0,
Rest,Rest,,,23.695,s,,
Lap,DRILL,25.0,m,36.700,s,,
1,DRILL,25.0,m,36.700,s,0,
Rest,Rest,,,25.242,s,,
Lap,BUTTERFLY,25.0,m,22.125,s,9,6
1,BUTTERFLY,25.0,m,22.187,s,9,
Rest,Rest,,,36.875,s,,
Lap,BUTTERFLY,25.0,m,22.586,s,11,5
1,BUTTERFLY,25.0,m,22.625,s,11,
Rest,Rest,,,162.164,s,,
Lap,FREESTYLE,50.0,m,48.188,s,20,10
1,FREESTYLE,25.0,m,23.250,s,9,
2,FREESTYLE,25.0,m,25.000,s,11,
Rest,Rest,,,121.750,s,,
Lap,FREESTYLE,50.0,m,39.422,s,20,10
1,FREESTYLE,25.0,m,20.375,s,10,
2,FREESTYLE,25.0,m,19.125,s,10,
Rest,Rest,,,306.766,s,,
Lap,BUTTERFLY,25.0,m,19.328,s,9,7
1,BUTTERFLY,25.0,m,19.312,s,9,
Rest,Rest,,,32.797,s,,
Lap,BUTTERFLY,25.0,m,20.860,s,8,6
1,BUTTERFLY,25.0,m,20.620,s,8,
Rest,Rest,,,158.977,s,,
Lap,BUTTERFLY,25.0,m,19.516,s,11,6
1,BUTTERFLY,25.0,m,19.562,s,11,
Rest,Rest,,,83.172,s,,
Lap,BUTTERFLY,25.0,m,20.508,s,9,6
1,BUTTERFLY,25.0,m,20.562,s,9,
Rest,Rest,,,218.430,s,,
Lap,BUTTERFLY,25.0,m,20.203,s,9,5
1,BUTTERFLY,25.0,m,20.250,s,9,
Rest,Rest,,,82.547,s,,
Lap,BUTTERFLY,25.0,m,19.313,s,9,7
1,BUTTERFLY,25.0,m,19.375,s,9,
Rest,Rest,,,370.875,s,,
Lap,MIXED,100.0,m,98.664,s,48,21
1,BACKSTROKE,25.0,m,26.312,s,12,
2,BUTTERFLY,25.0,m,23.687,s,10,
3,BREASTSTROKE,25.0,m,32.125,s,16,
4,FREESTYLE,25.0,m,16.750,s,10,
Rest,Rest,,,166.461,s,,
Lap,DRILL,25.0,m,26.477,s,,
1,DRILL,25.0,m,26.477,s,0,
Rest,Rest,,,31.648,s,,
Lap,DRILL,25.0,m,26.211,s,,
1,DRILL,25.0,m,26.211,s,0,
Rest,Rest,,,74.727,s,,
Lap,FREESTYLE,100.0,m,89.328,s,45,20
1,FREESTYLE,25.0,m,22.500,s,10,
2,FREESTYLE,25.0,m,23.500,s,12,
3,FREESTYLE,25.0,m,22.687,s,11,
4,FREESTYLE,25.0,m,20.687,s,12,
Rest,Rest,,,233.797,s,,
Lap,DRILL,50.0,m,42.938,s,,
1,DRILL,25.0,m,21.469,s,0,
2,DRILL,25.0,m,21.469,s,0,
Rest,Rest,,,54.438,s,,
Lap,DRILL,50.0,m,41.461,s,,
1,DRILL,25.0,m,20.730,s,0,
2,DRILL,25.0,m,20.730,s,0,
Rest,Rest,,,63.227,s,,
Lap,BUTTERFLY,50.0,m,43.867,s,20,12
1,BUTTERFLY,25.0,m,21.250,s,10,
2,BUTTERFLY,25.0,m,22.625,s,10,
Rest,Rest,,,66.695,s,,
Lap,BREASTSTROKE,50.0,m,54.578,s,25,14
1,BREASTSTROKE,25.0,m,30.125,s,13,
2,BREASTSTROKE,25.0,m,24.437,s,12,
Rest,Rest,,,308.234,s,,
Lap,FREESTYLE,50.0,m,44.550,s,20,10
1,FREESTYLE,25.0,m,22.750,s,10,
2,FREESTYLE,25.0,m,21.312,s,10,
