Version:1.0
start_time,total_distance,total_distance_units,total_timer_time,total_timer_time_units,total_cycles,total_calories,pool_length,pool_length_units
2015-11-09,1100.0,m,4087.719,s,372,200,25,m
split,swim_stroke,total_distance,total_distance_units,total_timer_time,total_timer_time_units,total_cycles,total_calories
Lap,FREESTYLE,50.0,m,37.898,s,21,10
1,FREESTYLE,25.0,m,17.625,s,10,
2,FREESTYLE,25.0,m,19.750,s,11,
Rest,Rest,,,173.813,s,,
Rest,Rest,,,1.398,s,,
Rest,Rest,,,119.914,s,,
Lap,DRILL,25.0,m,22.867,s,,
1,DRILL,25.0,m,22.867,s,0,
Rest,Rest,,,45.695,s,,
Lap,DRILL,25.0,m,22.422,s,,
1,DRILL,25.0,m,22.422,s,0,
Rest,Rest,,,96.780,s,,
Lap,DRILL,25.0,m,23.531,s,,
1,DRILL,25.0,m,23.531,s,0,
Rest,Rest,,,40.719,s,,
Lap,DRILL,25.0,m,24.297,s,,
1,DRILL,25.0,m,24.297,s,0,
Rest,Rest,,,94.266,s,,
Lap,BUTTERFLY,25.0,m,17.758,s,8,7
1,BUTTERFLY,25.0,m,17.812,s,8,
Rest,Rest,,,79.430,s,,
Lap,BUTTERFLY,25.0,m,17.766,s,8,7
1,BUTTERFLY,25.0,m,17.812,s,8,
Rest,Rest,,,288.797,s,,
Lap,BUTTERFLY,50.0,m,39.945,s,21,12
1,BUTTERFLY,25.0,m,20.250,s,11,
2,BUTTERFLY,25.0,m,19.750,s,10,
Rest,Rest,,,78.492,s,,
Lap,DRILL,25.0,m,29.203,s,,
1,DRILL,25.0,m,29.203,s,0,
Rest,Rest,,,89.172,s,,
Lap,DRILL,25.0,m,26.828,s,,
1,DRILL,25.0,m,26.828,s,0,
Rest,Rest,,,98.234,s,,
Lap,DRILL,25.0,m,28.336,s,,
1,DRILL,25.0,m,28.336,s,0,
Rest,Rest,,,46.352,s,,
Lap,DRILL,25.0,m,27.727,s,,
1,DRILL,25.0,m,27.727,s,0,
Rest,Rest,,,247.398,s,,
Lap,FREESTYLE,100.0,m,92.250,s,42,20
1,FREESTYLE,25.0,m,21.375,s,9,
2,FREESTYLE,25.0,m,23.750,s,11,
3,FREESTYLE,25.0,m,23.250,s,11,
4,FREESTYLE,25.0,m,23.875,s,11,
Rest,Rest,,,115.438,s,,
Lap,FREESTYLE,50.0,m,41.648,s,19,10
1,FREESTYLE,25.0,m,20.750,s,9,
2,FREESTYLE,25.0,m,20.875,s,10,
Rest,Rest,,,222.477,s,,
Lap,FREESTYLE,50.0,m,39.648,s,19,10
1,FREESTYLE,25.0,m,20.250,s,9,
2,FREESTYLE,25.0,m,19.375,s,10,
Rest,Rest,,,82.914,s,,
Lap,BUTTERFLY,25.0,m,17.844,s,10,7
1,BUTTERFLY,25.0,m,17.875,s,10,
Rest,Rest,,,54.310,s,,
Lap,BUTTERFLY,25.0,m,18.813,s,11,7
1,BUTTERFLY,25.0,m,18.875,s,11,
Rest,Rest,,,170.750,s,,
Lap,BUTTERFLY,25.0,m,20.664,s,9,6
1,BUTTERFLY,25.0,m,20.687,s,9,
Rest,Rest,,,45.523,s,,
Lap,BUTTERFLY,25.0,m,20.727,s,12,6
1,BUTTERFLY,25.0,m,20.750,s,12,
Rest,Rest,,,252.398,s,,
Lap,FREESTYLE,100.0,m,89.594,s,41,20
1,FREESTYLE,25.0,m,21.250,s,9,
2,FREESTYLE,25.0,m,22.250,s,11,
3,FREESTYLE,25.0,m,24.750,s,11,
4,FREESTYLE,25.0,m,21.812,s,10,
Rest,Rest,,,114.656,s,,
Lap,BUTTERFLY,25.0,m,19.310,s,10,7
1,BUTTERFLY,25.0,m,19.620,s,10,
Rest,Rest,,,57.310,s,,
Lap,BUTTERFLY,25.0,m,18.281,s,11,7
1,BUTTERFLY,25.0,m,18.312,s,11,
Rest,Rest,,,114.281,s,,
Lap,FREESTYLE,50.0,m,40.602,s,21,10
1,FREESTYLE,25.0,m,20.375,s,10,
2,FREESTYLE,25.0,m,20.187,s,11,
Rest,Rest,,,45.523,s,,
Lap,BREASTSTROKE,50.0,m,54.547,s,23,14
1,BREASTSTROKE,25.0,m,31.187,s,13,
2,BREASTSTROKE,25.0,m,23.437,s,10,
Rest,Rest,,,142.891,s,,
Lap,FREESTYLE,50.0,m,40.898,s,22,10
1,FREESTYLE,25.0,m,19.875,s,10,
2,FREESTYLE,25.0,m,21.620,s,12,
Rest,Rest,,,59.477,s,,
Lap,FREESTYLE,50.0,m,44.414,s,22,10
1,FREESTYLE,25.0,m,19.812,s,10,
2,FREESTYLE,25.0,m,24.625,s,12,
Rest,Rest,,,74.230,s,,
Lap,MIXED,50.0,m,50.109,s,21,10
1,FREESTYLE,25.0,m,21.750,s,11,
2,BACKSTROKE,25.0,m,28.312,s,10,
Rest,Rest,,,64.578,s,,
Lap,FREESTYLE,50.0,m,43.164,s,21,10
1,FREESTYLE,25.0,m,21.625,s,10,
2,FREESTYLE,25.0,m,21.562,s,11,
