Version:1.0
start_time,total_distance,total_distance_units,total_timer_time,total_timer_time_units,total_cycles,total_calories,pool_length,pool_length_units
2015-11-20,600.0,m,1782.531,s,174,101,25,m
split,swim_stroke,total_distance,total_distance_units,total_timer_time,total_timer_time_units,total_cycles,total_calories
Lap,FREESTYLE,50.0,m,42.938,s,21,10
1,FREESTYLE,25.0,m,19.500,s,10,
2,FREESTYLE,25.0,m,22.937,s,11,
Rest,Rest,,,7.940,s,,
Lap,BREASTSTROKE,50.0,m,57.219,s,22,14
1,BREASTSTROKE,25.0,m,29.625,s,11,
2,BREASTSTROKE,25.0,m,27.625,s,11,
Rest,Rest,,,26.310,s,,
Lap,FREESTYLE,50.0,m,42.609,s,21,10
1,FREESTYLE,25.0,m,20.812,s,10,
2,FREESTYLE,25.0,m,21.875,s,11,
Rest,Rest,,,71.780,s,,
Lap,FREESTYLE,50.0,m,39.641,s,21,10
1,FREESTYLE,25.0,m,19.375,s,10,
2,FREESTYLE,25.0,m,20.312,s,11,
Rest,Rest,,,219.797,s,,
Lap,BREASTSTROKE,50.0,m,62.492,s,24,13
1,BREASTSTROKE,25.0,m,34.812,s,13,
2,BREASTSTROKE,25.0,m,27.750,s,11,
Rest,Rest,,,36.258,s,,
Lap,DRILL,50.0,m,49.820,s,,
1,DRILL,25.0,m,24.910,s,0,
2,DRILL,25.0,m,24.910,s,0,
Rest,Rest,,,41.180,s,,
Lap,DRILL,25.0,m,21.242,s,,
1,DRILL,25.0,m,21.242,s,0,
Rest,Rest,,,53.445,s,,
Lap,DRILL,25.0,m,23.000,s,,
1,DRILL,25.0,m,23.000,s,0,
Rest,Rest,,,180.500,s,,
Lap,DRILL,25.0,m,23.992,s,,
1,DRILL,25.0,m,23.992,s,0,
Rest,Rest,,,9.445,s,,
Lap,DRILL,25.0,m,22.000,s,,
1,DRILL,25.0,m,22.000,s,0,
Rest,Rest,,,54.630,s,,
Lap,FREESTYLE,50.0,m,38.680,s,17,10
1,FREESTYLE,25.0,m,19.187,s,10,
2,FREESTYLE,25.0,m,14.500,s,7,
Rest,Rest,,,169.258,s,,
Lap,FREESTYLE,50.0,m,37.945,s,19,10
1,FREESTYLE,25.0,m,19.312,s,10,
2,FREESTYLE,25.0,m,18.687,s,9,
Rest,Rest,,,141.555,s,,
Lap,BUTTERFLY,25.0,m,17.242,s,5,7
1,BUTTERFLY,25.0,m,17.250,s,5,
Rest,Rest,,,194.695,s,,
Lap,BUTTERFLY,25.0,m,16.703,s,4,7
1,BUTTERFLY,25.0,m,16.750,s,4,
Rest,Rest,,,40.859,s,,
Lap,FREESTYLE,50.0,m,41.305,s,20,10
1,FREESTYLE,25.0,m,21.312,s,10,
2,FREESTYLE,25.0,m,20.000,s,10,
