Version:1.0
start_time,total_distance,total_distance_units,total_timer_time,total_timer_time_units,total_cycles,total_calories,pool_length,pool_length_units
2015-09-26,1500.0,m,3828.461,s,511,237,50,m
split,swim_stroke,total_distance,total_distance_units,total_timer_time,total_timer_time_units,total_cycles,total_calories
Lap,FREESTYLE,100.0,m,82.648,s,51,30
1,FREESTYLE,50.0,m,41.188,s,25,
2,FREESTYLE,50.0,m,41.188,s,26,
Rest,Rest,,,161.906,s,,
Lap,BUTTERFLY,50.0,m,45.109,s,24,12
1,BUTTERFLY,50.0,m,45.187,s,24,
Rest,Rest,,,132.453,s,,
Lap,BUTTERFLY,50.0,m,43.820,s,23,12
1,BUTTERFLY,50.0,m,43.875,s,23,
Rest,Rest,,,78.742,s,,
Lap,BREASTSTROKE,100.0,m,112.883,s,60,27
1,BREASTSTROKE,50.0,m,60.562,s,32,
2,BREASTSTROKE,50.0,m,52.312,s,28,
Rest,Rest,,,66.180,s,,
Lap,BACKSTROKE,50.0,m,59.160,s,16,11
1,BACKSTROKE,50.0,m,59.620,s,16,
Rest,Rest,,,56.234,s,,
Lap,BREASTSTROKE,50.0,m,54.461,s,28,14
1,BREASTSTROKE,50.0,m,54.500,s,28,
Rest,Rest,,,294.102,s,,
Lap,FREESTYLE,200.0,m,188.758,s,111,36
1,FREESTYLE,50.0,m,45.375,s,25,
2,FREESTYLE,50.0,m,48.750,s,28,
3,FREESTYLE,50.0,m,49.312,s,29,
4,FREESTYLE,50.0,m,45.375,s,29,
Rest,Rest,,,424.367,s,,
Lap,DRILL,100.0,m,87.430,s,,
1,DRILL,50.0,m,43.715,s,0,
2,DRILL,50.0,m,43.715,s,0,
Rest,Rest,,,46.820,s,,
Lap,DRILL,50.0,m,57.922,s,,
1,DRILL,50.0,m,57.922,s,0,
Rest,Rest,,,119.766,s,,
Lap,DRILL,50.0,m,56.664,s,,
1,DRILL,50.0,m,56.664,s,0,
Rest,Rest,,,166.860,s,,
Lap,DRILL,100.0,m,86.195,s,,
1,DRILL,50.0,m,43.970,s,0,
2,DRILL,50.0,m,43.970,s,0,
Rest,Rest,,,72.930,s,,
Lap,DRILL,50.0,m,54.700,s,,
1,DRILL,50.0,m,54.700,s,0,
Rest,Rest,,,29.492,s,,
Lap,DRILL,50.0,m,51.852,s,,
1,DRILL,50.0,m,51.852,s,0,
Rest,Rest,,,31.523,s,,
Lap,DRILL,50.0,m,51.813,s,,
1,DRILL,50.0,m,51.813,s,0,
Rest,Rest,,,48.313,s,,
Lap,DRILL,50.0,m,50.180,s,,
1,DRILL,50.0,m,50.180,s,0,
Rest,Rest,,,70.570,s,,
Lap,FREESTYLE,100.0,m,88.102,s,51,28
1,FREESTYLE,50.0,m,44.930,s,25,
2,FREESTYLE,50.0,m,44.930,s,26,
Rest,Rest,,,271.148,s,,
Lap,BUTTERFLY,50.0,m,43.211,s,24,9
1,BUTTERFLY,50.0,m,43.312,s,24,
Rest,Rest,,,88.539,s,,
Lap,BREASTSTROKE,50.0,m,58.234,s,28,13
1,BREASTSTROKE,50.0,m,58.250,s,28,
Rest,Rest,,,16.150,s,,
Lap,FREESTYLE,100.0,m,93.297,s,53,18
1,FREESTYLE,50.0,m,46.312,s,25,
2,FREESTYLE,50.0,m,46.937,s,28,
Rest,Rest,,,77.953,s,,
Lap,BREASTSTROKE,50.0,m,59.398,s,28,13
1,BREASTSTROKE,50.0,m,59.375,s,28,
Rest,Rest,,,113.102,s,,
Lap,FREESTYLE,50.0,m,36.367,s,14,14
1,FREESTYLE,50.0,m,36.375,s,14,
