Version:1.0
start_time,total_distance,total_distance_units,total_timer_time,total_timer_time_units,total_cycles,total_calories,pool_length,pool_length_units
2015-12-03,475.0,m,2951.250,s,171,117,25,m
split,swim_stroke,total_distance,total_distance_units,total_timer_time,total_timer_time_units,total_cycles,total_calories
Rest,Rest,,,3.773,s,,
Rest,Rest,,,4.836,s,,
Lap,BUTTERFLY,25.0,m,17.758,s,7,7
1,BUTTERFLY,25.0,m,17.750,s,7,
Rest,Rest,,,1145.242,s,,
Lap,BUTTERFLY,25.0,m,19.883,s,10,6
1,BUTTERFLY,25.0,m,19.875,s,10,
Rest,Rest,,,151.367,s,,
Lap,BUTTERFLY,25.0,m,18.820,s,9,7
1,BUTTERFLY,25.0,m,18.812,s,9,
Rest,Rest,,,35.992,s,,
Lap,DRILL,25.0,m,22.700,s,,
1,DRILL,25.0,m,22.700,s,0,
Rest,Rest,,,108.867,s,,
Lap,BUTTERFLY,25.0,m,19.695,s,10,6
1,BUTTERFLY,25.0,m,19.687,s,10,
Rest,Rest,,,200.492,s,,
Lap,BUTTERFLY,25.0,m,19.477,s,10,7
1,BUTTERFLY,25.0,m,19.437,s,10,
Rest,Rest,,,147.398,s,,
Lap,BUTTERFLY,50.0,m,42.570,s,22,12
1,BUTTERFLY,25.0,m,21.500,s,10,
2,BUTTERFLY,25.0,m,21.620,s,12,
Rest,Rest,,,90.867,s,,
Lap,BUTTERFLY,50.0,m,41.445,s,21,12
1,BUTTERFLY,25.0,m,21.000,s,10,
2,BUTTERFLY,25.0,m,20.500,s,11,
Rest,Rest,,,109.242,s,,
Lap,BUTTERFLY,25.0,m,19.672,s,11,6
1,BUTTERFLY,25.0,m,19.625,s,11,
Rest,Rest,,,135.266,s,,
Lap,BUTTERFLY,25.0,m,18.773,s,10,7
1,BUTTERFLY,25.0,m,18.750,s,10,
Rest,Rest,,,79.789,s,,
Lap,BUTTERFLY,25.0,m,18.508,s,8,7
1,BUTTERFLY,25.0,m,18.500,s,8,
Rest,Rest,,,47.367,s,,
Lap,BUTTERFLY,25.0,m,18.586,s,7,7
1,BUTTERFLY,25.0,m,18.625,s,7,
Rest,Rest,,,86.390,s,,
Lap,BUTTERFLY,25.0,m,18.398,s,8,7
1,BUTTERFLY,25.0,m,18.437,s,8,
Rest,Rest,,,52.289,s,,
Lap,BUTTERFLY,25.0,m,19.336,s,6,7
1,BUTTERFLY,25.0,m,19.375,s,6,
Rest,Rest,,,93.727,s,,
Lap,BUTTERFLY,50.0,m,42.266,s,22,12
1,BUTTERFLY,25.0,m,21.937,s,11,
2,BUTTERFLY,25.0,m,20.312,s,11,
Rest,Rest,,,81.484,s,,
Lap,BUTTERFLY,25.0,m,19.305,s,10,7
1,BUTTERFLY,25.0,m,19.250,s,10,
