Version:1.0
start_time,total_distance,total_distance_units,total_timer_time,total_timer_time_units,total_cycles,total_calories,pool_length,pool_length_units
2015-05-29,750.0,m,2302.992,s,321,127,50,m
split,swim_stroke,total_distance,total_distance_units,total_timer_time,total_timer_time_units,total_cycles,total_calories
Lap,DRILL,50.0,m,87.570,s,,
1,DRILL,50.0,m,87.570,s,0,
Rest,Rest,,,244.230,s,,
Lap,BUTTERFLY,50.0,m,47.758,s,17,14
1,BUTTERFLY,50.0,m,36.625,s,17,
Rest,Rest,,,45.742,s,,
Lap,FREESTYLE,100.0,m,95.297,s,57,18
1,FREESTYLE,50.0,m,49.000,s,29,
2,FREESTYLE,50.0,m,46.375,s,28,
Rest,Rest,,,659.828,s,,
Lap,BUTTERFLY,50.0,m,50.336,s,15,15
1,BUTTERFLY,50.0,m,31.812,s,15,
Rest,Rest,,,64.539,s,,
Lap,FREESTYLE,200.0,m,193.328,s,114,36
1,FREESTYLE,50.0,m,48.812,s,27,
2,FREESTYLE,50.0,m,46.562,s,27,
3,FREESTYLE,50.0,m,51.312,s,31,
4,FREESTYLE,50.0,m,46.625,s,29,
Rest,Rest,,,0.422,s,,
Rest,Rest,,,33.780,s,,
Rest,Rest,,,2.266,s,,
Rest,Rest,,,85.470,s,,
Rest,Rest,,,1.242,s,,
Rest,Rest,,,19.445,s,,
Lap,DRILL,100.0,m,167.470,s,,
1,DRILL,50.0,m,83.523,s,0,
2,DRILL,50.0,m,83.523,s,0,
Rest,Rest,,,144.828,s,,
Lap,BREASTSTROKE,100.0,m,119.469,s,63,26
1,BREASTSTROKE,50.0,m,59.375,s,30,
2,BREASTSTROKE,50.0,m,60.125,s,33,
Rest,Rest,,,147.781,s,,
Lap,FREESTYLE,100.0,m,89.289,s,55,18
1,FREESTYLE,50.0,m,45.687,s,28,
2,FREESTYLE,50.0,m,43.562,s,27,
