Version:1.0
start_time,total_distance,total_distance_units,total_timer_time,total_timer_time_units,total_cycles,total_calories,pool_length,pool_length_units
2015-05-23,1900.0,m,4644.703,s,1024,353,50,m
split,swim_stroke,total_distance,total_distance_units,total_timer_time,total_timer_time_units,total_cycles,total_calories
Lap,FREESTYLE,100.0,m,98.648,s,50,18
1,FREESTYLE,50.0,m,48.187,s,24,
2,FREESTYLE,50.0,m,49.937,s,26,
Rest,Rest,,,87.477,s,,
Lap,FREESTYLE,100.0,m,86.883,s,55,18
1,FREESTYLE,50.0,m,42.562,s,26,
2,FREESTYLE,50.0,m,44.375,s,29,
Rest,Rest,,,2.805,s,,
Lap,BREASTSTROKE,100.0,m,118.883,s,74,26
1,BREASTSTROKE,50.0,m,61.125,s,39,
2,BREASTSTROKE,50.0,m,57.812,s,35,
Rest,Rest,,,126.867,s,,
Lap,FREESTYLE,200.0,m,197.523,s,112,47
1,FREESTYLE,50.0,m,45.625,s,26,
2,FREESTYLE,50.0,m,50.562,s,29,
3,FREESTYLE,50.0,m,50.312,s,29,
4,FREESTYLE,50.0,m,50.999,s,28,
Rest,Rest,,,59.789,s,,
Lap,FREESTYLE,200.0,m,202.594,s,120,36
1,FREESTYLE,50.0,m,48.437,s,28,
2,FREESTYLE,50.0,m,53.625,s,31,
3,FREESTYLE,50.0,m,49.875,s,30,
4,FREESTYLE,50.0,m,50.687,s,31,
Rest,Rest,,,331.594,s,,
Lap,FREESTYLE,200.0,m,203.430,s,118,36
1,FREESTYLE,50.0,m,49.620,s,28,
2,FREESTYLE,50.0,m,52.500,s,30,
3,FREESTYLE,50.0,m,51.562,s,30,
4,FREESTYLE,50.0,m,50.312,s,30,
Rest,Rest,,,0.383,s,,
Rest,Rest,,,4.297,s,,
Rest,Rest,,,82.328,s,,
Lap,BREASTSTROKE,100.0,m,119.945,s,52,26
1,BREASTSTROKE,50.0,m,61.500,s,27,
2,BREASTSTROKE,50.0,m,58.437,s,25,
Rest,Rest,,,185.867,s,,
Lap,FREESTYLE,100.0,m,91.297,s,58,18
1,FREESTYLE,50.0,m,46.000,s,28,
2,FREESTYLE,50.0,m,45.312,s,30,
Rest,Rest,,,156.328,s,,
Rest,Rest,,,10.320,s,,
Rest,Rest,,,378.367,s,,
Lap,FREESTYLE,100.0,m,98.180,s,57,18
1,FREESTYLE,50.0,m,47.000,s,27,
2,FREESTYLE,50.0,m,51.187,s,30,
Rest,Rest,,,91.695,s,,
Lap,FREESTYLE,100.0,m,98.398,s,58,18
1,FREESTYLE,50.0,m,49.500,s,29,
2,FREESTYLE,50.0,m,48.937,s,29,
Rest,Rest,,,144.164,s,,
Lap,FREESTYLE,100.0,m,97.914,s,58,18
1,FREESTYLE,50.0,m,47.687,s,28,
2,FREESTYLE,50.0,m,50.250,s,30,
Rest,Rest,,,236.148,s,,
Lap,FREESTYLE,50.0,m,58.080,s,28,9
1,FREESTYLE,50.0,m,48.375,s,28,
Rest,Rest,,,43.617,s,,
Lap,FREESTYLE,50.0,m,47.336,s,27,9
1,FREESTYLE,50.0,m,47.375,s,27,
Rest,Rest,,,211.352,s,,
Lap,BUTTERFLY,50.0,m,50.922,s,23,10
1,BUTTERFLY,50.0,m,50.875,s,23,
Rest,Rest,,,141.453,s,,
Lap,BUTTERFLY,50.0,m,51.508,s,25,10
1,BUTTERFLY,50.0,m,51.562,s,25,
Rest,Rest,,,133.550,s,,
Lap,BUTTERFLY,100.0,m,120.633,s,52,18
1,BUTTERFLY,50.0,m,59.687,s,26,
2,BUTTERFLY,50.0,m,60.937,s,26,
Rest,Rest,,,155.992,s,,
Lap,DRILL,50.0,m,50.883,s,,
1,DRILL,50.0,m,50.883,s,0,
Rest,Rest,,,46.492,s,,
Lap,DRILL,50.0,m,49.922,s,,
1,DRILL,50.0,m,49.922,s,0,
Rest,Rest,,,76.766,s,,
Lap,FREESTYLE,100.0,m,93.750,s,57,18
1,FREESTYLE,50.0,m,47.375,s,29,
2,FREESTYLE,50.0,m,46.375,s,28,
