Version:1.0
start_time,total_distance,total_distance_units,total_timer_time,total_timer_time_units,total_cycles,total_calories,pool_length,pool_length_units
2015-09-22,1800.0,m,4647.797,s,456,243,25,m
split,swim_stroke,total_distance,total_distance_units,total_timer_time,total_timer_time_units,total_cycles,total_calories
Lap,FREESTYLE,100.0,m,86.727,s,44,20
1,FREESTYLE,25.0,m,20.437,s,10,
2,FREESTYLE,25.0,m,22.250,s,11,
3,FREESTYLE,25.0,m,22.000,s,11,
4,FREESTYLE,25.0,m,21.812,s,12,
Rest,Rest,,,57.570,s,,
Lap,FREESTYLE,100.0,m,95.531,s,42,20
1,FREESTYLE,25.0,m,23.620,s,10,
2,FREESTYLE,25.0,m,23.562,s,12,
3,FREESTYLE,25.0,m,25.875,s,13,
4,FREESTYLE,25.0,m,12.812,s,7,
Rest,Rest,,,78.281,s,,
Lap,BUTTERFLY,50.0,m,48.148,s,19,10
1,BUTTERFLY,25.0,m,24.562,s,10,
2,BUTTERFLY,25.0,m,23.625,s,9,
Rest,Rest,,,65.539,s,,
Lap,BUTTERFLY,50.0,m,44.836,s,20,10
1,BUTTERFLY,25.0,m,22.375,s,11,
2,BUTTERFLY,25.0,m,22.500,s,9,
Rest,Rest,,,105.914,s,,
Lap,BUTTERFLY,25.0,m,20.630,s,8,5
1,BUTTERFLY,25.0,m,20.125,s,8,
Rest,Rest,,,41.250,s,,
Lap,BUTTERFLY,25.0,m,21.719,s,8,6
1,BUTTERFLY,25.0,m,21.750,s,8,
Rest,Rest,,,46.344,s,,
Lap,DRILL,25.0,m,35.422,s,,
1,DRILL,25.0,m,35.422,s,0,
Rest,Rest,,,63.453,s,,
Lap,DRILL,25.0,m,35.080,s,,
1,DRILL,25.0,m,35.080,s,0,
Rest,Rest,,,40.492,s,,
Lap,DRILL,25.0,m,25.422,s,,
1,DRILL,25.0,m,25.422,s,0,
Rest,Rest,,,73.266,s,,
Lap,DRILL,25.0,m,30.375,s,,
1,DRILL,25.0,m,30.375,s,0,
Rest,Rest,,,92.000,s,,
Lap,DRILL,25.0,m,39.695,s,,
1,DRILL,25.0,m,39.695,s,0,
Rest,Rest,,,14.367,s,,
Lap,DRILL,25.0,m,42.500,s,,
1,DRILL,25.0,m,42.500,s,0,
Rest,Rest,,,49.313,s,,
Lap,DRILL,25.0,m,101.859,s,,
1,DRILL,25.0,m,101.859,s,0,
Rest,Rest,,,127.953,s,,
Lap,DRILL,75.0,m,65.430,s,,
1,DRILL,25.0,m,21.810,s,0,
2,DRILL,25.0,m,21.810,s,0,
3,DRILL,25.0,m,21.810,s,0,
Rest,Rest,,,21.633,s,,
Lap,DRILL,100.0,m,90.117,s,,
1,DRILL,25.0,m,22.529,s,0,
2,DRILL,25.0,m,22.529,s,0,
3,DRILL,25.0,m,22.529,s,0,
4,DRILL,25.0,m,22.529,s,0,
Rest,Rest,,,32.945,s,,
Lap,DRILL,25.0,m,33.484,s,,
1,DRILL,25.0,m,33.484,s,0,
Rest,Rest,,,24.328,s,,
Lap,DRILL,25.0,m,34.219,s,,
1,DRILL,25.0,m,34.219,s,0,
Rest,Rest,,,119.469,s,,
Lap,DRILL,50.0,m,53.891,s,,
1,DRILL,25.0,m,26.945,s,0,
2,DRILL,25.0,m,26.945,s,0,
Rest,Rest,,,95.359,s,,
Lap,DRILL,50.0,m,44.609,s,,
1,DRILL,25.0,m,22.304,s,0,
2,DRILL,25.0,m,22.304,s,0,
Rest,Rest,,,101.828,s,,
Lap,DRILL,50.0,m,36.133,s,,
1,DRILL,25.0,m,18.660,s,0,
2,DRILL,25.0,m,18.660,s,0,
Rest,Rest,,,118.742,s,,
Lap,DRILL,50.0,m,48.289,s,,
1,DRILL,25.0,m,24.144,s,0,
2,DRILL,25.0,m,24.144,s,0,
Rest,Rest,,,158.461,s,,
Lap,DRILL,50.0,m,52.390,s,,
1,DRILL,25.0,m,26.190,s,0,
2,DRILL,25.0,m,26.190,s,0,
Rest,Rest,,,59.836,s,,
Rest,Rest,,,4.336,s,,
Rest,Rest,,,10.664,s,,
Lap,BACKSTROKE,100.0,m,116.961,s,41,21
1,BACKSTROKE,25.0,m,28.187,s,10,
2,BACKSTROKE,25.0,m,26.620,s,9,
3,BACKSTROKE,25.0,m,33.875,s,11,
4,BACKSTROKE,25.0,m,28.812,s,11,
Rest,Rest,,,64.102,s,,
Lap,BACKSTROKE,100.0,m,113.531,s,44,20
1,BACKSTROKE,25.0,m,27.437,s,10,
2,BACKSTROKE,25.0,m,28.250,s,11,
3,BACKSTROKE,25.0,m,30.812,s,13,
4,BACKSTROKE,25.0,m,27.620,s,10,
Rest,Rest,,,87.940,s,,
Lap,BACKSTROKE,50.0,m,50.390,s,21,10
1,BACKSTROKE,25.0,m,23.687,s,10,
2,BACKSTROKE,25.0,m,26.375,s,11,
Rest,Rest,,,145.230,s,,
Lap,FREESTYLE,50.0,m,44.680,s,15,10
1,FREESTYLE,25.0,m,21.000,s,10,
2,FREESTYLE,25.0,m,11.375,s,5,
Rest,Rest,,,60.695,s,,
Lap,FREESTYLE,50.0,m,43.406,s,22,10
1,FREESTYLE,25.0,m,21.312,s,10,
2,FREESTYLE,25.0,m,22.620,s,12,
Rest,Rest,,,107.844,s,,
Lap,FREESTYLE,100.0,m,88.375,s,43,20
1,FREESTYLE,25.0,m,21.687,s,10,
2,FREESTYLE,25.0,m,22.500,s,11,
3,FREESTYLE,25.0,m,22.500,s,11,
4,FREESTYLE,25.0,m,21.687,s,11,
Rest,Rest,,,68.313,s,,
Lap,FREESTYLE,50.0,m,39.734,s,21,10
1,FREESTYLE,25.0,m,20.620,s,11,
2,FREESTYLE,25.0,m,19.687,s,10,
Rest,Rest,,,83.516,s,,
Lap,BUTTERFLY,25.0,m,21.883,s,9,5
1,BUTTERFLY,25.0,m,21.875,s,9,
Rest,Rest,,,49.742,s,,
Lap,BUTTERFLY,25.0,m,20.586,s,8,6
1,BUTTERFLY,25.0,m,20.625,s,8,
Rest,Rest,,,56.539,s,,
Lap,BUTTERFLY,25.0,m,21.305,s,8,5
1,BUTTERFLY,25.0,m,21.312,s,8,
Rest,Rest,,,45.133,s,,
Lap,BUTTERFLY,25.0,m,20.641,s,8,6
1,BUTTERFLY,25.0,m,20.625,s,8,
Rest,Rest,,,47.922,s,,
Lap,BUTTERFLY,25.0,m,21.344,s,8,6
1,BUTTERFLY,25.0,m,21.375,s,8,
Rest,Rest,,,43.531,s,,
Lap,BUTTERFLY,25.0,m,20.875,s,8,6
1,BUTTERFLY,25.0,m,20.875,s,8,
Rest,Rest,,,106.688,s,,
Lap,BUTTERFLY,25.0,m,20.227,s,8,6
1,BUTTERFLY,25.0,m,20.312,s,8,
Rest,Rest,,,61.586,s,,
Lap,BUTTERFLY,25.0,m,19.906,s,9,6
1,BUTTERFLY,25.0,m,19.937,s,9,
Rest,Rest,,,85.531,s,,
Lap,BUTTERFLY,25.0,m,20.523,s,8,5
1,BUTTERFLY,25.0,m,20.625,s,8,
Rest,Rest,,,48.102,s,,
Lap,BUTTERFLY,25.0,m,20.328,s,8,6
1,BUTTERFLY,25.0,m,20.375,s,8,
Rest,Rest,,,41.422,s,,
Lap,BREASTSTROKE,50.0,m,50.688,s,26,14
1,BREASTSTROKE,25.0,m,26.625,s,13,
2,BREASTSTROKE,25.0,m,24.620,s,13,
