Version:1.0
start_time,total_distance,total_distance_units,total_timer_time,total_timer_time_units,total_cycles,total_calories,pool_length,pool_length_units
2015-11-16,1500.0,m,4287.914,s,275,163,25,m
split,swim_stroke,total_distance,total_distance_units,total_timer_time,total_timer_time_units,total_cycles,total_calories
Lap,FREESTYLE,100.0,m,83.266,s,43,20
1,FREESTYLE,25.0,m,18.687,s,9,
2,FREESTYLE,25.0,m,21.125,s,11,
3,FREESTYLE,25.0,m,23.000,s,12,
4,FREESTYLE,25.0,m,20.187,s,11,
Rest,Rest,,,137.836,s,,
Lap,DRILL,200.0,m,190.188,s,,
1,DRILL,25.0,m,23.773,s,0,
2,DRILL,25.0,m,23.773,s,0,
3,DRILL,25.0,m,23.773,s,0,
4,DRILL,25.0,m,23.773,s,0,
5,DRILL,25.0,m,23.773,s,0,
6,DRILL,25.0,m,23.773,s,0,
7,DRILL,25.0,m,23.773,s,0,
8,DRILL,25.0,m,23.773,s,0,
Rest,Rest,,,86.375,s,,
Lap,DRILL,100.0,m,91.828,s,,
1,DRILL,25.0,m,22.957,s,0,
2,DRILL,25.0,m,22.957,s,0,
3,DRILL,25.0,m,22.957,s,0,
4,DRILL,25.0,m,22.957,s,0,
Rest,Rest,,,141.172,s,,
Lap,DRILL,100.0,m,90.953,s,,
1,DRILL,25.0,m,22.738,s,0,
2,DRILL,25.0,m,22.738,s,0,
3,DRILL,25.0,m,22.738,s,0,
4,DRILL,25.0,m,22.738,s,0,
Rest,Rest,,,94.470,s,,
Lap,DRILL,50.0,m,40.328,s,,
1,DRILL,25.0,m,20.164,s,0,
2,DRILL,25.0,m,20.164,s,0,
Rest,Rest,,,84.734,s,,
Lap,DRILL,25.0,m,28.492,s,,
1,DRILL,25.0,m,28.492,s,0,
Rest,Rest,,,86.445,s,,
Lap,DRILL,25.0,m,24.789,s,,
1,DRILL,25.0,m,24.789,s,0,
Rest,Rest,,,28.711,s,,
Lap,DRILL,25.0,m,23.906,s,,
1,DRILL,25.0,m,23.906,s,0,
Rest,Rest,,,34.781,s,,
Lap,DRILL,25.0,m,24.289,s,,
1,DRILL,25.0,m,24.289,s,0,
Rest,Rest,,,135.711,s,,
Lap,DRILL,25.0,m,20.648,s,,
1,DRILL,25.0,m,20.648,s,0,
Rest,Rest,,,59.227,s,,
Lap,DRILL,25.0,m,20.672,s,,
1,DRILL,25.0,m,20.672,s,0,
Rest,Rest,,,71.703,s,,
Lap,DRILL,25.0,m,29.297,s,,
1,DRILL,25.0,m,29.297,s,0,
Rest,Rest,,,47.891,s,,
Lap,DRILL,25.0,m,33.164,s,,
1,DRILL,25.0,m,33.164,s,0,
Rest,Rest,,,97.961,s,,
Lap,BUTTERFLY,25.0,m,17.719,s,8,7
1,BUTTERFLY,25.0,m,17.687,s,8,
Rest,Rest,,,78.469,s,,
Lap,BUTTERFLY,25.0,m,19.523,s,8,6
1,BUTTERFLY,25.0,m,19.562,s,8,
Rest,Rest,,,89.789,s,,
Lap,BUTTERFLY,25.0,m,18.766,s,8,7
1,BUTTERFLY,25.0,m,18.750,s,8,
Rest,Rest,,,89.359,s,,
Lap,BUTTERFLY,25.0,m,18.734,s,10,7
1,BUTTERFLY,25.0,m,18.812,s,10,
Rest,Rest,,,71.891,s,,
Lap,BUTTERFLY,25.0,m,19.550,s,9,7
1,BUTTERFLY,25.0,m,19.620,s,9,
Rest,Rest,,,51.508,s,,
Lap,BUTTERFLY,25.0,m,18.508,s,8,7
1,BUTTERFLY,25.0,m,18.562,s,8,
Rest,Rest,,,186.930,s,,
Lap,BUTTERFLY,25.0,m,17.648,s,8,7
1,BUTTERFLY,25.0,m,17.687,s,8,
Rest,Rest,,,99.539,s,,
Lap,BUTTERFLY,25.0,m,17.484,s,7,7
1,BUTTERFLY,25.0,m,17.437,s,7,
Rest,Rest,,,117.766,s,,
Lap,BUTTERFLY,25.0,m,17.555,s,7,7
1,BUTTERFLY,25.0,m,17.562,s,7,
Rest,Rest,,,82.445,s,,
Lap,BUTTERFLY,25.0,m,18.203,s,8,7
1,BUTTERFLY,25.0,m,18.250,s,8,
Rest,Rest,,,107.734,s,,
Lap,BREASTSTROKE,50.0,m,52.477,s,21,14
1,BREASTSTROKE,25.0,m,29.125,s,11,
2,BREASTSTROKE,25.0,m,23.375,s,10,
Rest,Rest,,,90.398,s,,
Lap,DRILL,25.0,m,24.160,s,,
1,DRILL,25.0,m,24.160,s,0,
Rest,Rest,,,18.484,s,,
Lap,DRILL,25.0,m,25.719,s,,
1,DRILL,25.0,m,25.719,s,0,
Rest,Rest,,,67.969,s,,
Lap,DRILL,25.0,m,39.906,s,,
1,DRILL,25.0,m,39.906,s,0,
Rest,Rest,,,35.281,s,,
Lap,DRILL,25.0,m,23.352,s,,
1,DRILL,25.0,m,23.352,s,0,
Rest,Rest,,,89.860,s,,
Lap,FREESTYLE,50.0,m,39.164,s,22,10
1,FREESTYLE,25.0,m,18.625,s,10,
2,FREESTYLE,25.0,m,20.562,s,12,
Rest,Rest,,,49.523,s,,
Lap,FREESTYLE,50.0,m,39.836,s,22,10
1,FREESTYLE,25.0,m,19.375,s,10,
2,FREESTYLE,25.0,m,20.500,s,12,
Rest,Rest,,,130.413,s,,
Lap,FREESTYLE,100.0,m,91.305,s,46,20
1,FREESTYLE,25.0,m,21.250,s,10,
2,FREESTYLE,25.0,m,25.375,s,13,
3,FREESTYLE,25.0,m,22.000,s,11,
4,FREESTYLE,25.0,m,22.750,s,12,
Rest,Rest,,,124.570,s,,
Lap,FREESTYLE,50.0,m,42.305,s,21,10
1,FREESTYLE,25.0,m,20.625,s,10,
2,FREESTYLE,25.0,m,21.750,s,11,
Rest,Rest,,,55.945,s,,
Lap,FREESTYLE,25.0,m,19.344,s,10,5
1,FREESTYLE,25.0,m,19.375,s,10,
Rest,Rest,,,71.531,s,,
Lap,FREESTYLE,25.0,m,17.938,s,9,5
1,FREESTYLE,25.0,m,18.000,s,9,
Rest,Rest,,,74.438,s,,
Lap,DRILL,25.0,m,15.797,s,,
1,DRILL,25.0,m,15.797,s,0,
Rest,Rest,,,65.266,s,,
Lap,DRILL,25.0,m,15.648,s,,
1,DRILL,25.0,m,15.648,s,0,
