Version:1.0
start_time,total_distance,total_distance_units,total_timer_time,total_timer_time_units,total_cycles,total_calories,pool_length,pool_length_units
2016-06-09,1000.0,m,1252.578,s,478,196,50,m
split,swim_stroke,total_distance,total_distance_units,total_timer_time,total_timer_time_units,total_cycles,total_calories
Lap,FREESTYLE,600.0,m,607.406,s,277,108
1,FREESTYLE,50.0,m,45.812,s,16,
2,FREESTYLE,50.0,m,49.937,s,20,
3,FREESTYLE,50.0,m,50.812,s,22,
4,FREESTYLE,50.0,m,50.625,s,19,
5,FREESTYLE,50.0,m,51.500,s,26,
6,FREESTYLE,50.0,m,51.250,s,19,
7,FREESTYLE,50.0,m,51.375,s,25,
8,FREESTYLE,50.0,m,53.620,s,26,
9,FREESTYLE,50.0,m,53.000,s,25,
10,FREESTYLE,50.0,m,47.125,s,25,
11,FREESTYLE,50.0,m,50.250,s,26,
12,FREESTYLE,50.0,m,52.312,s,28,
Rest,Rest,,,52.984,s,,
Lap,BREASTSTROKE,100.0,m,119.953,s,52,26
1,BREASTSTROKE,50.0,m,61.562,s,25,
2,BREASTSTROKE,50.0,m,58.375,s,27,
Rest,Rest,,,76.984,s,,
Rest,Rest,,,1.750,s,,
Rest,Rest,,,29.000,s,,
Lap,MIXED,200.0,m,207.391,s,100,44
1,BUTTERFLY,50.0,m,50.250,s,23,
2,BACKSTROKE,50.0,m,56.500,s,24,
3,BREASTSTROKE,50.0,m,62.812,s,31,
4,FREESTYLE,50.0,m,37.812,s,22,
Rest,Rest,,,63.609,s,,
Lap,FREESTYLE,100.0,m,93.297,s,49,18
1,FREESTYLE,50.0,m,45.875,s,24,
2,FREESTYLE,50.0,m,47.500,s,25,
