Version:1.0
start_time,total_distance,total_distance_units,total_timer_time,total_timer_time_units,total_cycles,total_calories,pool_length,pool_length_units
2016-11-09,1000.0,m,1644.578,s,505,194,50,m
split,swim_stroke,total_distance,total_distance_units,total_timer_time,total_timer_time_units,total_cycles,total_calories
Lap,FREESTYLE,200.0,m,181.992,s,98,36
1,FREESTYLE,50.0,m,44.437,s,24,
2,FREESTYLE,50.0,m,46.750,s,24,
3,FREESTYLE,50.0,m,47.000,s,25,
4,FREESTYLE,50.0,m,43.500,s,25,
Rest,Rest,,,58.922,s,,
Lap,BREASTSTROKE,100.0,m,148.160,s,65,25
1,BREASTSTROKE,50.0,m,77.250,s,34,
2,BREASTSTROKE,50.0,m,70.812,s,31,
Rest,Rest,,,41.672,s,,
Lap,FREESTYLE,100.0,m,100.289,s,42,18
1,FREESTYLE,50.0,m,48.812,s,24,
2,FREESTYLE,50.0,m,38.750,s,18,
Rest,Rest,,,68.523,s,,
Lap,FREESTYLE,100.0,m,105.359,s,50,18
1,FREESTYLE,50.0,m,54.125,s,26,
2,FREESTYLE,50.0,m,51.250,s,24,
Rest,Rest,,,20.766,s,,
Lap,BREASTSTROKE,100.0,m,149.516,s,63,25
1,BREASTSTROKE,50.0,m,80.500,s,34,
2,BREASTSTROKE,50.0,m,69.000,s,29,
Rest,Rest,,,235.470,s,,
Lap,FREESTYLE,200.0,m,200.390,s,100,36
1,FREESTYLE,50.0,m,47.625,s,25,
2,FREESTYLE,50.0,m,39.500,s,18,
3,FREESTYLE,50.0,m,65.312,s,33,
4,FREESTYLE,50.0,m,47.625,s,24,
Rest,Rest,,,131.586,s,,
Lap,FREESTYLE,200.0,m,202.586,s,87,36
1,FREESTYLE,50.0,m,48.937,s,25,
2,FREESTYLE,50.0,m,51.500,s,17,
3,FREESTYLE,50.0,m,54.625,s,25,
4,FREESTYLE,50.0,m,47.562,s,20,
