Version:1.0
start_time,total_distance,total_distance_units,total_timer_time,total_timer_time_units,total_cycles,total_calories,pool_length,pool_length_units
2016-12-23,2000.0,m,3769.390,s,1024,466,50,m
split,swim_stroke,total_distance,total_distance_units,total_timer_time,total_timer_time_units,total_cycles,total_calories
Lap,FREESTYLE,100.0,m,78.734,s,48,18
1,FREESTYLE,50.0,m,37.875,s,22,
2,FREESTYLE,50.0,m,40.562,s,26,
Rest,Rest,,,27.242,s,,
Lap,BREASTSTROKE,100.0,m,129.150,s,58,26
1,BREASTSTROKE,50.0,m,64.500,s,29,
2,BREASTSTROKE,50.0,m,64.562,s,29,
Rest,Rest,,,58.734,s,,
Lap,FREESTYLE,200.0,m,182.398,s,96,36
1,FREESTYLE,50.0,m,43.000,s,22,
2,FREESTYLE,50.0,m,48.125,s,25,
3,FREESTYLE,50.0,m,46.375,s,25,
4,FREESTYLE,50.0,m,44.937,s,24,
Rest,Rest,,,83.852,s,,
Lap,FREESTYLE,100.0,m,87.531,s,50,18
1,FREESTYLE,50.0,m,43.620,s,25,
2,FREESTYLE,50.0,m,44.500,s,25,
Rest,Rest,,,62.906,s,,
Rest,Rest,,,190.695,s,,
Rest,Rest,,,8.992,s,,
Lap,BREASTSTROKE,100.0,m,130.805,s,46,43
1,BREASTSTROKE,50.0,m,65.406,s,23,
2,BREASTSTROKE,50.0,m,65.406,s,23,
Rest,Rest,,,95.258,s,,
Lap,FREESTYLE,100.0,m,85.547,s,48,18
1,FREESTYLE,50.0,m,42.437,s,23,
2,FREESTYLE,50.0,m,43.620,s,25,
Rest,Rest,,,171.780,s,,
Lap,FREESTYLE,50.0,m,40.453,s,23,9
1,FREESTYLE,50.0,m,40.437,s,23,
Rest,Rest,,,70.609,s,,
Lap,BACKSTROKE,50.0,m,64.860,s,25,11
1,BACKSTROKE,50.0,m,64.125,s,25,
Rest,Rest,,,219.164,s,,
Lap,FREESTYLE,100.0,m,91.550,s,39,18
1,FREESTYLE,50.0,m,44.750,s,18,
2,FREESTYLE,50.0,m,46.375,s,21,
Rest,Rest,,,3.695,s,,
Lap,MIXED,200.0,m,223.180,s,115,44
1,BREASTSTROKE,50.0,m,65.000,s,30,
2,FREESTYLE,50.0,m,46.125,s,26,
3,BREASTSTROKE,50.0,m,71.125,s,36,
4,FREESTYLE,50.0,m,41.000,s,23,
Rest,Rest,,,69.258,s,,
Lap,FREESTYLE,100.0,m,94.891,s,49,18
1,FREESTYLE,50.0,m,45.937,s,25,
2,FREESTYLE,50.0,m,49.000,s,24,
Rest,Rest,,,453.797,s,,
Lap,FREESTYLE,200.0,m,179.453,s,97,36
1,FREESTYLE,50.0,m,42.937,s,22,
2,FREESTYLE,50.0,m,46.250,s,25,
3,FREESTYLE,50.0,m,46.125,s,25,
4,FREESTYLE,50.0,m,44.187,s,25,
Rest,Rest,,,25.984,s,,
Lap,BREASTSTROKE,200.0,m,273.310,s,123,68
1,BREASTSTROKE,50.0,m,65.937,s,30,
2,BREASTSTROKE,50.0,m,66.250,s,30,
3,BREASTSTROKE,50.0,m,65.562,s,29,
4,BREASTSTROKE,50.0,m,75.312,s,34,
Rest,Rest,,,44.406,s,,
Lap,BUTTERFLY,50.0,m,43.000,s,19,12
1,BUTTERFLY,50.0,m,43.125,s,19,
Rest,Rest,,,32.938,s,,
Lap,BREASTSTROKE,50.0,m,67.594,s,33,13
1,BREASTSTROKE,50.0,m,67.562,s,33,
Rest,Rest,,,6.594,s,,
Lap,FREESTYLE,200.0,m,184.672,s,102,36
1,FREESTYLE,50.0,m,46.812,s,25,
2,FREESTYLE,50.0,m,52.875,s,28,
3,FREESTYLE,50.0,m,41.620,s,23,
4,FREESTYLE,50.0,m,44.000,s,26,
Rest,Rest,,,47.203,s,,
Lap,BREASTSTROKE,100.0,m,140.203,s,53,42
1,BREASTSTROKE,50.0,m,70.500,s,24,
2,BREASTSTROKE,50.0,m,69.687,s,29,
