Version:1.0
start_time,total_distance,total_distance_units,total_timer_time,total_timer_time_units,total_cycles,total_calories,pool_length,pool_length_units
2016-01-24,1600.0,m,2830.310,s,774,340,50,m
split,swim_stroke,total_distance,total_distance_units,total_timer_time,total_timer_time_units,total_cycles,total_calories
Lap,BACKSTROKE,200.0,m,250.875,s,97,44
1,BACKSTROKE,50.0,m,58.375,s,23,
2,BACKSTROKE,50.0,m,64.620,s,25,
3,BACKSTROKE,50.0,m,64.375,s,25,
4,BACKSTROKE,50.0,m,63.875,s,24,
Rest,Rest,,,62.664,s,,
Lap,FREESTYLE,200.0,m,187.578,s,103,37
1,FREESTYLE,50.0,m,42.625,s,25,
2,FREESTYLE,50.0,m,48.125,s,27,
3,FREESTYLE,50.0,m,48.438,s,25,
4,FREESTYLE,50.0,m,48.438,s,26,
Rest,Rest,,,58.734,s,,
Lap,FREESTYLE,50.0,m,45.367,s,26,9
1,FREESTYLE,50.0,m,45.375,s,26,
Rest,Rest,,,22.258,s,,
Lap,FREESTYLE,50.0,m,44.000,s,20,9
1,FREESTYLE,50.0,m,36.375,s,20,
Rest,Rest,,,35.688,s,,
Lap,BACKSTROKE,100.0,m,128.523,s,48,22
1,BACKSTROKE,50.0,m,63.562,s,23,
2,BACKSTROKE,50.0,m,64.937,s,25,
Rest,Rest,,,56.727,s,,
Lap,BACKSTROKE,50.0,m,67.000,s,23,11
1,BACKSTROKE,50.0,m,67.620,s,23,
Rest,Rest,,,67.625,s,,
Lap,BACKSTROKE,50.0,m,59.969,s,23,11
1,BACKSTROKE,50.0,m,60.000,s,23,
Rest,Rest,,,53.344,s,,
Lap,BREASTSTROKE,100.0,m,123.273,s,49,26
1,BREASTSTROKE,50.0,m,60.250,s,24,
2,BREASTSTROKE,50.0,m,63.620,s,25,
Rest,Rest,,,17.102,s,,
Lap,BREASTSTROKE,100.0,m,121.563,s,47,26
1,BREASTSTROKE,50.0,m,63.562,s,25,
2,BREASTSTROKE,50.0,m,58.620,s,22,
Rest,Rest,,,86.375,s,,
Lap,FREESTYLE,100.0,m,96.470,s,50,18
1,FREESTYLE,50.0,m,48.310,s,25,
2,FREESTYLE,50.0,m,48.310,s,25,
Rest,Rest,,,60.391,s,,
Lap,BUTTERFLY,50.0,m,48.789,s,21,11
1,BUTTERFLY,50.0,m,48.812,s,21,
Rest,Rest,,,224.586,s,,
Lap,BUTTERFLY,50.0,m,47.844,s,17,14
1,BUTTERFLY,50.0,m,35.750,s,17,
Rest,Rest,,,19.719,s,,
Lap,BREASTSTROKE,100.0,m,134.875,s,50,26
1,BREASTSTROKE,50.0,m,65.625,s,26,
2,BREASTSTROKE,50.0,m,59.812,s,24,
Rest,Rest,,,41.563,s,,
Lap,FREESTYLE,100.0,m,96.555,s,50,18
1,FREESTYLE,50.0,m,47.625,s,25,
2,FREESTYLE,50.0,m,48.937,s,25,
Rest,Rest,,,102.320,s,,
Lap,FREESTYLE,100.0,m,90.219,s,45,18
1,FREESTYLE,50.0,m,43.937,s,26,
2,FREESTYLE,50.0,m,33.875,s,19,
Rest,Rest,,,64.310,s,,
Lap,FREESTYLE,100.0,m,93.203,s,55,18
1,FREESTYLE,50.0,m,46.375,s,27,
2,FREESTYLE,50.0,m,46.875,s,28,
Rest,Rest,,,97.470,s,,
Lap,BREASTSTROKE,50.0,m,67.789,s,26,13
1,BREASTSTROKE,50.0,m,67.750,s,26,
Rest,Rest,,,12.773,s,,
Lap,FREESTYLE,50.0,m,42.867,s,24,9
1,FREESTYLE,50.0,m,42.875,s,24,
