Version:1.0
start_time,total_distance,total_distance_units,total_timer_time,total_timer_time_units,total_cycles,total_calories,pool_length,pool_length_units
2016-03-08,1050.0,m,2817.359,s,418,237,25,m
split,swim_stroke,total_distance,total_distance_units,total_timer_time,total_timer_time_units,total_cycles,total_calories
Lap,FREESTYLE,100.0,m,86.164,s,39,20
1,FREESTYLE,25.0,m,19.625,s,10,
2,FREESTYLE,25.0,m,22.250,s,9,
3,FREESTYLE,25.0,m,22.312,s,11,
4,FREESTYLE,25.0,m,21.437,s,9,
Rest,Rest,,,34.242,s,,
Lap,FREESTYLE,50.0,m,44.953,s,21,10
1,FREESTYLE,25.0,m,20.937,s,10,
2,FREESTYLE,25.0,m,24.000,s,11,
Rest,Rest,,,22.297,s,,
Lap,FREESTYLE,50.0,m,44.836,s,21,10
1,FREESTYLE,25.0,m,21.687,s,10,
2,FREESTYLE,25.0,m,23.187,s,11,
Rest,Rest,,,48.664,s,,
Lap,BREASTSTROKE,50.0,m,56.797,s,24,14
1,BREASTSTROKE,25.0,m,31.625,s,14,
2,BREASTSTROKE,25.0,m,25.250,s,10,
Rest,Rest,,,14.203,s,,
Lap,BREASTSTROKE,50.0,m,54.492,s,23,14
1,BREASTSTROKE,25.0,m,29.312,s,12,
2,BREASTSTROKE,25.0,m,25.250,s,11,
Rest,Rest,,,123.758,s,,
Lap,FREESTYLE,50.0,m,39.617,s,20,10
1,FREESTYLE,25.0,m,20.125,s,9,
2,FREESTYLE,25.0,m,19.562,s,11,
Rest,Rest,,,28.445,s,,
Lap,FREESTYLE,50.0,m,45.891,s,23,10
1,FREESTYLE,25.0,m,20.500,s,10,
2,FREESTYLE,25.0,m,25.375,s,13,
Rest,Rest,,,206.484,s,,
Lap,FREESTYLE,50.0,m,41.609,s,20,10
1,FREESTYLE,25.0,m,20.437,s,10,
2,FREESTYLE,25.0,m,21.187,s,10,
Rest,Rest,,,103.828,s,,
Lap,BREASTSTROKE,100.0,m,116.500,s,43,27
1,BREASTSTROKE,25.0,m,30.187,s,9,
2,BREASTSTROKE,25.0,m,33.000,s,13,
3,BREASTSTROKE,25.0,m,27.687,s,10,
4,BREASTSTROKE,25.0,m,25.687,s,11,
Rest,Rest,,,148.563,s,,
Lap,BUTTERFLY,25.0,m,19.141,s,7,7
1,BUTTERFLY,25.0,m,19.125,s,7,
Rest,Rest,,,25.734,s,,
Lap,BREASTSTROKE,25.0,m,26.367,s,11,7
1,BREASTSTROKE,25.0,m,26.375,s,11,
Rest,Rest,,,56.195,s,,
Lap,FREESTYLE,50.0,m,39.961,s,22,10
1,FREESTYLE,25.0,m,19.437,s,11,
2,FREESTYLE,25.0,m,20.562,s,11,
Rest,Rest,,,37.727,s,,
Lap,BACKSTROKE,25.0,m,28.180,s,9,5
1,BACKSTROKE,25.0,m,28.187,s,9,
Rest,Rest,,,11.133,s,,
Lap,BREASTSTROKE,25.0,m,29.953,s,10,15
1,BREASTSTROKE,25.0,m,29.937,s,10,
Rest,Rest,,,4.984,s,,
Lap,BUTTERFLY,25.0,m,19.898,s,9,6
1,BUTTERFLY,25.0,m,19.875,s,9,
Rest,Rest,,,93.477,s,,
Lap,BREASTSTROKE,25.0,m,32.563,s,13,6
1,BREASTSTROKE,25.0,m,32.625,s,13,
Rest,Rest,,,75.630,s,,
Lap,FREESTYLE,100.0,m,87.273,s,44,20
1,FREESTYLE,25.0,m,22.750,s,11,
2,FREESTYLE,25.0,m,20.812,s,10,
3,FREESTYLE,25.0,m,23.687,s,13,
4,FREESTYLE,25.0,m,20.812,s,10,
Rest,Rest,,,150.539,s,,
Lap,BUTTERFLY,25.0,m,20.695,s,8,5
1,BUTTERFLY,25.0,m,20.687,s,8,
Rest,Rest,,,19.117,s,,
Lap,BUTTERFLY,25.0,m,19.227,s,9,7
1,BUTTERFLY,25.0,m,19.250,s,9,
Rest,Rest,,,500.211,s,,
Lap,FREESTYLE,50.0,m,40.945,s,20,10
1,FREESTYLE,25.0,m,20.187,s,10,
2,FREESTYLE,25.0,m,20.812,s,10,
Rest,Rest,,,25.680,s,,
Lap,BREASTSTROKE,50.0,m,60.470,s,22,14
1,BREASTSTROKE,25.0,m,30.937,s,11,
2,BREASTSTROKE,25.0,m,29.125,s,11,
Rest,Rest,,,42.391,s,,
Lap,DRILL,25.0,m,23.742,s,,
1,DRILL,25.0,m,23.742,s,0,
Rest,Rest,,,42.258,s,,
Lap,DRILL,25.0,m,22.539,s,,
1,DRILL,25.0,m,22.539,s,0,
