Version:1.0
start_time,total_distance,total_distance_units,total_timer_time,total_timer_time_units,total_cycles,total_calories,pool_length,pool_length_units
2016-10-18,1700.0,m,2888.508,s,805,318,50,m
split,swim_stroke,total_distance,total_distance_units,total_timer_time,total_timer_time_units,total_cycles,total_calories
Lap,MIXED,500.0,m,557.180,s,274,128
1,BREASTSTROKE,50.0,m,52.124,s,26,
2,BREASTSTROKE,50.0,m,69.750,s,32,
3,FREESTYLE,50.0,m,43.000,s,24,
4,FREESTYLE,50.0,m,47.312,s,25,
5,BREASTSTROKE,50.0,m,77.625,s,36,
6,FREESTYLE,50.0,m,50.562,s,26,
7,FREESTYLE,50.0,m,48.875,s,25,
8,BREASTSTROKE,50.0,m,65.624,s,33,
9,FREESTYLE,50.0,m,46.620,s,25,
10,FREESTYLE,50.0,m,41.437,s,22,
Rest,Rest,,,9.273,s,,
Rest,Rest,,,281.906,s,,
Lap,MIXED,500.0,m,581.555,s,285,99
1,FREESTYLE,50.0,m,45.437,s,24,
2,FREESTYLE,50.0,m,56.187,s,28,
3,BREASTSTROKE,50.0,m,67.875,s,31,
4,FREESTYLE,50.0,m,51.687,s,27,
5,BREASTSTROKE,50.0,m,68.281,s,34,
6,BREASTSTROKE,50.0,m,68.281,s,34,
7,FREESTYLE,50.0,m,48.250,s,24,
8,BREASTSTROKE,50.0,m,82.125,s,35,
9,FREESTYLE,50.0,m,44.437,s,22,
10,FREESTYLE,50.0,m,50.000,s,26,
Rest,Rest,,,360.820,s,,
Lap,DRILL,200.0,m,236.734,s,,
1,DRILL,50.0,m,59.183,s,0,
2,DRILL,50.0,m,59.183,s,0,
3,DRILL,50.0,m,59.183,s,0,
4,DRILL,50.0,m,59.183,s,0,
Rest,Rest,,,52.203,s,,
Lap,FREESTYLE,100.0,m,97.750,s,48,18
1,FREESTYLE,50.0,m,46.625,s,22,
2,FREESTYLE,50.0,m,51.125,s,26,
Rest,Rest,,,78.875,s,,
Lap,MIXED,350.0,m,433.180,s,198,73
1,FREESTYLE,50.0,m,50.968,s,22,
2,BREASTSTROKE,50.0,m,50.968,s,23,
3,FREESTYLE,50.0,m,68.750,s,33,
4,BREASTSTROKE,50.0,m,83.937,s,37,
5,FREESTYLE,50.0,m,48.620,s,24,
6,BREASTSTROKE,50.0,m,84.875,s,37,
7,FREESTYLE,50.0,m,45.750,s,22,
Rest,Rest,,,35.820,s,,
Rest,Rest,,,16.773,s,,
Rest,Rest,,,67.789,s,,
Rest,Rest,,,7.656,s,,
Rest,Rest,,,12.344,s,,
Lap,DRILL,50.0,m,58.414,s,,
1,DRILL,50.0,m,58.414,s,0,
