Version:1.0
start_time,total_distance,total_distance_units,total_timer_time,total_timer_time_units,total_cycles,total_calories,pool_length,pool_length_units
2016-11-17,2500.0,m,4420.180,s,863,361,50,m
split,swim_stroke,total_distance,total_distance_units,total_timer_time,total_timer_time_units,total_cycles,total_calories
Lap,FREESTYLE,100.0,m,95.398,s,38,18
1,FREESTYLE,50.0,m,31.500,s,16,
2,FREESTYLE,50.0,m,43.375,s,22,
Rest,Rest,,,13.766,s,,
Lap,BREASTSTROKE,100.0,m,143.828,s,65,25
1,BREASTSTROKE,50.0,m,75.500,s,34,
2,BREASTSTROKE,50.0,m,68.312,s,31,
Rest,Rest,,,176.672,s,,
Lap,DRILL,400.0,m,481.734,s,,
1,DRILL,50.0,m,60.216,s,0,
2,DRILL,50.0,m,60.216,s,0,
3,DRILL,50.0,m,60.216,s,0,
4,DRILL,50.0,m,60.216,s,0,
5,DRILL,50.0,m,60.216,s,0,
6,DRILL,50.0,m,60.216,s,0,
7,DRILL,50.0,m,60.216,s,0,
8,DRILL,50.0,m,60.216,s,0,
Rest,Rest,,,62.766,s,,
Lap,FREESTYLE,100.0,m,101.700,s,51,18
1,FREESTYLE,50.0,m,48.125,s,25,
2,FREESTYLE,50.0,m,53.000,s,26,
Rest,Rest,,,31.680,s,,
Lap,BREASTSTROKE,100.0,m,146.883,s,64,25
1,BREASTSTROKE,50.0,m,70.812,s,31,
2,BREASTSTROKE,50.0,m,76.125,s,33,
Rest,Rest,,,17.305,s,,
Lap,FREESTYLE,100.0,m,91.844,s,48,18
1,FREESTYLE,50.0,m,45.000,s,23,
2,FREESTYLE,50.0,m,46.812,s,25,
Rest,Rest,,,63.719,s,,
Lap,FREESTYLE,100.0,m,95.859,s,46,19
1,FREESTYLE,50.0,m,48.000,s,23,
2,FREESTYLE,50.0,m,48.000,s,23,
Rest,Rest,,,38.891,s,,
Lap,BACKSTROKE,50.0,m,68.570,s,23,12
1,BACKSTROKE,50.0,m,68.562,s,23,
Rest,Rest,,,15.617,s,,
Lap,BREASTSTROKE,50.0,m,56.578,s,24,13
1,BREASTSTROKE,50.0,m,56.625,s,24,
Rest,Rest,,,24.297,s,,
Lap,FREESTYLE,100.0,m,93.969,s,50,18
1,FREESTYLE,50.0,m,47.562,s,25,
2,FREESTYLE,50.0,m,46.500,s,25,
Rest,Rest,,,121.281,s,,
Lap,BREASTSTROKE,50.0,m,60.230,s,20,14
1,BREASTSTROKE,50.0,m,44.812,s,20,
Rest,Rest,,,34.164,s,,
Lap,MIXED,550.0,m,690.648,s,326,142
1,FREESTYLE,50.0,m,49.250,s,24,
2,BREASTSTROKE,50.0,m,78.187,s,35,
3,BREASTSTROKE,50.0,m,70.750,s,32,
4,FREESTYLE,50.0,m,51.875,s,25,
5,FREESTYLE,50.0,m,50.406,s,24,
6,FREESTYLE,50.0,m,50.406,s,25,
7,FREESTYLE,50.0,m,55.812,s,28,
8,BREASTSTROKE,50.0,m,77.312,s,37,
9,BREASTSTROKE,50.0,m,82.375,s,36,
10,FREESTYLE,50.0,m,46.620,s,24,
11,BREASTSTROKE,50.0,m,78.250,s,36,
Rest,Rest,,,110.227,s,,
Lap,MIXED,200.0,m,230.336,s,108,39
1,BREASTSTROKE,50.0,m,78.437,s,34,
2,FREESTYLE,50.0,m,43.875,s,21,
3,FREESTYLE,50.0,m,59.437,s,29,
4,FREESTYLE,50.0,m,48.562,s,24,
Rest,Rest,,,625.164,s,,
Lap,DRILL,450.0,m,574.680,s,,
1,DRILL,50.0,m,63.853,s,0,
2,DRILL,50.0,m,63.853,s,0,
3,DRILL,50.0,m,63.853,s,0,
4,DRILL,50.0,m,63.853,s,0,
5,DRILL,50.0,m,63.853,s,0,
6,DRILL,50.0,m,63.853,s,0,
7,DRILL,50.0,m,63.853,s,0,
8,DRILL,50.0,m,63.853,s,0,
9,DRILL,50.0,m,63.853,s,0,
Rest,Rest,,,78.258,s,,
Lap,DRILL,50.0,m,73.984,s,,
1,DRILL,50.0,m,73.984,s,0,
