Version:1.0
start_time,total_distance,total_distance_units,total_timer_time,total_timer_time_units,total_cycles,total_calories,pool_length,pool_length_units
2016-09-07,1000.0,m,1602.470,s,364,157,50,m
split,swim_stroke,total_distance,total_distance_units,total_timer_time,total_timer_time_units,total_cycles,total_calories
Lap,FREESTYLE,200.0,m,186.539,s,98,36
1,FREESTYLE,50.0,m,41.625,s,23,
2,FREESTYLE,50.0,m,49.125,s,28,
3,FREESTYLE,50.0,m,47.625,s,26,
4,FREESTYLE,50.0,m,37.187,s,21,
Rest,Rest,,,12.813,s,,
Lap,BREASTSTROKE,100.0,m,127.344,s,61,43
1,BREASTSTROKE,50.0,m,61.687,s,30,
2,BREASTSTROKE,50.0,m,65.625,s,31,
Rest,Rest,,,7.281,s,,
Lap,FREESTYLE,50.0,m,44.289,s,26,9
1,FREESTYLE,50.0,m,44.312,s,26,
Rest,Rest,,,10.898,s,,
Lap,FREESTYLE,50.0,m,47.630,s,25,9
1,FREESTYLE,50.0,m,47.620,s,25,
Rest,Rest,,,79.438,s,,
Lap,FREESTYLE,100.0,m,91.578,s,51,18
1,FREESTYLE,50.0,m,45.750,s,25,
2,FREESTYLE,50.0,m,45.812,s,26,
Rest,Rest,,,71.859,s,,
Lap,DRILL,50.0,m,44.984,s,,
1,DRILL,50.0,m,44.984,s,0,
Rest,Rest,,,109.780,s,,
Lap,DRILL,50.0,m,44.422,s,,
1,DRILL,50.0,m,44.422,s,0,
Rest,Rest,,,62.141,s,,
Lap,DRILL,50.0,m,73.227,s,,
1,DRILL,50.0,m,73.227,s,0,
Rest,Rest,,,17.273,s,,
Lap,DRILL,50.0,m,80.227,s,,
1,DRILL,50.0,m,80.227,s,0,
Rest,Rest,,,22.773,s,,
Lap,DRILL,50.0,m,37.470,s,,
1,DRILL,50.0,m,37.470,s,0,
Rest,Rest,,,18.703,s,,
Lap,DRILL,50.0,m,40.508,s,,
1,DRILL,50.0,m,40.508,s,0,
Rest,Rest,,,18.367,s,,
Lap,BACKSTROKE,50.0,m,61.352,s,24,11
1,BACKSTROKE,50.0,m,61.375,s,24,
Rest,Rest,,,46.148,s,,
Lap,BREASTSTROKE,50.0,m,61.470,s,27,13
1,BREASTSTROKE,50.0,m,61.620,s,27,
Rest,Rest,,,93.891,s,,
Lap,FREESTYLE,100.0,m,91.359,s,52,18
1,FREESTYLE,50.0,m,43.875,s,25,
2,FREESTYLE,50.0,m,47.500,s,27,
