Version:1.0
start_time,total_distance,total_distance_units,total_timer_time,total_timer_time_units,total_cycles,total_calories,pool_length,pool_length_units
2016-06-26,1000.0,m,1600.344,s,526,207,50,m
split,swim_stroke,total_distance,total_distance_units,total_timer_time,total_timer_time_units,total_cycles,total_calories
Lap,FREESTYLE,50.0,m,43.219,s,24,9
1,FREESTYLE,50.0,m,43.000,s,24,
Rest,Rest,,,59.390,s,,
Lap,BREASTSTROKE,50.0,m,58.080,s,24,13
1,BREASTSTROKE,50.0,m,58.000,s,24,
Rest,Rest,,,7.430,s,,
Lap,FREESTYLE,200.0,m,193.375,s,105,36
1,FREESTYLE,50.0,m,44.562,s,24,
2,FREESTYLE,50.0,m,49.375,s,26,
3,FREESTYLE,50.0,m,51.250,s,28,
4,FREESTYLE,50.0,m,48.250,s,27,
Rest,Rest,,,108.500,s,,
Lap,FREESTYLE,100.0,m,96.160,s,51,18
1,FREESTYLE,50.0,m,48.250,s,26,
2,FREESTYLE,50.0,m,47.750,s,25,
Rest,Rest,,,9.859,s,,
Lap,BREASTSTROKE,100.0,m,135.470,s,55,25
1,BREASTSTROKE,50.0,m,56.437,s,24,
2,BREASTSTROKE,50.0,m,78.625,s,31,
Rest,Rest,,,18.160,s,,
Lap,FREESTYLE,100.0,m,102.133,s,51,18
1,FREESTYLE,50.0,m,52.562,s,25,
2,FREESTYLE,50.0,m,49.625,s,26,
Rest,Rest,,,13.742,s,,
Lap,BREASTSTROKE,100.0,m,139.836,s,60,26
1,BREASTSTROKE,50.0,m,71.620,s,30,
2,BREASTSTROKE,50.0,m,68.812,s,30,
Rest,Rest,,,31.352,s,,
Lap,FREESTYLE,100.0,m,99.445,s,46,18
1,FREESTYLE,50.0,m,49.437,s,24,
2,FREESTYLE,50.0,m,50.000,s,22,
Rest,Rest,,,243.680,s,,
Lap,FREESTYLE,50.0,m,40.992,s,23,9
1,FREESTYLE,50.0,m,41.620,s,23,
Rest,Rest,,,13.258,s,,
Lap,FREESTYLE,50.0,m,47.969,s,25,9
1,FREESTYLE,50.0,m,48.000,s,25,
Rest,Rest,,,7.656,s,,
Lap,BREASTSTROKE,100.0,m,131.445,s,62,26
1,BREASTSTROKE,50.0,m,70.812,s,32,
2,BREASTSTROKE,50.0,m,60.625,s,30,
