Version:1.0
start_time,total_distance,total_distance_units,total_timer_time,total_timer_time_units,total_cycles,total_calories,pool_length,pool_length_units
2016-02-23,1300.0,m,3654.773,s,305,160,25,m
split,swim_stroke,total_distance,total_distance_units,total_timer_time,total_timer_time_units,total_cycles,total_calories
Lap,FREESTYLE,100.0,m,80.281,s,43,20
1,FREESTYLE,25.0,m,20.620,s,10,
2,FREESTYLE,25.0,m,18.750,s,10,
3,FREESTYLE,25.0,m,20.312,s,11,
4,FREESTYLE,25.0,m,20.750,s,12,
Rest,Rest,,,116.500,s,,
Lap,DRILL,50.0,m,68.945,s,,
1,DRILL,25.0,m,34.472,s,0,
2,DRILL,25.0,m,34.472,s,0,
Rest,Rest,,,37.867,s,,
Lap,DRILL,25.0,m,30.391,s,,
1,DRILL,25.0,m,30.391,s,0,
Rest,Rest,,,12.359,s,,
Lap,DRILL,25.0,m,30.469,s,,
1,DRILL,25.0,m,30.469,s,0,
Rest,Rest,,,81.844,s,,
Lap,DRILL,50.0,m,67.227,s,,
1,DRILL,25.0,m,33.613,s,0,
2,DRILL,25.0,m,33.613,s,0,
Rest,Rest,,,310.461,s,,
Lap,FREESTYLE,50.0,m,43.414,s,22,10
1,FREESTYLE,25.0,m,20.500,s,10,
2,FREESTYLE,25.0,m,23.000,s,12,
Rest,Rest,,,17.898,s,,
Lap,FREESTYLE,50.0,m,46.453,s,23,10
1,FREESTYLE,25.0,m,23.375,s,12,
2,FREESTYLE,25.0,m,23.620,s,11,
Rest,Rest,,,33.109,s,,
Lap,FREESTYLE,50.0,m,41.555,s,16,10
1,FREESTYLE,25.0,m,20.750,s,11,
2,FREESTYLE,25.0,m,11.620,s,5,
Rest,Rest,,,83.820,s,,
Lap,BREASTSTROKE,50.0,m,54.703,s,19,14
1,BREASTSTROKE,25.0,m,28.250,s,10,
2,BREASTSTROKE,25.0,m,26.500,s,9,
Rest,Rest,,,150.734,s,,
Lap,DRILL,25.0,m,25.484,s,,
1,DRILL,25.0,m,25.484,s,0,
Rest,Rest,,,18.516,s,,
Lap,DRILL,25.0,m,24.680,s,,
1,DRILL,25.0,m,24.680,s,0,
Rest,Rest,,,647.570,s,,
Lap,BUTTERFLY,25.0,m,21.180,s,8,6
1,BUTTERFLY,25.0,m,21.250,s,8,
Rest,Rest,,,19.695,s,,
Lap,BUTTERFLY,25.0,m,22.586,s,8,6
1,BUTTERFLY,25.0,m,22.562,s,8,
Rest,Rest,,,85.289,s,,
Lap,BUTTERFLY,25.0,m,19.773,s,9,6
1,BUTTERFLY,25.0,m,19.750,s,9,
Rest,Rest,,,49.477,s,,
Lap,BUTTERFLY,25.0,m,22.180,s,8,6
1,BUTTERFLY,25.0,m,22.187,s,8,
Rest,Rest,,,142.195,s,,
Lap,DRILL,50.0,m,64.843,s,,
1,DRILL,25.0,m,32.421,s,0,
2,DRILL,25.0,m,32.421,s,0,
Rest,Rest,,,60.406,s,,
Lap,BUTTERFLY,25.0,m,21.500,s,8,6
1,BUTTERFLY,25.0,m,21.500,s,8,
Rest,Rest,,,44.688,s,,
Lap,BUTTERFLY,25.0,m,19.758,s,8,6
1,BUTTERFLY,25.0,m,19.812,s,8,
Rest,Rest,,,36.367,s,,
Lap,FREESTYLE,100.0,m,91.547,s,44,20
1,FREESTYLE,25.0,m,21.437,s,10,
2,FREESTYLE,25.0,m,24.250,s,11,
3,FREESTYLE,25.0,m,22.937,s,12,
4,FREESTYLE,25.0,m,22.937,s,11,
Rest,Rest,,,108.516,s,,
Lap,FREESTYLE,100.0,m,90.695,s,46,20
1,FREESTYLE,25.0,m,21.620,s,11,
2,FREESTYLE,25.0,m,22.937,s,11,
3,FREESTYLE,25.0,m,23.250,s,12,
4,FREESTYLE,25.0,m,23.500,s,12,
Rest,Rest,,,97.430,s,,
Lap,FREESTYLE,50.0,m,47.383,s,21,10
1,FREESTYLE,25.0,m,22.125,s,10,
2,FREESTYLE,25.0,m,25.250,s,11,
Rest,Rest,,,37.617,s,,
Lap,FREESTYLE,50.0,m,42.867,s,22,10
1,FREESTYLE,25.0,m,20.937,s,11,
2,FREESTYLE,25.0,m,21.937,s,11,
Rest,Rest,,,97.758,s,,
Lap,DRILL,200.0,m,190.750,s,,
1,DRILL,25.0,m,23.843,s,0,
2,DRILL,25.0,m,23.843,s,0,
3,DRILL,25.0,m,23.843,s,0,
4,DRILL,25.0,m,23.843,s,0,
5,DRILL,25.0,m,23.843,s,0,
6,DRILL,25.0,m,23.843,s,0,
7,DRILL,25.0,m,23.843,s,0,
8,DRILL,25.0,m,23.843,s,0,
Rest,Rest,,,68.125,s,,
Lap,DRILL,75.0,m,47.945,s,,
1,DRILL,25.0,m,15.981,s,0,
2,DRILL,25.0,m,15.981,s,0,
3,DRILL,25.0,m,15.981,s,0,
Rest,Rest,,,17.430,s,,
Lap,DRILL,25.0,m,61.422,s,,
1,DRILL,25.0,m,61.422,s,0,
