Version:1.0
start_time,total_distance,total_distance_units,total_timer_time,total_timer_time_units,total_cycles,total_calories,pool_length,pool_length_units
2016-01-31,2000.0,m,2716.578,s,1047,434,50,m
split,swim_stroke,total_distance,total_distance_units,total_timer_time,total_timer_time_units,total_cycles,total_calories
Lap,BREASTSTROKE,300.0,m,379.484,s,156,78
1,BREASTSTROKE,50.0,m,57.937,s,24,
2,BREASTSTROKE,50.0,m,63.125,s,26,
3,BREASTSTROKE,50.0,m,58.312,s,25,
4,BREASTSTROKE,50.0,m,71.312,s,28,
5,BREASTSTROKE,50.0,m,60.812,s,25,
6,BREASTSTROKE,50.0,m,67.812,s,28,
Rest,Rest,,,38.141,s,,
Lap,FREESTYLE,100.0,m,98.922,s,45,19
1,FREESTYLE,50.0,m,45.468,s,22,
2,FREESTYLE,50.0,m,45.468,s,23,
Rest,Rest,,,18.641,s,,
Lap,FREESTYLE,200.0,m,218.160,s,105,36
1,FREESTYLE,50.0,m,50.687,s,25,
2,FREESTYLE,50.0,m,60.187,s,28,
3,FREESTYLE,50.0,m,51.000,s,25,
4,FREESTYLE,50.0,m,56.125,s,27,
Rest,Rest,,,73.172,s,,
Lap,FREESTYLE,100.0,m,93.625,s,51,18
1,FREESTYLE,50.0,m,45.500,s,25,
2,FREESTYLE,50.0,m,48.187,s,26,
Rest,Rest,,,72.250,s,,
Lap,BACKSTROKE,50.0,m,67.922,s,23,11
1,BACKSTROKE,50.0,m,68.000,s,23,
Rest,Rest,,,22.391,s,,
Lap,BUTTERFLY,50.0,m,46.289,s,19,11
1,BUTTERFLY,50.0,m,46.375,s,19,
Rest,Rest,,,25.898,s,,
Lap,BREASTSTROKE,100.0,m,134.742,s,55,26
1,BREASTSTROKE,50.0,m,70.125,s,30,
2,BREASTSTROKE,50.0,m,64.625,s,25,
Rest,Rest,,,12.695,s,,
Lap,FREESTYLE,400.0,m,429.625,s,224,72
1,FREESTYLE,50.0,m,52.875,s,27,
2,FREESTYLE,50.0,m,52.875,s,28,
3,FREESTYLE,50.0,m,54.312,s,28,
4,FREESTYLE,50.0,m,55.125,s,29,
5,FREESTYLE,50.0,m,54.000,s,28,
6,FREESTYLE,50.0,m,55.187,s,29,
7,FREESTYLE,50.0,m,56.312,s,29,
8,FREESTYLE,50.0,m,49.000,s,26,
Rest,Rest,,,19.375,s,,
Lap,BREASTSTROKE,200.0,m,285.766,s,110,50
1,BREASTSTROKE,50.0,m,72.562,s,30,
2,BREASTSTROKE,50.0,m,69.562,s,28,
3,BREASTSTROKE,50.0,m,50.812,s,17,
4,BREASTSTROKE,50.0,m,92.875,s,35,
Rest,Rest,,,25.172,s,,
Lap,FREESTYLE,100.0,m,100.133,s,52,18
1,FREESTYLE,50.0,m,48.625,s,26,
2,FREESTYLE,50.0,m,51.500,s,26,
Rest,Rest,,,10.992,s,,
Lap,FREESTYLE,200.0,m,211.742,s,103,36
1,FREESTYLE,50.0,m,55.500,s,29,
2,FREESTYLE,50.0,m,51.875,s,25,
3,FREESTYLE,50.0,m,53.000,s,28,
4,FREESTYLE,50.0,m,41.750,s,21,
Rest,Rest,,,9.320,s,,
Lap,BREASTSTROKE,100.0,m,145.844,s,60,41
1,BREASTSTROKE,50.0,m,75.620,s,31,
2,BREASTSTROKE,50.0,m,70.812,s,29,
Rest,Rest,,,90.906,s,,
Lap,FREESTYLE,100.0,m,85.117,s,44,18
1,FREESTYLE,50.0,m,42.500,s,26,
2,FREESTYLE,50.0,m,30.125,s,18,
