Version:1.0
start_time,total_distance,total_distance_units,total_timer_time,total_timer_time_units,total_cycles,total_calories,pool_length,pool_length_units
2016-07-30,1000.0,m,1551.273,s,441,175,50,m
split,swim_stroke,total_distance,total_distance_units,total_timer_time,total_timer_time_units,total_cycles,total_calories
Lap,FREESTYLE,100.0,m,83.750,s,49,18
1,FREESTYLE,50.0,m,41.000,s,24,
2,FREESTYLE,50.0,m,42.562,s,25,
Rest,Rest,,,56.844,s,,
Lap,FREESTYLE,200.0,m,203.883,s,111,36
1,FREESTYLE,50.0,m,47.500,s,26,
2,FREESTYLE,50.0,m,51.500,s,28,
3,FREESTYLE,50.0,m,52.125,s,28,
4,FREESTYLE,50.0,m,52.812,s,29,
Rest,Rest,,,47.930,s,,
Lap,BACKSTROKE,50.0,m,69.578,s,28,17
1,BACKSTROKE,50.0,m,69.562,s,28,
Rest,Rest,,,68.109,s,,
Lap,BACKSTROKE,50.0,m,58.117,s,21,17
1,BACKSTROKE,50.0,m,58.187,s,21,
Rest,Rest,,,42.633,s,,
Rest,Rest,,,0.805,s,,
Rest,Rest,,,23.508,s,,
Lap,DRILL,200.0,m,188.820,s,,
1,DRILL,50.0,m,47.205,s,0,
2,DRILL,50.0,m,47.205,s,0,
3,DRILL,50.0,m,47.205,s,0,
4,DRILL,50.0,m,47.205,s,0,
Rest,Rest,,,31.117,s,,
Lap,BREASTSTROKE,100.0,m,129.312,s,58,26
1,BREASTSTROKE,50.0,m,67.375,s,31,
2,BREASTSTROKE,50.0,m,62.000,s,27,
Rest,Rest,,,139.750,s,,
Lap,FREESTYLE,100.0,m,95.470,s,53,18
1,FREESTYLE,50.0,m,47.875,s,26,
2,FREESTYLE,50.0,m,47.187,s,27,
Rest,Rest,,,7.328,s,,
Lap,BREASTSTROKE,100.0,m,143.281,s,70,25
1,BREASTSTROKE,50.0,m,73.312,s,36,
2,BREASTSTROKE,50.0,m,70.000,s,34,
Rest,Rest,,,66.719,s,,
Lap,FREESTYLE,100.0,m,94.484,s,51,18
1,FREESTYLE,50.0,m,44.625,s,24,
2,FREESTYLE,50.0,m,49.875,s,27,
