Version:1.0
start_time,total_distance,total_distance_units,total_timer_time,total_timer_time_units,total_cycles,total_calories,pool_length,pool_length_units
2016-02-10,1775.0,m,4957.711,s,468,288,25,m
split,swim_stroke,total_distance,total_distance_units,total_timer_time,total_timer_time_units,total_cycles,total_calories
Lap,FREESTYLE,100.0,m,83.523,s,33,25
1,FREESTYLE,25.0,m,19.250,s,10,
2,FREESTYLE,25.0,m,21.500,s,8,
3,FREESTYLE,25.0,m,21.219,s,7,
4,FREESTYLE,25.0,m,21.219,s,8,
Rest,Rest,,,46.195,s,,
Lap,BREASTSTROKE,50.0,m,49.734,s,22,14
1,BREASTSTROKE,25.0,m,26.937,s,12,
2,BREASTSTROKE,25.0,m,22.812,s,10,
Rest,Rest,,,275.203,s,,
Lap,DRILL,25.0,m,29.550,s,,
1,DRILL,25.0,m,29.550,s,0,
Rest,Rest,,,31.383,s,,
Lap,DRILL,25.0,m,29.406,s,,
1,DRILL,25.0,m,29.406,s,0,
Rest,Rest,,,25.906,s,,
Lap,DRILL,25.0,m,27.914,s,,
1,DRILL,25.0,m,27.914,s,0,
Rest,Rest,,,46.773,s,,
Lap,DRILL,25.0,m,28.891,s,,
1,DRILL,25.0,m,28.891,s,0,
Rest,Rest,,,152.859,s,,
Lap,DRILL,25.0,m,22.898,s,,
1,DRILL,25.0,m,22.898,s,0,
Rest,Rest,,,35.602,s,,
Lap,DRILL,25.0,m,22.570,s,,
1,DRILL,25.0,m,22.570,s,0,
Rest,Rest,,,56.117,s,,
Lap,FREESTYLE,100.0,m,91.172,s,43,20
1,FREESTYLE,25.0,m,20.500,s,10,
2,FREESTYLE,25.0,m,22.875,s,10,
3,FREESTYLE,25.0,m,24.875,s,12,
4,FREESTYLE,25.0,m,23.000,s,11,
Rest,Rest,,,88.266,s,,
Lap,FREESTYLE,50.0,m,43.750,s,21,10
1,FREESTYLE,25.0,m,21.620,s,10,
2,FREESTYLE,25.0,m,22.687,s,11,
Rest,Rest,,,46.250,s,,
Rest,Rest,,,10.195,s,,
Rest,Rest,,,202.617,s,,
Lap,FREESTYLE,100.0,m,88.160,s,39,20
1,FREESTYLE,25.0,m,20.750,s,9,
2,FREESTYLE,25.0,m,23.562,s,9,
3,FREESTYLE,25.0,m,22.500,s,10,
4,FREESTYLE,25.0,m,21.250,s,11,
Rest,Rest,,,98.672,s,,
Lap,BUTTERFLY,25.0,m,18.773,s,8,7
1,BUTTERFLY,25.0,m,18.750,s,8,
Rest,Rest,,,44.414,s,,
Lap,BUTTERFLY,25.0,m,18.780,s,9,7
1,BUTTERFLY,25.0,m,18.620,s,9,
Rest,Rest,,,109.547,s,,
Lap,BUTTERFLY,25.0,m,18.109,s,9,7
1,BUTTERFLY,25.0,m,18.125,s,9,
Rest,Rest,,,34.391,s,,
Rest,Rest,,,24.630,s,,
Rest,Rest,,,38.313,s,,
Lap,BUTTERFLY,25.0,m,19.390,s,9,7
1,BUTTERFLY,25.0,m,19.125,s,9,
Rest,Rest,,,44.336,s,,
Lap,BUTTERFLY,25.0,m,19.938,s,8,6
1,BUTTERFLY,25.0,m,20.000,s,8,
Rest,Rest,,,79.630,s,,
Lap,BUTTERFLY,25.0,m,18.602,s,8,7
1,BUTTERFLY,25.0,m,18.562,s,8,
Rest,Rest,,,34.211,s,,
Lap,BUTTERFLY,25.0,m,19.438,s,8,7
1,BUTTERFLY,25.0,m,19.437,s,8,
Rest,Rest,,,171.563,s,,
Lap,BUTTERFLY,25.0,m,21.414,s,8,5
1,BUTTERFLY,25.0,m,21.437,s,8,
Rest,Rest,,,59.230,s,,
Lap,BUTTERFLY,25.0,m,18.773,s,7,7
1,BUTTERFLY,25.0,m,18.750,s,7,
Rest,Rest,,,134.539,s,,
Lap,BUTTERFLY,25.0,m,19.461,s,8,7
1,BUTTERFLY,25.0,m,19.500,s,8,
Rest,Rest,,,43.477,s,,
Lap,BUTTERFLY,25.0,m,19.742,s,8,6
1,BUTTERFLY,25.0,m,19.750,s,8,
Rest,Rest,,,74.883,s,,
Lap,DRILL,50.0,m,39.570,s,,
1,DRILL,25.0,m,19.785,s,0,
2,DRILL,25.0,m,19.785,s,0,
Rest,Rest,,,31.805,s,,
Lap,DRILL,50.0,m,41.711,s,,
1,DRILL,25.0,m,20.855,s,0,
2,DRILL,25.0,m,20.855,s,0,
Rest,Rest,,,54.602,s,,
Lap,DRILL,50.0,m,38.867,s,,
1,DRILL,25.0,m,19.433,s,0,
2,DRILL,25.0,m,19.433,s,0,
Rest,Rest,,,84.080,s,,
Lap,DRILL,50.0,m,39.391,s,,
1,DRILL,25.0,m,19.695,s,0,
2,DRILL,25.0,m,19.695,s,0,
Rest,Rest,,,64.297,s,,
Lap,DRILL,50.0,m,41.188,s,,
1,DRILL,25.0,m,20.594,s,0,
2,DRILL,25.0,m,20.594,s,0,
Rest,Rest,,,65.375,s,,
Lap,DRILL,50.0,m,38.953,s,,
1,DRILL,25.0,m,19.476,s,0,
2,DRILL,25.0,m,19.476,s,0,
Rest,Rest,,,122.172,s,,
Lap,DRILL,50.0,m,39.328,s,,
1,DRILL,25.0,m,19.664,s,0,
2,DRILL,25.0,m,19.664,s,0,
Rest,Rest,,,58.484,s,,
Lap,DRILL,50.0,m,38.906,s,,
1,DRILL,25.0,m,19.453,s,0,
2,DRILL,25.0,m,19.453,s,0,
Rest,Rest,,,72.156,s,,
Lap,BREASTSTROKE,25.0,m,25.375,s,11,7
1,BREASTSTROKE,25.0,m,25.375,s,11,
Rest,Rest,,,17.938,s,,
Lap,BREASTSTROKE,25.0,m,26.164,s,11,7
1,BREASTSTROKE,25.0,m,26.125,s,11,
Rest,Rest,,,44.273,s,,
Lap,BUTTERFLY,25.0,m,19.633,s,8,6
1,BUTTERFLY,25.0,m,19.687,s,8,
Rest,Rest,,,56.555,s,,
Lap,BUTTERFLY,25.0,m,19.211,s,8,7
1,BUTTERFLY,25.0,m,19.187,s,8,
Rest,Rest,,,82.477,s,,
Lap,BUTTERFLY,50.0,m,42.160,s,19,12
1,BUTTERFLY,25.0,m,21.937,s,11,
2,BUTTERFLY,25.0,m,20.125,s,8,
Rest,Rest,,,64.672,s,,
Lap,FREESTYLE,100.0,m,89.969,s,44,20
1,FREESTYLE,25.0,m,21.625,s,10,
2,FREESTYLE,25.0,m,22.000,s,10,
3,FREESTYLE,25.0,m,23.437,s,12,
4,FREESTYLE,25.0,m,22.875,s,12,
Rest,Rest,,,91.344,s,,
Lap,FREESTYLE,50.0,m,44.000,s,21,10
1,FREESTYLE,25.0,m,21.500,s,10,
2,FREESTYLE,25.0,m,22.500,s,11,
Rest,Rest,,,37.000,s,,
Lap,FREESTYLE,50.0,m,42.805,s,21,10
1,FREESTYLE,25.0,m,21.000,s,10,
2,FREESTYLE,25.0,m,21.812,s,11,
Rest,Rest,,,43.758,s,,
Lap,BREASTSTROKE,50.0,m,55.805,s,21,14
1,BREASTSTROKE,25.0,m,28.625,s,11,
2,BREASTSTROKE,25.0,m,27.187,s,10,
Rest,Rest,,,43.570,s,,
Lap,FREESTYLE,25.0,m,19.539,s,10,5
1,FREESTYLE,25.0,m,19.625,s,10,
Rest,Rest,,,45.461,s,,
Lap,FREESTYLE,25.0,m,19.688,s,10,5
1,FREESTYLE,25.0,m,19.687,s,10,
Rest,Rest,,,53.313,s,,
Lap,BUTTERFLY,25.0,m,19.805,s,8,6
1,BUTTERFLY,25.0,m,19.875,s,8,
Rest,Rest,,,35.883,s,,
Lap,BUTTERFLY,25.0,m,20.125,s,8,6
1,BUTTERFLY,25.0,m,20.187,s,8,
Rest,Rest,,,181.188,s,,
Lap,BUTTERFLY,25.0,m,20.750,s,8,5
1,BUTTERFLY,25.0,m,20.812,s,8,
Rest,Rest,,,25.000,s,,
Lap,BREASTSTROKE,25.0,m,32.539,s,12,6
1,BREASTSTROKE,25.0,m,32.561,s,12,
Rest,Rest,,,28.211,s,,
Rest,Rest,,,0.664,s,,
