Version:1.0
start_time,total_distance,total_distance_units,total_timer_time,total_timer_time_units,total_cycles,total_calories,pool_length,pool_length_units
2016-07-12,400.0,m,1050.375,s,176,72,50,m
split,swim_stroke,total_distance,total_distance_units,total_timer_time,total_timer_time_units,total_cycles,total_calories
Lap,FREESTYLE,100.0,m,86.734,s,47,18
1,FREESTYLE,50.0,m,41.687,s,22,
2,FREESTYLE,50.0,m,44.687,s,25,
Rest,Rest,,,26.336,s,,
Lap,BREASTSTROKE,100.0,m,121.297,s,55,27
1,BREASTSTROKE,50.0,m,66.312,s,30,
2,BREASTSTROKE,50.0,m,54.937,s,25,
Rest,Rest,,,50.780,s,,
Lap,FREESTYLE,100.0,m,98.477,s,51,18
1,FREESTYLE,50.0,m,47.312,s,24,
2,FREESTYLE,50.0,m,51.125,s,27,
Rest,Rest,,,273.836,s,,
Lap,DRILL,50.0,m,48.945,s,,
1,DRILL,50.0,m,48.945,s,0,
Rest,Rest,,,306.680,s,,
Lap,FREESTYLE,50.0,m,37.852,s,23,9
1,FREESTYLE,50.0,m,37.875,s,23,
