Version:1.0
start_time,total_distance,total_distance_units,total_timer_time,total_timer_time_units,total_cycles,total_calories,pool_length,pool_length_units
2017-01-17,2500.0,m,3909.656,s,947,419,50,m
split,swim_stroke,total_distance,total_distance_units,total_timer_time,total_timer_time_units,total_cycles,total_calories
Lap,FREESTYLE,200.0,m,172.203,s,99,36
1,FREESTYLE,50.0,m,39.875,s,23,
2,FREESTYLE,50.0,m,44.187,s,25,
3,FREESTYLE,50.0,m,44.620,s,25,
4,FREESTYLE,50.0,m,43.812,s,26,
Rest,Rest,,,169.117,s,,
Lap,BREASTSTROKE,200.0,m,264.156,s,97,53
1,BREASTSTROKE,50.0,m,59.625,s,24,
2,BREASTSTROKE,50.0,m,57.750,s,23,
3,BREASTSTROKE,50.0,m,60.812,s,25,
4,BREASTSTROKE,50.0,m,60.812,s,25,
Rest,Rest,,,62.781,s,,
Lap,FREESTYLE,100.0,m,92.550,s,48,29
1,FREESTYLE,50.0,m,44.500,s,25,
2,FREESTYLE,50.0,m,47.562,s,23,
Rest,Rest,,,108.080,s,,
Lap,FREESTYLE,100.0,m,90.000,s,47,18
1,FREESTYLE,50.0,m,45.500,s,24,
2,FREESTYLE,50.0,m,44.562,s,23,
Rest,Rest,,,100.438,s,,
Lap,BREASTSTROKE,100.0,m,121.594,s,48,26
1,BREASTSTROKE,50.0,m,60.937,s,25,
2,BREASTSTROKE,50.0,m,60.687,s,23,
Rest,Rest,,,129.969,s,,
Lap,FREESTYLE,100.0,m,90.109,s,48,18
1,FREESTYLE,50.0,m,46.000,s,25,
2,FREESTYLE,50.0,m,44.125,s,23,
Rest,Rest,,,115.891,s,,
Lap,FREESTYLE,100.0,m,89.141,s,49,18
1,FREESTYLE,50.0,m,46.750,s,26,
2,FREESTYLE,50.0,m,42.437,s,23,
Rest,Rest,,,13.484,s,,
Lap,BREASTSTROKE,100.0,m,131.938,s,50,27
1,BREASTSTROKE,50.0,m,65.437,s,29,
2,BREASTSTROKE,50.0,m,49.000,s,21,
Rest,Rest,,,202.750,s,,
Lap,FREESTYLE,100.0,m,84.516,s,45,18
1,FREESTYLE,50.0,m,43.312,s,23,
2,FREESTYLE,50.0,m,41.250,s,22,
Rest,Rest,,,4.859,s,,
Lap,BREASTSTROKE,100.0,m,140.367,s,64,25
1,BREASTSTROKE,50.0,m,73.250,s,34,
2,BREASTSTROKE,50.0,m,67.125,s,30,
Rest,Rest,,,10.700,s,,
Lap,FREESTYLE,200.0,m,193.969,s,101,36
1,FREESTYLE,50.0,m,47.187,s,25,
2,FREESTYLE,50.0,m,49.375,s,25,
3,FREESTYLE,50.0,m,40.625,s,20,
4,FREESTYLE,50.0,m,56.750,s,31,
Rest,Rest,,,87.969,s,,
Lap,DRILL,400.0,m,372.484,s,,
1,DRILL,50.0,m,46.560,s,0,
2,DRILL,50.0,m,46.560,s,0,
3,DRILL,50.0,m,46.560,s,0,
4,DRILL,50.0,m,46.560,s,0,
5,DRILL,50.0,m,46.560,s,0,
6,DRILL,50.0,m,46.560,s,0,
7,DRILL,50.0,m,46.560,s,0,
8,DRILL,50.0,m,46.560,s,0,
Rest,Rest,,,23.516,s,,
Lap,BACKSTROKE,100.0,m,137.156,s,50,23
1,BACKSTROKE,50.0,m,69.562,s,25,
2,BACKSTROKE,50.0,m,67.625,s,25,
Rest,Rest,,,18.310,s,,
Lap,BREASTSTROKE,100.0,m,119.383,s,48,26
1,BREASTSTROKE,50.0,m,63.125,s,24,
2,BREASTSTROKE,50.0,m,56.312,s,24,
Rest,Rest,,,3.367,s,,
Lap,BACKSTROKE,100.0,m,131.383,s,50,22
1,BACKSTROKE,50.0,m,52.250,s,21,
2,BACKSTROKE,50.0,m,79.125,s,29,
Rest,Rest,,,56.117,s,,
Lap,DRILL,200.0,m,186.813,s,,
1,DRILL,50.0,m,46.703,s,0,
2,DRILL,50.0,m,46.703,s,0,
3,DRILL,50.0,m,46.703,s,0,
4,DRILL,50.0,m,46.703,s,0,
Rest,Rest,,,18.813,s,,
Lap,BREASTSTROKE,100.0,m,141.406,s,54,26
1,BREASTSTROKE,50.0,m,70.750,s,25,
2,BREASTSTROKE,50.0,m,70.812,s,29,
Rest,Rest,,,140.656,s,,
Lap,FREESTYLE,100.0,m,84.453,s,49,18
1,FREESTYLE,50.0,m,40.875,s,24,
2,FREESTYLE,50.0,m,43.562,s,25,
