Version:1.0
start_time,total_distance,total_distance_units,total_timer_time,total_timer_time_units,total_cycles,total_calories,pool_length,pool_length_units
2017-11-12,1750.0,m,2670.953,s,816,377,25,m
split,swim_stroke,total_distance,total_distance_units,total_timer_time,total_timer_time_units,total_cycles,total_calories
Lap,FREESTYLE,150.0,m,140.470,s,68,30
1,FREESTYLE,25.0,m,21.125,s,10,
2,FREESTYLE,25.0,m,22.125,s,12,
3,FREESTYLE,25.0,m,25.000,s,12,
4,FREESTYLE,25.0,m,23.187,s,11,
5,FREESTYLE,25.0,m,25.750,s,12,
6,FREESTYLE,25.0,m,22.687,s,11,
Rest,Rest,,,12.310,s,,
Lap,BACKSTROKE,50.0,m,64.272,s,21,12
1,BACKSTROKE,25.0,m,31.500,s,10,
2,BACKSTROKE,25.0,m,32.750,s,11,
Rest,Rest,,,3.414,s,,
Lap,BREASTSTROKE,50.0,m,64.194,s,30,13
1,BREASTSTROKE,25.0,m,31.687,s,15,
2,BREASTSTROKE,25.0,m,32.561,s,15,
Rest,Rest,,,25.180,s,,
Lap,FREESTYLE,50.0,m,41.930,s,20,10
1,FREESTYLE,25.0,m,21.125,s,10,
2,FREESTYLE,25.0,m,20.875,s,10,
Rest,Rest,,,19.700,s,,
Lap,BREASTSTROKE,100.0,m,126.852,s,59,26
1,BREASTSTROKE,25.0,m,33.187,s,16,
2,BREASTSTROKE,25.0,m,33.750,s,16,
3,BREASTSTROKE,25.0,m,31.250,s,13,
4,BREASTSTROKE,25.0,m,28.625,s,14,
Rest,Rest,,,72.586,s,,
Lap,FREESTYLE,150.0,m,141.719,s,63,30
1,FREESTYLE,25.0,m,23.187,s,11,
2,FREESTYLE,25.0,m,22.750,s,10,
3,FREESTYLE,25.0,m,24.000,s,8,
4,FREESTYLE,25.0,m,24.187,s,12,
5,FREESTYLE,25.0,m,23.750,s,11,
6,FREESTYLE,25.0,m,23.875,s,11,
Rest,Rest,,,110.406,s,,
Lap,FREESTYLE,150.0,m,141.470,s,58,30
1,FREESTYLE,25.0,m,23.312,s,10,
2,FREESTYLE,25.0,m,21.875,s,10,
3,FREESTYLE,25.0,m,23.812,s,8,
4,FREESTYLE,25.0,m,24.187,s,8,
5,FREESTYLE,25.0,m,25.125,s,11,
6,FREESTYLE,25.0,m,22.750,s,11,
Rest,Rest,,,8.203,s,,
Lap,BREASTSTROKE,100.0,m,141.430,s,68,24
1,BREASTSTROKE,25.0,m,37.937,s,18,
2,BREASTSTROKE,25.0,m,33.937,s,15,
3,BREASTSTROKE,25.0,m,36.250,s,19,
4,BREASTSTROKE,25.0,m,33.375,s,16,
Rest,Rest,,,25.758,s,,
Lap,FREESTYLE,100.0,m,95.390,s,40,20
1,FREESTYLE,25.0,m,22.937,s,11,
2,FREESTYLE,25.0,m,22.937,s,11,
3,FREESTYLE,25.0,m,26.625,s,10,
4,FREESTYLE,25.0,m,22.562,s,8,
Rest,Rest,,,7.836,s,,
Lap,BACKSTROKE,100.0,m,123.438,s,44,22
1,BACKSTROKE,25.0,m,32.500,s,11,
2,BACKSTROKE,25.0,m,29.250,s,11,
3,BACKSTROKE,25.0,m,33.187,s,12,
4,BACKSTROKE,25.0,m,28.500,s,10,
Rest,Rest,,,124.625,s,,
Lap,BUTTERFLY,25.0,m,19.234,s,9,7
1,BUTTERFLY,25.0,m,19.250,s,9,
Rest,Rest,,,22.641,s,,
Lap,FREESTYLE,150.0,m,135.445,s,60,30
1,FREESTYLE,25.0,m,21.312,s,8,
2,FREESTYLE,25.0,m,23.375,s,7,
3,FREESTYLE,25.0,m,22.437,s,12,
4,FREESTYLE,25.0,m,23.125,s,11,
5,FREESTYLE,25.0,m,23.620,s,11,
6,FREESTYLE,25.0,m,22.125,s,11,
Rest,Rest,,,81.992,s,,
Lap,BREASTSTROKE,75.0,m,105.320,s,51,18
1,BREASTSTROKE,25.0,m,33.625,s,17,
2,BREASTSTROKE,25.0,m,37.625,s,18,
3,BREASTSTROKE,25.0,m,34.125,s,16,
Rest,Rest,,,5.242,s,,
Lap,BACKSTROKE,25.0,m,34.250,s,13,6
1,BACKSTROKE,25.0,m,34.250,s,13,
Rest,Rest,,,37.125,s,,
Lap,BACKSTROKE,25.0,m,28.328,s,10,5
1,BACKSTROKE,25.0,m,28.375,s,10,
Rest,Rest,,,16.984,s,,
Lap,FREESTYLE,50.0,m,43.080,s,21,10
1,FREESTYLE,25.0,m,22.375,s,12,
2,FREESTYLE,25.0,m,20.687,s,9,
Rest,Rest,,,64.492,s,,
Lap,FREESTYLE,100.0,m,89.313,s,45,20
1,FREESTYLE,25.0,m,21.625,s,11,
2,FREESTYLE,25.0,m,24.000,s,12,
3,FREESTYLE,25.0,m,21.937,s,11,
4,FREESTYLE,25.0,m,21.750,s,11,
Rest,Rest,,,86.813,s,,
Lap,BREASTSTROKE,50.0,m,66.242,s,31,13
1,BREASTSTROKE,25.0,m,35.312,s,17,
2,BREASTSTROKE,25.0,m,30.937,s,14,
Rest,Rest,,,10.445,s,,
Lap,FREESTYLE,100.0,m,95.289,s,38,20
1,FREESTYLE,25.0,m,22.937,s,6,
2,FREESTYLE,25.0,m,22.187,s,9,
3,FREESTYLE,25.0,m,28.187,s,13,
4,FREESTYLE,25.0,m,22.620,s,10,
Rest,Rest,,,10.586,s,,
Lap,BACKSTROKE,50.0,m,60.445,s,21,11
1,BACKSTROKE,25.0,m,34.562,s,12,
2,BACKSTROKE,25.0,m,25.875,s,9,
Rest,Rest,,,9.117,s,,
Lap,FREESTYLE,50.0,m,46.977,s,22,10
1,FREESTYLE,25.0,m,23.375,s,11,
2,FREESTYLE,25.0,m,23.625,s,11,
Rest,Rest,,,65.220,s,,
Lap,FREESTYLE,50.0,m,46.875,s,24,10
1,FREESTYLE,25.0,m,23.437,s,11,
2,FREESTYLE,25.0,m,23.437,s,13,
