Version:1.0
start_time,total_distance,total_distance_units,total_timer_time,total_timer_time_units,total_cycles,total_calories,pool_length,pool_length_units
2017-03-21,1700.0,m,2744.672,s,,,50,m
split,swim_stroke,total_distance,total_distance_units,total_timer_time,total_timer_time_units,total_cycles,total_calories
Lap,DRILL,200.0,m,188.844,s,,
1,DRILL,50.0,m,47.211,s,0,
2,DRILL,50.0,m,47.211,s,0,
3,DRILL,50.0,m,47.211,s,0,
4,DRILL,50.0,m,47.211,s,0,
Rest,Rest,,,17.102,s,,
Lap,DRILL,200.0,m,183.438,s,,
1,DRILL,50.0,m,45.859,s,0,
2,DRILL,50.0,m,45.859,s,0,
3,DRILL,50.0,m,45.859,s,0,
4,DRILL,50.0,m,45.859,s,0,
Rest,Rest,,,108.563,s,,
Lap,DRILL,50.0,m,43.422,s,,
1,DRILL,50.0,m,43.422,s,0,
Rest,Rest,,,34.641,s,,
Lap,DRILL,50.0,m,42.336,s,,
1,DRILL,50.0,m,42.336,s,0,
Rest,Rest,,,271.289,s,,
Lap,DRILL,200.0,m,191.914,s,,
1,DRILL,50.0,m,47.978,s,0,
2,DRILL,50.0,m,47.978,s,0,
3,DRILL,50.0,m,47.978,s,0,
4,DRILL,50.0,m,47.978,s,0,
Rest,Rest,,,19.461,s,,
Lap,DRILL,400.0,m,489.914,s,,
1,DRILL,50.0,m,61.239,s,0,
2,DRILL,50.0,m,61.239,s,0,
3,DRILL,50.0,m,61.239,s,0,
4,DRILL,50.0,m,61.239,s,0,
5,DRILL,50.0,m,61.239,s,0,
6,DRILL,50.0,m,61.239,s,0,
7,DRILL,50.0,m,61.239,s,0,
8,DRILL,50.0,m,61.239,s,0,
Rest,Rest,,,375.398,s,,
Lap,DRILL,100.0,m,85.391,s,,
1,DRILL,50.0,m,42.695,s,0,
2,DRILL,50.0,m,42.695,s,0,
Rest,Rest,,,14.672,s,,
Lap,DRILL,150.0,m,142.117,s,,
1,DRILL,50.0,m,47.372,s,0,
2,DRILL,50.0,m,47.372,s,0,
3,DRILL,50.0,m,47.372,s,0,
Rest,Rest,,,77.695,s,,
Lap,DRILL,50.0,m,44.352,s,,
1,DRILL,50.0,m,44.352,s,0,
Rest,Rest,,,18.523,s,,
Lap,DRILL,50.0,m,59.102,s,,
1,DRILL,50.0,m,59.102,s,0,
Rest,Rest,,,10.336,s,,
Lap,DRILL,50.0,m,52.430,s,,
1,DRILL,50.0,m,52.430,s,0,
Rest,Rest,,,47.945,s,,
Lap,DRILL,100.0,m,90.172,s,,
1,DRILL,50.0,m,45.860,s,0,
2,DRILL,50.0,m,45.860,s,0,
Rest,Rest,,,18.766,s,,
Lap,DRILL,100.0,m,116.289,s,,
1,DRILL,50.0,m,58.144,s,0,
2,DRILL,50.0,m,58.144,s,0,
