Version:1.0
start_time,total_distance,total_distance_units,total_timer_time,total_timer_time_units,total_cycles,total_calories,pool_length,pool_length_units
2017-06-10,2100.0,m,2675.391,s,1078,421,50,m
split,swim_stroke,total_distance,total_distance_units,total_timer_time,total_timer_time_units,total_cycles,total_calories
Lap,FREESTYLE,400.0,m,379.141,s,177,72
1,FREESTYLE,50.0,m,42.875,s,16,
2,FREESTYLE,50.0,m,48.312,s,25,
3,FREESTYLE,50.0,m,47.937,s,24,
4,FREESTYLE,50.0,m,50.625,s,26,
5,FREESTYLE,50.0,m,47.875,s,13,
6,FREESTYLE,50.0,m,50.187,s,25,
7,FREESTYLE,50.0,m,46.812,s,24,
8,FREESTYLE,50.0,m,43.937,s,24,
Rest,Rest,,,28.227,s,,
Lap,BREASTSTROKE,200.0,m,258.702,s,121,52
1,BREASTSTROKE,50.0,m,66.687,s,30,
2,BREASTSTROKE,50.0,m,66.750,s,31,
3,BREASTSTROKE,50.0,m,61.620,s,29,
4,BREASTSTROKE,50.0,m,64.250,s,31,
Rest,Rest,,,10.359,s,,
Lap,FREESTYLE,400.0,m,377.789,s,206,72
1,FREESTYLE,50.0,m,44.687,s,23,
2,FREESTYLE,50.0,m,49.812,s,27,
3,FREESTYLE,50.0,m,44.125,s,24,
4,FREESTYLE,50.0,m,47.687,s,27,
5,FREESTYLE,50.0,m,47.562,s,26,
6,FREESTYLE,50.0,m,49.625,s,27,
7,FREESTYLE,50.0,m,49.437,s,27,
8,FREESTYLE,50.0,m,44.875,s,25,
Rest,Rest,,,144.711,s,,
Lap,BACKSTROKE,100.0,m,118.602,s,50,28
1,BACKSTROKE,50.0,m,56.125,s,24,
2,BACKSTROKE,50.0,m,62.500,s,26,
Rest,Rest,,,10.336,s,,
Lap,BACKSTROKE,50.0,m,60.469,s,25,11
1,BACKSTROKE,50.0,m,60.437,s,25,
Rest,Rest,,,23.344,s,,
Lap,FREESTYLE,100.0,m,87.695,s,50,18
1,FREESTYLE,50.0,m,45.000,s,26,
2,FREESTYLE,50.0,m,42.812,s,24,
Rest,Rest,,,9.367,s,,
Lap,BREASTSTROKE,50.0,m,67.867,s,36,13
1,BREASTSTROKE,50.0,m,67.812,s,36,
Rest,Rest,,,64.690,s,,
Lap,BACKSTROKE,50.0,m,56.781,s,22,11
1,BACKSTROKE,50.0,m,56.750,s,22,
Rest,Rest,,,18.781,s,,
Lap,DRILL,50.0,m,55.570,s,,
1,DRILL,50.0,m,55.570,s,0,
Rest,Rest,,,43.930,s,,
Lap,FREESTYLE,100.0,m,92.414,s,48,18
1,FREESTYLE,50.0,m,45.750,s,25,
2,FREESTYLE,50.0,m,46.687,s,23,
Rest,Rest,,,10.773,s,,
Lap,BREASTSTROKE,100.0,m,134.664,s,69,26
1,BREASTSTROKE,50.0,m,65.937,s,35,
2,BREASTSTROKE,50.0,m,68.687,s,34,
Rest,Rest,,,8.586,s,,
Lap,FREESTYLE,100.0,m,92.820,s,50,18
1,FREESTYLE,50.0,m,44.937,s,24,
2,FREESTYLE,50.0,m,47.937,s,26,
Rest,Rest,,,12.180,s,,
Lap,BACKSTROKE,50.0,m,58.859,s,23,11
1,BACKSTROKE,50.0,m,58.875,s,23,
Rest,Rest,,,34.160,s,,
Lap,FREESTYLE,50.0,m,40.875,s,25,9
1,FREESTYLE,50.0,m,40.875,s,25,
Rest,Rest,,,3.125,s,,
Lap,BREASTSTROKE,50.0,m,70.367,s,38,13
1,BREASTSTROKE,50.0,m,71.125,s,38,
Rest,Rest,,,31.508,s,,
Lap,FREESTYLE,100.0,m,89.492,s,51,18
1,FREESTYLE,50.0,m,44.187,s,25,
2,FREESTYLE,50.0,m,45.312,s,26,
Rest,Rest,,,17.945,s,,
Lap,BREASTSTROKE,50.0,m,66.570,s,37,13
1,BREASTSTROKE,50.0,m,66.562,s,37,
Rest,Rest,,,7.550,s,,
Lap,FREESTYLE,100.0,m,87.547,s,50,18
1,FREESTYLE,50.0,m,44.620,s,25,
2,FREESTYLE,50.0,m,43.437,s,25,
