Version:1.0
start_time,total_distance,total_distance_units,total_timer_time,total_timer_time_units,total_cycles,total_calories,pool_length,pool_length_units
2017-01-04,2000.0,m,2446.719,s,730,313,50,m
split,swim_stroke,total_distance,total_distance_units,total_timer_time,total_timer_time_units,total_cycles,total_calories
Lap,FREESTYLE,400.0,m,361.700,s,203,72
1,FREESTYLE,50.0,m,41.750,s,24,
2,FREESTYLE,50.0,m,45.812,s,25,
3,FREESTYLE,50.0,m,47.437,s,25,
4,FREESTYLE,50.0,m,46.812,s,27,
5,FREESTYLE,50.0,m,45.812,s,24,
6,FREESTYLE,50.0,m,48.500,s,26,
7,FREESTYLE,50.0,m,43.125,s,26,
8,FREESTYLE,50.0,m,41.437,s,26,
Rest,Rest,,,103.470,s,,
Lap,BREASTSTROKE,200.0,m,293.398,s,116,49
1,BREASTSTROKE,50.0,m,73.437,s,29,
2,BREASTSTROKE,50.0,m,78.312,s,31,
3,BREASTSTROKE,50.0,m,65.000,s,25,
4,BREASTSTROKE,50.0,m,76.625,s,31,
Rest,Rest,,,16.727,s,,
Lap,DRILL,400.0,m,382.344,s,,
1,DRILL,50.0,m,47.793,s,0,
2,DRILL,50.0,m,47.793,s,0,
3,DRILL,50.0,m,47.793,s,0,
4,DRILL,50.0,m,47.793,s,0,
5,DRILL,50.0,m,47.793,s,0,
6,DRILL,50.0,m,47.793,s,0,
7,DRILL,50.0,m,47.793,s,0,
8,DRILL,50.0,m,47.793,s,0,
Rest,Rest,,,51.906,s,,
Lap,BACKSTROKE,100.0,m,121.711,s,49,22
1,BACKSTROKE,50.0,m,57.620,s,24,
2,BACKSTROKE,50.0,m,64.687,s,25,
Rest,Rest,,,11.789,s,,
Lap,BREASTSTROKE,100.0,m,119.211,s,51,26
1,BREASTSTROKE,50.0,m,61.187,s,26,
2,BREASTSTROKE,50.0,m,58.620,s,25,
Rest,Rest,,,52.914,s,,
Lap,FREESTYLE,100.0,m,88.648,s,47,18
1,FREESTYLE,50.0,m,44.312,s,23,
2,FREESTYLE,50.0,m,44.375,s,24,
Rest,Rest,,,10.852,s,,
Lap,FREESTYLE,100.0,m,89.648,s,48,18
1,FREESTYLE,50.0,m,46.312,s,24,
2,FREESTYLE,50.0,m,43.375,s,24,
Rest,Rest,,,30.727,s,,
Lap,BACKSTROKE,100.0,m,132.266,s,49,22
1,BACKSTROKE,50.0,m,65.937,s,25,
2,BACKSTROKE,50.0,m,66.312,s,24,
Rest,Rest,,,22.984,s,,
Lap,DRILL,200.0,m,181.555,s,,
1,DRILL,50.0,m,45.388,s,0,
2,DRILL,50.0,m,45.388,s,0,
3,DRILL,50.0,m,45.388,s,0,
4,DRILL,50.0,m,45.388,s,0,
Rest,Rest,,,22.700,s,,
Lap,BREASTSTROKE,200.0,m,254.242,s,117,68
1,BREASTSTROKE,50.0,m,65.812,s,28,
2,BREASTSTROKE,50.0,m,63.500,s,30,
3,BREASTSTROKE,50.0,m,55.500,s,26,
4,BREASTSTROKE,50.0,m,69.437,s,33,
Rest,Rest,,,14.320,s,,
Lap,FREESTYLE,100.0,m,84.906,s,50,18
1,FREESTYLE,50.0,m,41.687,s,24,
2,FREESTYLE,50.0,m,43.250,s,26,
