Version:1.0
start_time,total_distance,total_distance_units,total_timer_time,total_timer_time_units,total_cycles,total_calories,pool_length,pool_length_units
2017-10-25,1500.0,m,2151.523,s,530,194,50,m
split,swim_stroke,total_distance,total_distance_units,total_timer_time,total_timer_time_units,total_cycles,total_calories
Lap,FREESTYLE,600.0,m,598.805,s,308,108
1,FREESTYLE,50.0,m,44.625,s,22,
2,FREESTYLE,50.0,m,50.187,s,26,
3,FREESTYLE,50.0,m,49.687,s,27,
4,FREESTYLE,50.0,m,53.125,s,25,
5,FREESTYLE,50.0,m,48.687,s,24,
6,FREESTYLE,50.0,m,48.500,s,26,
7,FREESTYLE,50.0,m,49.625,s,24,
8,FREESTYLE,50.0,m,51.187,s,27,
9,FREESTYLE,50.0,m,50.937,s,27,
10,FREESTYLE,50.0,m,51.500,s,27,
11,FREESTYLE,50.0,m,53.875,s,29,
12,FREESTYLE,50.0,m,46.687,s,24,
Rest,Rest,,,1.633,s,,
Rest,Rest,,,28.703,s,,
Lap,FREESTYLE,50.0,m,46.516,s,25,9
1,FREESTYLE,50.0,m,46.562,s,25,
Rest,Rest,,,16.297,s,,
Lap,BREASTSTROKE,100.0,m,127.390,s,62,26
1,BREASTSTROKE,50.0,m,68.500,s,32,
2,BREASTSTROKE,50.0,m,58.562,s,30,
Rest,Rest,,,4.336,s,,
Lap,BACKSTROKE,50.0,m,54.633,s,22,10
1,BACKSTROKE,50.0,m,54.625,s,22,
Rest,Rest,,,20.930,s,,
Lap,FREESTYLE,100.0,m,92.117,s,53,18
1,FREESTYLE,50.0,m,45.125,s,26,
2,FREESTYLE,50.0,m,47.000,s,27,
Rest,Rest,,,23.133,s,,
Lap,BACKSTROKE,50.0,m,61.242,s,24,11
1,BACKSTROKE,50.0,m,61.312,s,24,
Rest,Rest,,,9.883,s,,
Lap,BREASTSTROKE,50.0,m,75.484,s,36,12
1,BREASTSTROKE,50.0,m,75.562,s,36,
Rest,Rest,,,17.266,s,,
Lap,DRILL,100.0,m,89.617,s,,
1,DRILL,50.0,m,44.808,s,0,
2,DRILL,50.0,m,44.808,s,0,
Rest,Rest,,,68.258,s,,
Lap,DRILL,100.0,m,84.313,s,,
1,DRILL,50.0,m,42.156,s,0,
2,DRILL,50.0,m,42.156,s,0,
Rest,Rest,,,135.750,s,,
Lap,DRILL,100.0,m,87.836,s,,
1,DRILL,50.0,m,43.918,s,0,
2,DRILL,50.0,m,43.918,s,0,
Rest,Rest,,,48.727,s,,
Lap,DRILL,100.0,m,88.160,s,,
1,DRILL,50.0,m,44.080,s,0,
2,DRILL,50.0,m,44.080,s,0,
Rest,Rest,,,260.470,s,,
Lap,DRILL,50.0,m,40.938,s,,
1,DRILL,50.0,m,40.938,s,0,
Rest,Rest,,,31.000,s,,
Lap,DRILL,50.0,m,38.461,s,,
1,DRILL,50.0,m,38.461,s,0,
