Version:1.0
start_time,total_distance,total_distance_units,total_timer_time,total_timer_time_units,total_cycles,total_calories,pool_length,pool_length_units
2017-04-09,1800.0,m,2205.211,s,691,271,50,m
split,swim_stroke,total_distance,total_distance_units,total_timer_time,total_timer_time_units,total_cycles,total_calories
Lap,FREESTYLE,400.0,m,382.203,s,201,72
1,FREESTYLE,50.0,m,41.500,s,24,
2,FREESTYLE,50.0,m,49.437,s,27,
3,FREESTYLE,50.0,m,49.625,s,27,
4,FREESTYLE,50.0,m,49.000,s,21,
5,FREESTYLE,50.0,m,49.620,s,25,
6,FREESTYLE,50.0,m,49.625,s,26,
7,FREESTYLE,50.0,m,47.375,s,25,
8,FREESTYLE,50.0,m,46.375,s,26,
Rest,Rest,,,7.313,s,,
Lap,BREASTSTROKE,100.0,m,138.250,s,64,26
1,BREASTSTROKE,50.0,m,70.687,s,32,
2,BREASTSTROKE,50.0,m,67.562,s,32,
Rest,Rest,,,15.438,s,,
Lap,FREESTYLE,200.0,m,190.550,s,94,36
1,FREESTYLE,50.0,m,43.875,s,25,
2,FREESTYLE,50.0,m,50.937,s,27,
3,FREESTYLE,50.0,m,48.875,s,25,
4,FREESTYLE,50.0,m,31.750,s,17,
Rest,Rest,,,17.383,s,,
Lap,BACKSTROKE,100.0,m,127.953,s,49,22
1,BACKSTROKE,50.0,m,65.000,s,25,
2,BACKSTROKE,50.0,m,62.937,s,24,
Rest,Rest,,,18.109,s,,
Lap,FREESTYLE,200.0,m,193.438,s,95,36
1,FREESTYLE,50.0,m,46.812,s,18,
2,FREESTYLE,50.0,m,52.125,s,27,
3,FREESTYLE,50.0,m,47.187,s,25,
4,FREESTYLE,50.0,m,47.312,s,25,
Rest,Rest,,,186.875,s,,
Lap,DRILL,200.0,m,187.570,s,,
1,DRILL,50.0,m,46.892,s,0,
2,DRILL,50.0,m,46.892,s,0,
3,DRILL,50.0,m,46.892,s,0,
4,DRILL,50.0,m,46.892,s,0,
Rest,Rest,,,22.242,s,,
Lap,DRILL,100.0,m,95.578,s,,
1,DRILL,50.0,m,47.789,s,0,
2,DRILL,50.0,m,47.789,s,0,
Rest,Rest,,,51.109,s,,
Lap,DRILL,100.0,m,91.320,s,,
1,DRILL,50.0,m,45.660,s,0,
2,DRILL,50.0,m,45.660,s,0,
Rest,Rest,,,17.742,s,,
Lap,FREESTYLE,200.0,m,194.727,s,84,36
1,FREESTYLE,50.0,m,46.687,s,24,
2,FREESTYLE,50.0,m,48.812,s,26,
3,FREESTYLE,50.0,m,49.875,s,18,
4,FREESTYLE,50.0,m,49.375,s,16,
Rest,Rest,,,4.961,s,,
Lap,MIXED,100.0,m,136.445,s,52,25
1,BACKSTROKE,50.0,m,68.625,s,26,
2,BREASTSTROKE,50.0,m,67.875,s,26,
Rest,Rest,,,3.617,s,,
Rest,Rest,,,2.188,s,,
Rest,Rest,,,41.563,s,,
Lap,FREESTYLE,100.0,m,78.469,s,52,18
1,FREESTYLE,50.0,m,39.125,s,25,
2,FREESTYLE,50.0,m,39.375,s,27,
