Version:1.0
start_time,total_distance,total_distance_units,total_timer_time,total_timer_time_units,total_cycles,total_calories,pool_length,pool_length_units
2017-09-23,2000.0,m,2589.227,s,854,333,50,m
split,swim_stroke,total_distance,total_distance_units,total_timer_time,total_timer_time_units,total_cycles,total_calories
Lap,FREESTYLE,400.0,m,401.883,s,213,72
1,FREESTYLE,50.0,m,46.125,s,25,
2,FREESTYLE,50.0,m,50.000,s,26,
3,FREESTYLE,50.0,m,48.187,s,26,
4,FREESTYLE,50.0,m,55.500,s,29,
5,FREESTYLE,50.0,m,48.437,s,26,
6,FREESTYLE,50.0,m,53.875,s,28,
7,FREESTYLE,50.0,m,51.125,s,28,
8,FREESTYLE,50.0,m,48.375,s,25,
Rest,Rest,,,37.273,s,,
Lap,BACKSTROKE,200.0,m,255.320,s,102,44
1,BACKSTROKE,50.0,m,64.125,s,26,
2,BACKSTROKE,50.0,m,64.875,s,27,
3,BACKSTROKE,50.0,m,61.562,s,25,
4,BACKSTROKE,50.0,m,64.812,s,24,
Rest,Rest,,,15.742,s,,
Lap,BREASTSTROKE,200.0,m,273.305,s,123,51
1,BREASTSTROKE,50.0,m,66.812,s,30,
2,BREASTSTROKE,50.0,m,74.750,s,33,
3,BREASTSTROKE,50.0,m,61.500,s,27,
4,BREASTSTROKE,50.0,m,70.250,s,33,
Rest,Rest,,,5.080,s,,
Lap,FREESTYLE,200.0,m,182.117,s,89,36
1,FREESTYLE,50.0,m,43.937,s,16,
2,FREESTYLE,50.0,m,45.875,s,22,
3,FREESTYLE,50.0,m,47.620,s,26,
4,FREESTYLE,50.0,m,45.250,s,25,
Rest,Rest,,,45.633,s,,
Lap,DRILL,200.0,m,199.219,s,,
1,DRILL,50.0,m,49.804,s,0,
2,DRILL,50.0,m,49.804,s,0,
3,DRILL,50.0,m,49.804,s,0,
4,DRILL,50.0,m,49.804,s,0,
Rest,Rest,,,51.531,s,,
Lap,DRILL,200.0,m,185.195,s,,
1,DRILL,50.0,m,46.298,s,0,
2,DRILL,50.0,m,46.298,s,0,
3,DRILL,50.0,m,46.298,s,0,
4,DRILL,50.0,m,46.298,s,0,
Rest,Rest,,,17.180,s,,
Lap,BACKSTROKE,100.0,m,116.195,s,47,21
1,BACKSTROKE,50.0,m,58.500,s,25,
2,BACKSTROKE,50.0,m,47.562,s,22,
Rest,Rest,,,12.430,s,,
Lap,BREASTSTROKE,100.0,m,142.609,s,70,25
1,BREASTSTROKE,50.0,m,68.750,s,34,
2,BREASTSTROKE,50.0,m,73.937,s,36,
Rest,Rest,,,166.160,s,,
Lap,FREESTYLE,100.0,m,91.336,s,47,18
1,FREESTYLE,50.0,m,48.620,s,25,
2,FREESTYLE,50.0,m,43.312,s,22,
Rest,Rest,,,13.477,s,,
Lap,BACKSTROKE,100.0,m,130.336,s,51,22
1,BACKSTROKE,50.0,m,65.750,s,26,
2,BACKSTROKE,50.0,m,64.562,s,25,
Rest,Rest,,,3.727,s,,
Lap,BREASTSTROKE,100.0,m,134.445,s,62,26
1,BREASTSTROKE,50.0,m,66.750,s,31,
2,BREASTSTROKE,50.0,m,67.687,s,31,
Rest,Rest,,,22.180,s,,
Lap,FREESTYLE,100.0,m,86.781,s,50,18
1,FREESTYLE,50.0,m,43.937,s,25,
2,FREESTYLE,50.0,m,42.875,s,25,
