Version:1.0
start_time,total_distance,total_distance_units,total_timer_time,total_timer_time_units,total_cycles,total_calories,pool_length,pool_length_units
2017-10-22,2000.0,m,2253.555,s,,,50,m
split,swim_stroke,total_distance,total_distance_units,total_timer_time,total_timer_time_units,total_cycles,total_calories
Lap,DRILL,1000.0,m,1095.125,s,,
1,DRILL,50.0,m,54.756,s,0,
2,DRILL,50.0,m,54.756,s,0,
3,DRILL,50.0,m,54.756,s,0,
4,DRILL,50.0,m,54.756,s,0,
5,DRILL,50.0,m,54.756,s,0,
6,DRILL,50.0,m,54.756,s,0,
7,DRILL,50.0,m,54.756,s,0,
8,DRILL,50.0,m,54.756,s,0,
9,DRILL,50.0,m,54.756,s,0,
10,DRILL,50.0,m,54.756,s,0,
11,DRILL,50.0,m,54.756,s,0,
12,DRILL,50.0,m,54.756,s,0,
13,DRILL,50.0,m,54.756,s,0,
14,DRILL,50.0,m,54.756,s,0,
15,DRILL,50.0,m,54.756,s,0,
16,DRILL,50.0,m,54.756,s,0,
17,DRILL,50.0,m,54.756,s,0,
18,DRILL,50.0,m,54.756,s,0,
19,DRILL,50.0,m,54.756,s,0,
20,DRILL,50.0,m,54.756,s,0,
Rest,Rest,,,69.867,s,,
Lap,DRILL,1000.0,m,1088.539,s,,
1,DRILL,50.0,m,54.426,s,0,
2,DRILL,50.0,m,54.426,s,0,
3,DRILL,50.0,m,54.426,s,0,
4,DRILL,50.0,m,54.426,s,0,
5,DRILL,50.0,m,54.426,s,0,
6,DRILL,50.0,m,54.426,s,0,
7,DRILL,50.0,m,54.426,s,0,
8,DRILL,50.0,m,54.426,s,0,
9,DRILL,50.0,m,54.426,s,0,
10,DRILL,50.0,m,54.426,s,0,
11,DRILL,50.0,m,54.426,s,0,
12,DRILL,50.0,m,54.426,s,0,
13,DRILL,50.0,m,54.426,s,0,
14,DRILL,50.0,m,54.426,s,0,
15,DRILL,50.0,m,54.426,s,0,
16,DRILL,50.0,m,54.426,s,0,
17,DRILL,50.0,m,54.426,s,0,
18,DRILL,50.0,m,54.426,s,0,
19,DRILL,50.0,m,54.426,s,0,
20,DRILL,50.0,m,54.426,s,0,
