Split,Swim Stroke,Lengths,Distance,Time,Avg Pace,Best Pace,Avg SWOLF,Avg Power,Max Power,Total Strokes,Avg Strokes,Calories
1,BREASTSTROKE,4,200.0,00:04:41.625,0:23:26  ,0:22:27  ,106.0,--,--,160,37.8,51
1.1,BREASTSTROKE,1,50.0,00:01:07.312,0:22:27  ,0:22:27  ,110.0,--,--,43,--,--
1.2,BREASTSTROKE,1,50.0,00:01:10.687,0:23:34  ,0:23:34  ,111.0,--,--,40,--,--
1.3,BREASTSTROKE,1,50.0,00:01:11.312,0:23:46  ,0:23:46  ,110.0,--,--,39,--,--
1.4,BREASTSTROKE,1,50.0,00:01:12.125,0:24:03  ,0:24:03  ,110.0,--,--,38,--,--
REST,,,0.0,00:00:33.133,--,--,--,--,--,--,--,--
2,FREESTYLE,4,200.0,00:04:08.500,0:20:42  ,0:19:12  ,91.0,--,--,118,29.5,36
2.1,FREESTYLE,1,50.0,00:00:57.562,0:19:12  ,0:19:12  ,87.0,--,--,29,--,--
2.2,FREESTYLE,1,50.0,00:00:59.875,0:19:57  ,0:19:57  ,89.0,--,--,29,--,--
2.3,FREESTYLE,1,50.0,00:01:12.312,0:24:07  ,0:24:07  ,103.0,--,--,31,--,--
2.4,FREESTYLE,1,50.0,00:00:58.750,0:19:35  ,0:19:35  ,88.0,--,--,29,--,--
REST,,,0.0,00:02:01.313,--,--,--,--,--,--,--,--
3,FREESTYLE,4,200.0,00:03:48.508,0:19:02  ,0:18:21  ,94.0,--,--,118,32.5,36
3.1,FREESTYLE,1,50.0,00:00:55.62,0:18:21  ,0:18:21  ,84.0,--,--,29,--,--
3.2,FREESTYLE,1,50.0,00:01:00.625,0:20:13  ,0:20:13  ,91.0,--,--,30,--,--
3.3,FREESTYLE,1,50.0,00:00:56.937,0:18:58  ,0:18:58  ,86.0,--,--,29,--,--
3.4,FREESTYLE,1,50.0,00:00:55.875,0:18:38  ,0:18:38  ,86.0,--,--,30,--,--
REST,,,0.0,00:01:42.492,--,--,--,--,--,--,--,--
4,BREASTSTROKE,4,200.0,00:04:52.891,0:24:24  ,0:21:42  ,106.0,--,--,157,36.25,51
4.1,BREASTSTROKE,1,50.0,00:01:11.562,0:23:52  ,0:23:52  ,113.0,--,--,41,--,--
4.2,BREASTSTROKE,1,50.0,00:01:09.750,0:23:16  ,0:23:16  ,108.0,--,--,38,--,--
4.3,BREASTSTROKE,1,50.0,00:01:26.562,0:28:53  ,0:28:53  ,130.0,--,--,43,--,--
4.4,BREASTSTROKE,1,50.0,00:01:05.62,0:21:42  ,0:21:42  ,100.0,--,--,35,--,--
REST,,,0.0,00:01:02.859,--,--,--,--,--,--,--,--
5,FREESTYLE,4,200.0,00:03:50.656,0:19:13  ,0:18:26  ,86.0,--,--,116,28.75,36
5.1,FREESTYLE,1,50.0,00:00:55.875,0:18:38  ,0:18:38  ,85.0,--,--,29,--,--
5.2,FREESTYLE,1,50.0,00:00:57.125,0:19:02  ,0:19:02  ,86.0,--,--,29,--,--
5.3,FREESTYLE,1,50.0,00:01:02.437,0:20:49  ,0:20:49  ,92.0,--,--,30,--,--
5.4,FREESTYLE,1,50.0,00:00:55.250,0:18:26  ,0:18:26  ,83.0,--,--,28,--,--
REST,,,0.0,00:01:27.844,--,--,--,--,--,--,--,--
6,FREESTYLE,2,100.0,00:01:54.375,0:19:04  ,0:18:09  ,90.0,--,--,59,31.0,18
6.1,FREESTYLE,1,50.0,00:00:54.437,0:18:09  ,0:18:09  ,82.0,--,--,28,--,--
6.2,FREESTYLE,1,50.0,00:01:00.00,0:20:00  ,0:20:00  ,91.0,--,--,31,--,--
REST,,,0.0,00:01:38.750,--,--,--,--,--,--,--,--
7,FREESTYLE,4,200.0,00:04:02.94,0:20:10  ,0:19:16  ,97.0,--,--,125,33.0,36
7.1,FREESTYLE,1,50.0,00:00:57.750,0:19:16  ,0:19:16  ,89.0,--,--,31,--,--
7.2,FREESTYLE,1,50.0,00:01:03.00,0:21:01  ,0:21:01  ,95.0,--,--,32,--,--
7.3,FREESTYLE,1,50.0,00:00:58.187,0:19:24  ,0:19:24  ,88.0,--,--,30,--,--
7.4,FREESTYLE,1,50.0,00:01:03.187,0:21:04  ,0:21:04  ,95.0,--,--,32,--,--
REST,,,0.0,00:00:17.656,--,--,--,--,--,--,--,--
8,BREASTSTROKE,2,100.0,00:02:29.250,0:24:52  ,0:24:00  ,98.0,--,--,78,34.0,25
8.1,BREASTSTROKE,1,50.0,00:01:12.00,0:24:00  ,0:24:00  ,110.0,--,--,38,--,--
8.2,BREASTSTROKE,1,50.0,00:01:17.250,0:25:45  ,0:25:45  ,117.0,--,--,40,--,--
REST,,,0.0,00:00:42.438,--,--,--,--,--,--,--,--
9,FREESTYLE,2,100.0,00:01:44.258,0:17:23  ,0:16:45  ,85.0,--,--,59,31.0,18
9.1,FREESTYLE,1,50.0,00:00:50.250,0:16:45  ,0:16:45  ,78.0,--,--,28,--,--
9.2,FREESTYLE,1,50.0,00:00:54.125,0:18:03  ,0:18:03  ,85.0,--,--,31,--,--
Summary,,30,1500.0,00:40:59.78,0:21:01  ,0:16:45  ,96.0,--,--,990,33.0,307
