Split,Swim Stroke,Lengths,Distance,Time,Avg Pace,Best Pace,Avg SWOLF,Avg Power,Max Power,Total Strokes,Avg Strokes,Calories
1,FREESTYLE,2,100.0,00:01:42.906,0:17:04  ,0:15:38  ,89.0,--,--,59,33.333333333333336,18
1.1,FREESTYLE,1,50.0,00:00:46.937,0:15:38  ,0:15:38  ,75.0,--,--,28,--,--
1.2,FREESTYLE,1,50.0,00:00:55.500,0:18:31  ,0:18:31  ,87.0,--,--,31,--,--
REST,,,0.0,00:00:07.461,--,--,--,--,--,--,--,--
2,BREASTSTROKE,4,200.0,00:04:28.461,0:22:22  ,0:21:45  ,101.0,--,--,161,36.75,52
2.1,BREASTSTROKE,1,50.0,00:01:05.312,0:21:47  ,0:21:47  ,106.0,--,--,41,--,--
2.2,BREASTSTROKE,1,50.0,00:01:08.437,0:22:49  ,0:22:49  ,109.0,--,--,41,--,--
2.3,BREASTSTROKE,1,50.0,00:01:05.250,0:21:45  ,0:21:45  ,105.0,--,--,40,--,--
2.4,BREASTSTROKE,1,50.0,00:01:09.500,0:23:10  ,0:23:10  ,109.0,--,--,39,--,--
REST,,,0.0,00:01:20.39,--,--,--,--,--,--,--,--
3,FREESTYLE,4,200.0,00:03:51.844,0:19:20  ,0:17:38  ,93.0,--,--,116,31.75,36
3.1,FREESTYLE,1,50.0,00:00:52.875,0:17:38  ,0:17:38  ,80.0,--,--,27,--,--
3.2,FREESTYLE,1,50.0,00:00:54.562,0:18:11  ,0:18:11  ,79.0,--,--,24,--,--
3.3,FREESTYLE,1,50.0,00:01:07.62,0:22:22  ,0:22:22  ,102.0,--,--,35,--,--
3.4,FREESTYLE,1,50.0,00:00:57.437,0:19:09  ,0:19:09  ,87.0,--,--,30,--,--
REST,,,0.0,00:00:30.406,--,--,--,--,--,--,--,--
4,BREASTSTROKE,4,200.0,00:04:28.641,0:22:24  ,0:21:35  ,100.0,--,--,155,36.25,51
4.1,BREASTSTROKE,1,50.0,00:01:04.750,0:21:35  ,0:21:35  ,103.0,--,--,38,--,--
4.2,BREASTSTROKE,1,50.0,00:01:06.187,0:22:04  ,0:22:04  ,105.0,--,--,39,--,--
4.3,BREASTSTROKE,1,50.0,00:01:05.62,0:21:42  ,0:21:42  ,103.0,--,--,38,--,--
4.4,BREASTSTROKE,1,50.0,00:01:12.687,0:24:15  ,0:24:15  ,113.0,--,--,40,--,--
REST,,,0.0,00:02:03.359,--,--,--,--,--,--,--,--
5,FREESTYLE,4,200.0,00:03:32.422,0:17:42  ,0:16:16  ,84.0,--,--,123,31.25,36
5.1,FREESTYLE,1,50.0,00:00:48.812,0:16:16  ,0:16:16  ,77.0,--,--,28,--,--
5.2,FREESTYLE,1,50.0,00:00:54.875,0:18:17  ,0:18:17  ,87.0,--,--,32,--,--
5.3,FREESTYLE,1,50.0,00:00:56.437,0:18:49  ,0:18:49  ,89.0,--,--,33,--,--
5.4,FREESTYLE,1,50.0,00:00:52.312,0:17:27  ,0:17:27  ,82.0,--,--,30,--,--
REST,,,0.0,00:02:45.766,--,--,--,--,--,--,--,--
6,FREESTYLE,2,100.0,00:01:35.602,0:15:56  ,0:15:32  ,77.0,--,--,60,30.0,18
6.1,FREESTYLE,1,50.0,00:00:49.62,0:16:21  ,0:16:21  ,79.0,--,--,30,--,--
6.2,FREESTYLE,1,50.0,00:00:46.625,0:15:32  ,0:15:32  ,77.0,--,--,30,--,--
Summary,,20,1000.0,00:26:27.258,0:19:39  ,0:15:32  ,93.0,--,--,674,33.7,211
