Split,Swim Stroke,Lengths,Distance,Time,Avg Pace,Best Pace,Avg SWOLF,Avg Power,Max Power,Total Strokes,Avg Strokes,Calories
1,FREESTYLE,10,500.0,00:09:22.875,0:18:14  ,0:12:36  ,86.0,--,--,305,31.09090909090909,90
1.1,FREESTYLE,1,50.0,00:00:49.937,0:16:39  ,0:16:39  ,77.0,--,--,27,--,--
1.2,FREESTYLE,1,50.0,00:00:57.437,0:19:09  ,0:19:09  ,88.0,--,--,31,--,--
1.3,FREESTYLE,1,50.0,00:00:58.375,0:19:28  ,0:19:28  ,90.0,--,--,32,--,--
1.4,FREESTYLE,1,50.0,00:00:57.500,0:19:10  ,0:19:10  ,89.0,--,--,31,--,--
1.5,FREESTYLE,1,50.0,00:01:01.625,0:20:33  ,0:20:33  ,96.0,--,--,34,--,--
1.6,FREESTYLE,1,50.0,00:00:58.375,0:19:28  ,0:19:28  ,90.0,--,--,32,--,--
1.7,FREESTYLE,1,50.0,00:00:55.437,0:18:29  ,0:18:29  ,87.0,--,--,32,--,--
1.8,FREESTYLE,1,50.0,00:00:55.125,0:18:22  ,0:18:22  ,87.0,--,--,32,--,--
1.9,FREESTYLE,1,50.0,00:00:55.375,0:18:28  ,0:18:28  ,87.0,--,--,32,--,--
1.10,FREESTYLE,1,50.0,00:00:37.812,0:12:36  ,0:12:36  ,60.0,--,--,22,--,--
REST,,,0.0,00:02:38.992,--,--,--,--,--,--,--,--
2,BREASTSTROKE,2,100.0,00:02:07.117,0:21:12  ,0:19:59  ,102.0,--,--,80,39.5,26
2.1,BREASTSTROKE,1,50.0,00:00:59.937,0:19:59  ,0:19:59  ,97.0,--,--,37,--,--
2.2,BREASTSTROKE,1,50.0,00:01:07.250,0:22:25  ,0:22:25  ,110.0,--,--,43,--,--
REST,,,0.0,00:01:54.445,--,--,--,--,--,--,--,--
3,BREASTSTROKE,2,100.0,00:02:02.602,0:20:26  ,0:19:25  ,94.0,--,--,76,35.0,26
3.1,BREASTSTROKE,1,50.0,00:00:58.250,0:19:25  ,0:19:25  ,94.0,--,--,36,--,--
3.2,BREASTSTROKE,1,50.0,00:01:04.375,0:21:28  ,0:21:28  ,104.0,--,--,40,--,--
REST,,,0.0,00:00:56.523,--,--,--,--,--,--,--,--
4,FREESTYLE,4,200.0,00:03:43.31,0:18:34  ,0:17:55  ,89.0,--,--,129,32.75,36
4.1,FREESTYLE,1,50.0,00:00:53.750,0:17:55  ,0:17:55  ,84.0,--,--,30,--,--
4.2,FREESTYLE,1,50.0,00:00:56.937,0:18:58  ,0:18:58  ,90.0,--,--,33,--,--
4.3,FREESTYLE,1,50.0,00:00:57.562,0:19:12  ,0:19:12  ,92.0,--,--,34,--,--
4.4,FREESTYLE,1,50.0,00:00:54.812,0:18:16  ,0:18:16  ,87.0,--,--,32,--,--
REST,,,0.0,00:01:17.406,--,--,--,--,--,--,--,--
5,FREESTYLE,4,200.0,00:03:47.773,0:18:58  ,0:18:41  ,89.0,--,--,131,32.25,36
5.1,FREESTYLE,1,50.0,00:00:56.00,0:18:41  ,0:18:41  ,88.0,--,--,32,--,--
5.2,FREESTYLE,1,50.0,00:00:56.875,0:18:57  ,0:18:57  ,90.0,--,--,33,--,--
5.3,FREESTYLE,1,50.0,00:00:57.687,0:19:14  ,0:19:14  ,91.0,--,--,33,--,--
5.4,FREESTYLE,1,50.0,00:00:57.187,0:19:04  ,0:19:04  ,90.0,--,--,33,--,--
REST,,,0.0,00:01:41.539,--,--,--,--,--,--,--,--
6,FREESTYLE,2,100.0,00:01:47.758,0:17:57  ,0:17:51  ,85.0,--,--,61,31.0,18
6.1,FREESTYLE,1,50.0,00:00:54.250,0:18:05  ,0:18:05  ,84.0,--,--,30,--,--
6.2,FREESTYLE,1,50.0,00:00:53.562,0:17:51  ,0:17:51  ,85.0,--,--,31,--,--
Summary,,24,1200.0,00:31:20.227,0:18:49  ,0:12:36  ,89.0,--,--,782,32.583333333333336,232
