Split,Swim Stroke,Lengths,Distance,Time,Avg Pace,Best Pace,Avg SWOLF,Avg Power,Max Power,Total Strokes,Avg Strokes,Calories
1,FREESTYLE,2,50.0,00:01:37.531,0:32:21  ,0:32:10  ,75.0,--,--,53,26.0,8
1.1,FREESTYLE,1,25.0,00:00:48.250,0:32:10  ,0:32:10  ,74.0,--,--,26,--,--
1.2,FREESTYLE,1,25.0,00:00:48.750,0:32:33  ,0:32:33  ,76.0,--,--,27,--,--
REST,,,0.0,00:00:01.609,--,--,0.0,--,--,--,26.0,--
REST,,,0.0,00:01:16.500,--,--,0.0,--,--,--,26.0,--
2,FREESTYLE,2,50.0,00:01:37.141,0:32:25  ,0:30:11  ,75.0,--,--,53,26.0,8
2.1,FREESTYLE,1,25.0,00:00:45.250,0:30:11  ,0:30:11  ,70.0,--,--,25,--,--
2.2,FREESTYLE,1,25.0,00:00:51.937,0:34:39  ,0:34:39  ,80.0,--,--,28,--,--
REST,,,0.0,00:03:32.984,--,--,0.0,--,--,--,21.2,--
3,DRILL,2,50.0,00:01:18.430,--,--,0.0,--,--,--,9.636363636363637,--
3.1,DRILL,1,25.0,00:00:39.215,--,--,--,--,--,0,--,--
3.2,DRILL,1,25.0,00:00:39.215,--,--,--,--,--,0,--,--
REST,,,0.0,00:05:43.195,--,--,0.0,--,--,--,9.636363636363637,--
4,DRILL,6,150.0,00:04:31.242,--,--,0.0,--,--,--,8.833333333333334,--
4.1,DRILL,1,25.0,00:00:45.207,--,--,--,--,--,0,--,--
4.2,DRILL,1,25.0,00:00:45.207,--,--,--,--,--,0,--,--
4.3,DRILL,1,25.0,00:00:45.207,--,--,--,--,--,0,--,--
4.4,DRILL,1,25.0,00:00:45.207,--,--,--,--,--,0,--,--
4.5,DRILL,1,25.0,00:00:45.207,--,--,--,--,--,0,--,--
4.6,DRILL,1,25.0,00:00:45.207,--,--,--,--,--,0,--,--
REST,,,0.0,00:00:40.258,--,--,0.0,--,--,--,8.833333333333334,--
REST,,,0.0,00:00:01.977,--,--,0.0,--,--,--,8.833333333333334,--
Summary,,12,300.0,00:20:21.102,0:32:21  ,0:30:11  ,75.0,--,--,106,26.5,16
