Split,Swim Stroke,Lengths,Distance,Time,Avg Pace,Best Pace,Avg SWOLF,Avg Power,Max Power,Total Strokes,Avg Strokes,Calories
1,FREESTYLE,4,200.0,00:03:05.914,0:15:27  ,0:14:31  ,74.0,--,--,110,27.0,46
1.1,FREESTYLE,1,50.0,00:00:45.187,0:15:04  ,0:15:04  ,70.0,--,--,25,--,--
1.2,FREESTYLE,1,50.0,00:00:48.406,0:16:08  ,0:16:08  ,76.0,--,--,28,--,--
1.3,FREESTYLE,1,50.0,00:00:48.406,0:16:08  ,0:16:08  ,76.0,--,--,28,--,--
1.4,FREESTYLE,1,50.0,00:00:43.562,0:14:31  ,0:14:31  ,73.0,--,--,29,--,--
REST,,,0.0,00:01:08.313,--,--,0.0,--,--,--,27.6,--
REST,,,0.0,00:00:01.00,--,--,0.0,--,--,--,27.6,--
REST,,,0.0,00:01:04.188,--,--,0.0,--,--,--,27.6,--
2,FREESTYLE,4,200.0,00:03:22.78,0:16:51  ,0:15:58  ,79.0,--,--,115,28.0,36
2.1,FREESTYLE,1,50.0,00:00:47.937,0:15:58  ,0:15:58  ,76.0,--,--,28,--,--
2.2,FREESTYLE,1,50.0,00:00:51.562,0:17:11  ,0:17:11  ,81.0,--,--,29,--,--
2.3,FREESTYLE,1,50.0,00:00:53.62,0:17:41  ,0:17:41  ,82.0,--,--,29,--,--
2.4,FREESTYLE,1,50.0,00:00:49.562,0:16:32  ,0:16:32  ,79.0,--,--,29,--,--
REST,,,0.0,00:02:23.234,--,--,0.0,--,--,--,28.0,--
3,FREESTYLE,2,100.0,00:01:37.711,0:16:17  ,0:16:01  ,76.0,--,--,55,27.0,18
3.1,FREESTYLE,1,50.0,00:00:48.62,0:16:01  ,0:16:01  ,75.0,--,--,27,--,--
3.2,FREESTYLE,1,50.0,00:00:49.687,0:16:34  ,0:16:34  ,78.0,--,--,28,--,--
REST,,,0.0,00:00:53.727,--,--,0.0,--,--,--,27.818181818181817,--
4,FREESTYLE,4,200.0,00:03:16.516,0:16:23  ,0:16:01  ,77.0,--,--,111,27.0,37
4.1,FREESTYLE,1,50.0,00:00:48.62,0:16:01  ,0:16:01  ,74.0,--,--,26,--,--
4.2,FREESTYLE,1,50.0,00:00:49.750,0:16:35  ,0:16:35  ,78.0,--,--,28,--,--
4.3,FREESTYLE,1,50.0,00:00:49.375,0:16:27  ,0:16:27  ,77.0,--,--,28,--,--
4.4,FREESTYLE,1,50.0,00:00:49.375,0:16:27  ,0:16:27  ,78.0,--,--,29,--,--
REST,,,0.0,00:02:09.109,--,--,0.0,--,--,--,27.928571428571427,--
5,FREESTYLE,4,200.0,00:03:16.695,0:16:23  ,0:14:26  ,77.0,--,--,113,28.0,45
5.1,FREESTYLE,1,50.0,00:00:43.343,0:14:26  ,0:14:26  ,67.0,--,--,24,--,--
5.2,FREESTYLE,1,50.0,00:00:43.343,0:14:26  ,0:14:26  ,68.0,--,--,25,--,--
5.3,FREESTYLE,1,50.0,00:00:55.31,0:18:20  ,0:18:20  ,87.0,--,--,32,--,--
5.4,FREESTYLE,1,50.0,00:00:55.31,0:18:20  ,0:18:20  ,87.0,--,--,32,--,--
REST,,,0.0,00:01:15.430,--,--,0.0,--,--,--,27.94736842105263,--
6,FREESTYLE,2,100.0,00:01:29.734,0:14:58  ,0:14:45  ,72.0,--,--,54,27.0,18
6.1,FREESTYLE,1,50.0,00:00:45.562,0:15:11  ,0:15:11  ,73.0,--,--,27,--,--
6.2,FREESTYLE,1,50.0,00:00:44.250,0:14:45  ,0:14:45  ,71.0,--,--,27,--,--
REST,,,0.0,00:06:17.78,--,--,0.0,--,--,--,27.9,--
7,BREASTSTROKE,1,50.0,00:00:55.367,0:18:27  ,0:18:28  ,81.0,--,--,26,26.0,13
7.1,BREASTSTROKE,1,50.0,00:00:55.375,0:18:28  ,0:18:28  ,81.0,--,--,26,--,--
REST,,,0.0,00:09:14.508,--,--,0.0,--,--,--,27.80952380952381,--
8,BREASTSTROKE,1,50.0,00:00:54.31,0:18:01  ,0:18:02  ,80.0,--,--,26,26.0,14
8.1,BREASTSTROKE,1,50.0,00:00:54.62,0:18:02  ,0:18:02  ,80.0,--,--,26,--,--
REST,,,0.0,00:02:00.94,--,--,0.0,--,--,--,27.727272727272727,--
9,DRILL,1,50.0,00:00:53.563,--,--,0.0,--,--,--,26.52173913043478,--
9.1,DRILL,1,50.0,00:00:53.563,--,--,--,--,--,0,--,--
REST,,,0.0,00:00:20.938,--,--,0.0,--,--,--,26.52173913043478,--
10,DRILL,1,50.0,00:00:54.852,--,--,0.0,--,--,--,25.416666666666668,--
10.1,DRILL,1,50.0,00:00:54.852,--,--,--,--,--,0,--,--
REST,,,0.0,00:03:23.648,--,--,0.0,--,--,--,25.416666666666668,--
11,BUTTERFLY,1,50.0,00:00:47.531,0:11:34  ,0:11:35  ,51.0,--,--,16,16.0,14
11.1,BUTTERFLY,1,50.0,00:00:34.750,0:11:35  ,0:11:35  ,51.0,--,--,16,--,--
REST,,,0.0,00:01:16.781,--,--,0.0,--,--,--,25.04,--
12,BUTTERFLY,1,50.0,00:00:47.641,0:15:52  ,0:15:53  ,69.0,--,--,21,21.0,9
12.1,BUTTERFLY,1,50.0,00:00:47.625,0:15:53  ,0:15:53  ,69.0,--,--,21,--,--
REST,,,0.0,00:03:24.297,--,--,0.0,--,--,--,24.884615384615383,--
13,BUTTERFLY,1,50.0,00:00:47.367,0:15:47  ,0:15:47  ,68.0,--,--,21,21.0,11
13.1,BUTTERFLY,1,50.0,00:00:47.375,0:15:47  ,0:15:47  ,68.0,--,--,21,--,--
REST,,,0.0,00:02:13.445,--,--,0.0,--,--,--,24.74074074074074,--
14,BUTTERFLY,1,50.0,00:00:51.242,0:17:06  ,0:17:06  ,73.0,--,--,22,22.0,9
14.1,BUTTERFLY,1,50.0,00:00:51.312,0:17:06  ,0:17:06  ,73.0,--,--,22,--,--
REST,,,0.0,00:05:26.70,--,--,0.0,--,--,--,24.642857142857142,--
15,BUTTERFLY,1,50.0,00:00:48.359,0:16:07  ,0:16:08  ,69.0,--,--,21,21.0,9
15.1,BUTTERFLY,1,50.0,00:00:48.375,0:16:08  ,0:16:08  ,69.0,--,--,21,--,--
REST,,,0.0,00:01:08.703,--,--,0.0,--,--,--,24.517241379310345,--
16,BUTTERFLY,1,50.0,00:00:48.602,0:16:12  ,0:16:12  ,69.0,--,--,20,20.0,9
16.1,BUTTERFLY,1,50.0,00:00:48.625,0:16:12  ,0:16:12  ,69.0,--,--,20,--,--
REST,,,0.0,00:01:13.773,--,--,0.0,--,--,--,24.366666666666667,--
17,DRILL,1,50.0,00:00:45.70,--,--,0.0,--,--,--,23.580645161290324,--
17.1,DRILL,1,50.0,00:00:45.70,--,--,--,--,--,0,--,--
REST,,,0.0,00:00:29.305,--,--,0.0,--,--,--,23.580645161290324,--
18,DRILL,1,50.0,00:00:59.234,--,--,0.0,--,--,--,22.151515151515152,--
18.1,DRILL,1,50.0,00:00:59.234,--,--,--,--,--,0,--,--
REST,,,0.0,00:00:48.78,--,--,0.0,--,--,--,22.151515151515152,--
19,DRILL,2,100.0,00:01:56.203,--,--,0.0,--,--,--,20.885714285714286,--
19.1,DRILL,1,50.0,00:00:58.101,--,--,--,--,--,0,--,--
19.2,DRILL,1,50.0,00:00:58.101,--,--,--,--,--,0,--,--
REST,,,0.0,00:01:16.234,--,--,0.0,--,--,--,20.885714285714286,--
20,DRILL,2,100.0,00:01:59.31,--,--,0.0,--,--,--,20.56756756756757,--
20.1,DRILL,1,50.0,00:00:59.515,--,--,--,--,--,0,--,--
20.2,DRILL,1,50.0,00:00:59.515,--,--,--,--,--,0,--,--
REST,,,0.0,00:00:40.906,--,--,0.0,--,--,--,20.56756756756757,--
21,BREASTSTROKE,2,100.0,00:01:53.375,0:18:53  ,0:17:56  ,85.0,--,--,58,29.0,27
21.1,BREASTSTROKE,1,50.0,00:00:59.562,0:19:51  ,0:19:51  ,90.0,--,--,30,--,--
21.2,BREASTSTROKE,1,50.0,00:00:53.812,0:17:56  ,0:17:56  ,82.0,--,--,28,--,--
REST,,,0.0,00:01:36.875,--,--,0.0,--,--,--,20.897435897435898,--
22,FREESTYLE,2,100.0,00:01:31.938,0:15:19  ,0:15:14  ,72.0,--,--,53,26.0,18
22.1,FREESTYLE,1,50.0,00:00:45.687,0:15:14  ,0:15:14  ,72.0,--,--,26,--,--
22.2,FREESTYLE,1,50.0,00:00:46.312,0:15:26  ,0:15:26  ,73.0,--,--,27,--,--
Summary,,40,2000.0,01:23:28.492,0:16:15  ,0:11:35  ,75.0,--,--,842,26.299999237060547,333
