Split,Swim Stroke,Lengths,Distance,Time,Avg Pace,Best Pace,Avg SWOLF,Avg Power,Max Power,Total Strokes,Avg Strokes,Calories
1,FREESTYLE,2,100.0,00:01:28.94,0:14:39  ,0:14:12  ,72.0,--,--,56,28.0,18
1.1,FREESTYLE,1,50.0,00:00:42.625,0:14:12  ,0:14:12  ,70.0,--,--,27,--,--
1.2,FREESTYLE,1,50.0,00:00:45.312,0:15:06  ,0:15:06  ,74.0,--,--,29,--,--
REST,,,0.0,00:01:13.39,--,--,0.0,--,--,--,28.333333333333332,--
2,FREESTYLE,4,200.0,00:03:26.94,0:17:10  ,0:16:27  ,81.0,--,--,119,29.0,36
2.1,FREESTYLE,1,50.0,00:00:49.312,0:16:27  ,0:16:27  ,78.0,--,--,29,--,--
2.2,FREESTYLE,1,50.0,00:00:50.687,0:16:54  ,0:16:54  ,80.0,--,--,29,--,--
2.3,FREESTYLE,1,50.0,00:00:54.312,0:18:06  ,0:18:06  ,85.0,--,--,31,--,--
2.4,FREESTYLE,1,50.0,00:00:51.812,0:17:16  ,0:17:16  ,82.0,--,--,30,--,--
REST,,,0.0,00:03:09.844,--,--,0.0,--,--,--,29.166666666666668,--
3,BUTTERFLY,1,50.0,00:00:53.109,0:17:43  ,0:17:43  ,76.0,--,--,23,23.0,10
3.1,BUTTERFLY,1,50.0,00:00:53.187,0:17:43  ,0:17:43  ,76.0,--,--,23,--,--
REST,,,0.0,00:06:52.578,--,--,0.0,--,--,--,28.285714285714285,--
4,BUTTERFLY,1,50.0,00:00:48.141,0:16:03  ,0:16:04  ,70.0,--,--,22,22.0,11
4.1,BUTTERFLY,1,50.0,00:00:48.187,0:16:04  ,0:16:04  ,70.0,--,--,22,--,--
REST,,,0.0,00:06:34.547,--,--,0.0,--,--,--,27.22222222222222,--
5,FREESTYLE,2,100.0,00:01:30.328,0:15:03  ,0:14:40  ,71.0,--,--,53,26.0,18
5.1,FREESTYLE,1,50.0,00:00:44.00,0:14:40  ,0:14:40  ,69.0,--,--,25,--,--
5.2,FREESTYLE,1,50.0,00:00:46.375,0:15:27  ,0:15:27  ,74.0,--,--,28,--,--
REST,,,0.0,00:36:14.422,--,--,0.0,--,--,--,27.181818181818183,--
6,FREESTYLE,2,100.0,00:01:32.594,0:15:25  ,0:14:55  ,73.0,--,--,54,27.0,18
6.1,FREESTYLE,1,50.0,00:00:44.750,0:14:55  ,0:14:55  ,71.0,--,--,26,--,--
6.2,FREESTYLE,1,50.0,00:00:47.875,0:15:57  ,0:15:57  ,76.0,--,--,28,--,--
REST,,,0.0,00:01:30.156,--,--,0.0,--,--,--,27.307692307692307,--
7,FREESTYLE,2,100.0,00:01:31.133,0:15:11  ,0:14:36  ,74.0,--,--,58,29.0,18
7.1,FREESTYLE,1,50.0,00:00:43.812,0:14:36  ,0:14:36  ,72.0,--,--,28,--,--
7.2,FREESTYLE,1,50.0,00:00:47.312,0:15:46  ,0:15:46  ,77.0,--,--,30,--,--
REST,,,0.0,00:01:43.930,--,--,0.0,--,--,--,27.466666666666665,--
8,FREESTYLE,4,200.0,00:03:17.805,0:16:29  ,0:15:24  ,78.0,--,--,117,29.0,36
8.1,FREESTYLE,1,50.0,00:00:46.187,0:15:24  ,0:15:24  ,73.0,--,--,27,--,--
8.2,FREESTYLE,1,50.0,00:00:53.500,0:17:50  ,0:17:50  ,85.0,--,--,31,--,--
8.3,FREESTYLE,1,50.0,00:00:49.812,0:16:37  ,0:16:37  ,79.0,--,--,29,--,--
8.4,FREESTYLE,1,50.0,00:00:48.312,0:16:07  ,0:16:07  ,78.0,--,--,30,--,--
REST,,,0.0,00:04:44.570,--,--,0.0,--,--,--,27.88888888888889,--
9,BREASTSTROKE,1,50.0,00:00:55.398,0:18:28  ,0:18:29  ,87.0,--,--,32,32.0,13
9.1,BREASTSTROKE,1,50.0,00:00:55.437,0:18:29  ,0:18:29  ,87.0,--,--,32,--,--
REST,,,0.0,00:03:11.539,--,--,0.0,--,--,--,28.105263157894736,--
10,FREESTYLE,1,50.0,00:00:48.367,0:07:53  ,0:07:53  ,36.0,--,--,12,12.0,10
10.1,FREESTYLE,1,50.0,00:00:23.687,0:07:53  ,0:07:53  ,36.0,--,--,12,--,--
Summary,,20,1000.0,01:21:26.133,0:15:46  ,0:07:53  ,74.0,--,--,546,27.299999237060547,188
