Split,Swim Stroke,Lengths,Distance,Time,Avg Pace,Best Pace,Avg SWOLF,Avg Power,Max Power,Total Strokes,Avg Strokes,Calories
1,FREESTYLE,4,100.0,00:01:24.359,0:13:59  ,0:12:57  ,31.0,--,--,43,10.0,20
1.1,FREESTYLE,1,25.0,00:00:19.437,0:12:57  ,0:12:57  ,29.0,--,--,10,--,--
1.2,FREESTYLE,1,25.0,00:00:21.687,0:14:28  ,0:14:28  ,33.0,--,--,11,--,--
1.3,FREESTYLE,1,25.0,00:00:22.437,0:14:57  ,0:14:57  ,33.0,--,--,11,--,--
1.4,FREESTYLE,1,25.0,00:00:20.437,0:13:37  ,0:13:37  ,31.0,--,--,11,--,--
REST,,,0.0,00:01:33.70,--,--,0.0,--,--,--,10.6,--
2,MIXED,2,50.0,00:00:48.414,0:16:07  ,0:13:45  ,33.0,--,--,19,9.0,10
2.1,FREESTYLE,1,25.0,00:00:20.625,0:13:45  ,0:13:45  ,31.0,--,--,10,--,--
2.2,BACKSTROKE,1,25.0,00:00:27.750,0:18:31  ,0:18:31  ,37.0,--,--,9,--,--
REST,,,0.0,00:05:25.711,--,--,0.0,--,--,--,10.285714285714286,--
3,FREESTYLE,4,100.0,00:01:23.63,0:13:50  ,0:12:40  ,31.0,--,--,42,10.0,20
3.1,FREESTYLE,1,25.0,00:00:21.562,0:14:22  ,0:14:22  ,32.0,--,--,10,--,--
3.2,FREESTYLE,1,25.0,00:00:20.500,0:13:40  ,0:13:40  ,32.0,--,--,11,--,--
3.3,FREESTYLE,1,25.0,00:00:22.00,0:14:40  ,0:14:40  ,33.0,--,--,11,--,--
3.4,FREESTYLE,1,25.0,00:00:19.00,0:12:40  ,0:12:40  ,29.0,--,--,10,--,--
REST,,,0.0,00:03:36.250,--,--,0.0,--,--,--,10.272727272727273,--
4,FREESTYLE,2,50.0,00:00:42.117,0:14:02  ,0:13:45  ,31.0,--,--,21,10.0,10
4.1,FREESTYLE,1,25.0,00:00:20.625,0:13:45  ,0:13:45  ,30.0,--,--,9,--,--
4.2,FREESTYLE,1,25.0,00:00:21.500,0:14:20  ,0:14:20  ,34.0,--,--,12,--,--
REST,,,0.0,00:00:16.883,--,--,0.0,--,--,--,10.384615384615385,--
5,FREESTYLE,2,50.0,00:00:40.883,0:13:37  ,0:12:33  ,30.0,--,--,20,10.0,10
5.1,FREESTYLE,1,25.0,00:00:22.62,0:14:42  ,0:14:42  ,32.0,--,--,10,--,--
5.2,FREESTYLE,1,25.0,00:00:18.812,0:12:33  ,0:12:33  ,29.0,--,--,10,--,--
REST,,,0.0,00:03:43.492,--,--,0.0,--,--,--,10.357142857142858,--
6,DRILL,1,25.0,00:00:29.797,--,--,0.0,--,--,--,9.666666666666666,--
6.1,DRILL,1,25.0,00:00:29.797,--,--,--,--,--,0,--,--
REST,,,0.0,00:03:49.828,--,--,0.0,--,--,--,9.666666666666666,--
7,BUTTERFLY,1,25.0,00:00:16.500,0:11:02  ,0:11:02  ,23.0,--,--,6,6.0,7
7.1,BUTTERFLY,1,25.0,00:00:16.562,0:11:02  ,0:11:02  ,23.0,--,--,6,--,--
REST,,,0.0,00:00:01.563,--,--,0.0,--,--,--,9.4375,--
REST,,,0.0,00:00:01.609,--,--,0.0,--,--,--,9.4375,--
Summary,,16,400.0,00:24:13.711,0:14:00  ,0:11:02  ,31.0,--,--,151,10.0,77
