Split,Swim Stroke,Lengths,Distance,Time,Avg Pace,Best Pace,Avg SWOLF,Avg Power,Max Power,Total Strokes,Avg Strokes,Calories
1,FREESTYLE,2,100.0,00:01:40.250,0:16:36  ,0:15:26  ,77.0,--,--,55,27.0,18
1.1,FREESTYLE,1,50.0,00:00:46.312,0:15:26  ,0:15:26  ,72.0,--,--,26,--,--
1.2,FREESTYLE,1,50.0,00:00:53.312,0:17:47  ,0:17:47  ,82.0,--,--,29,--,--
REST,,,0.0,00:00:51.984,--,--,0.0,--,--,--,28.0,--
2,FREESTYLE,4,200.0,00:03:35.297,0:17:56  ,0:16:59  ,83.0,--,--,118,29.0,36
2.1,FREESTYLE,1,50.0,00:00:50.937,0:16:59  ,0:16:59  ,80.0,--,--,29,--,--
2.2,FREESTYLE,1,50.0,00:00:54.875,0:18:17  ,0:18:17  ,85.0,--,--,30,--,--
2.3,FREESTYLE,1,50.0,00:00:53.500,0:17:50  ,0:17:50  ,83.0,--,--,29,--,--
2.4,FREESTYLE,1,50.0,00:00:56.00,0:18:41  ,0:18:41  ,86.0,--,--,30,--,--
REST,,,0.0,00:00:14.953,--,--,0.0,--,--,--,28.714285714285715,--
REST,,,0.0,00:00:01.22,--,--,0.0,--,--,--,28.714285714285715,--
REST,,,0.0,00:02:35.539,--,--,0.0,--,--,--,28.714285714285715,--
3,FREESTYLE,4,200.0,00:03:36.203,0:18:01  ,0:16:45  ,83.0,--,--,118,29.0,36
3.1,FREESTYLE,1,50.0,00:00:50.250,0:16:45  ,0:16:45  ,78.0,--,--,28,--,--
3.2,FREESTYLE,1,50.0,00:00:55.00,0:18:20  ,0:18:20  ,85.0,--,--,30,--,--
3.3,FREESTYLE,1,50.0,00:00:56.187,0:18:44  ,0:18:44  ,86.0,--,--,30,--,--
3.4,FREESTYLE,1,50.0,00:00:54.812,0:18:16  ,0:18:16  ,85.0,--,--,30,--,--
REST,,,0.0,00:03:10.922,--,--,0.0,--,--,--,28.90909090909091,--
4,FREESTYLE,8,400.0,00:07:35.375,0:18:58  ,0:16:35  ,87.0,--,--,248,31.0,72
4.1,FREESTYLE,1,50.0,00:00:49.750,0:16:35  ,0:16:35  ,77.0,--,--,27,--,--
4.2,FREESTYLE,1,50.0,00:00:58.00,0:19:20  ,0:19:20  ,90.0,--,--,32,--,--
4.3,FREESTYLE,1,50.0,00:00:56.937,0:18:58  ,0:18:58  ,88.0,--,--,31,--,--
4.4,FREESTYLE,1,50.0,00:00:57.500,0:19:10  ,0:19:10  ,89.0,--,--,31,--,--
4.5,FREESTYLE,1,50.0,00:00:59.687,0:19:54  ,0:19:54  ,93.0,--,--,33,--,--
4.6,FREESTYLE,1,50.0,00:00:57.312,0:19:06  ,0:19:06  ,88.0,--,--,31,--,--
4.7,FREESTYLE,1,50.0,00:00:59.375,0:19:47  ,0:19:47  ,91.0,--,--,32,--,--
4.8,FREESTYLE,1,50.0,00:00:56.875,0:18:57  ,0:18:57  ,88.0,--,--,31,--,--
REST,,,0.0,00:03:11.125,--,--,0.0,--,--,--,29.894736842105264,--
5,FREESTYLE,4,200.0,00:03:34.352,0:17:51  ,0:17:27  ,83.0,--,--,120,30.0,36
5.1,FREESTYLE,1,50.0,00:00:52.312,0:17:27  ,0:17:27  ,81.0,--,--,29,--,--
5.2,FREESTYLE,1,50.0,00:00:54.375,0:18:08  ,0:18:08  ,85.0,--,--,31,--,--
5.3,FREESTYLE,1,50.0,00:00:54.562,0:18:11  ,0:18:11  ,85.0,--,--,30,--,--
5.4,FREESTYLE,1,50.0,00:00:53.125,0:17:42  ,0:17:42  ,83.0,--,--,30,--,--
REST,,,0.0,00:02:08.773,--,--,0.0,--,--,--,29.956521739130434,--
6,FREESTYLE,4,200.0,00:03:51.141,0:19:16  ,0:18:47  ,89.0,--,--,126,31.0,36
6.1,FREESTYLE,1,50.0,00:00:56.312,0:18:47  ,0:18:47  ,86.0,--,--,30,--,--
6.2,FREESTYLE,1,50.0,00:00:56.875,0:18:57  ,0:18:57  ,89.0,--,--,32,--,--
6.3,FREESTYLE,1,50.0,00:00:57.312,0:19:06  ,0:19:06  ,88.0,--,--,31,--,--
6.4,FREESTYLE,1,50.0,00:01:00.625,0:20:13  ,0:20:13  ,94.0,--,--,33,--,--
REST,,,0.0,00:03:54.734,--,--,0.0,--,--,--,30.185185185185187,--
7,FREESTYLE,4,200.0,00:03:37.992,0:18:10  ,0:17:22  ,85.0,--,--,124,31.0,36
7.1,FREESTYLE,1,50.0,00:00:52.125,0:17:22  ,0:17:22  ,82.0,--,--,30,--,--
7.2,FREESTYLE,1,50.0,00:00:52.250,0:17:26  ,0:17:26  ,82.0,--,--,30,--,--
7.3,FREESTYLE,1,50.0,00:00:58.750,0:19:35  ,0:19:35  ,92.0,--,--,33,--,--
7.4,FREESTYLE,1,50.0,00:00:54.937,0:18:18  ,0:18:18  ,86.0,--,--,31,--,--
Summary,,30,1500.0,00:43:39.961,0:18:20  ,0:15:26  ,85.0,--,--,909,30.299999237060547,270
