Split,Swim Stroke,Lengths,Distance,Time,Avg Pace,Best Pace,Avg SWOLF,Avg Power,Max Power,Total Strokes,Avg Strokes,Calories
REST,,,400.0,00:10:00.00,0:24:59  ,--,--,--,--,--,--,108
Summary,,0,400.0,00:10:00.00,0:25:00  ,--,--,--,--,--,--,108
