Split,Swim Stroke,Lengths,Distance,Time,Avg Pace,Best Pace,Avg SWOLF,Avg Power,Max Power,Total Strokes,Avg Strokes,Calories
1,FREESTYLE,8,400.0,00:06:55.719,0:17:18  ,0:16:03  ,81.0,--,--,236,29.0,72
1.1,FREESTYLE,1,50.0,00:00:48.125,0:16:03  ,0:16:03  ,75.0,--,--,27,--,--
1.2,FREESTYLE,1,50.0,00:00:52.125,0:17:22  ,0:17:22  ,80.0,--,--,28,--,--
1.3,FREESTYLE,1,50.0,00:00:54.562,0:18:11  ,0:18:11  ,86.0,--,--,31,--,--
1.4,FREESTYLE,1,50.0,00:00:54.00,0:18:01  ,0:18:01  ,85.0,--,--,31,--,--
1.5,FREESTYLE,1,50.0,00:00:54.62,0:18:02  ,0:18:02  ,85.0,--,--,31,--,--
1.6,FREESTYLE,1,50.0,00:00:53.437,0:17:49  ,0:17:49  ,82.0,--,--,29,--,--
1.7,FREESTYLE,1,50.0,00:00:49.937,0:16:39  ,0:16:39  ,79.0,--,--,29,--,--
1.8,FREESTYLE,1,50.0,00:00:48.937,0:16:19  ,0:16:19  ,79.0,--,--,30,--,--
REST,,,0.0,00:01:05.586,--,--,0.0,--,--,--,29.333333333333332,--
2,FREESTYLE,4,200.0,00:03:36.992,0:18:05  ,0:17:32  ,83.0,--,--,116,29.0,36
2.1,FREESTYLE,1,50.0,00:00:52.750,0:17:35  ,0:17:35  ,81.0,--,--,28,--,--
2.2,FREESTYLE,1,50.0,00:00:57.312,0:19:06  ,0:19:06  ,87.0,--,--,30,--,--
2.3,FREESTYLE,1,50.0,00:00:54.375,0:18:08  ,0:18:08  ,83.0,--,--,29,--,--
2.4,FREESTYLE,1,50.0,00:00:52.625,0:17:32  ,0:17:32  ,82.0,--,--,29,--,--
REST,,,0.0,00:01:43.258,--,--,0.0,--,--,--,29.153846153846153,--
3,FREESTYLE,4,200.0,00:03:28.883,0:17:24  ,0:16:29  ,80.0,--,--,114,28.0,36
3.1,FREESTYLE,1,50.0,00:00:49.437,0:16:29  ,0:16:29  ,76.0,--,--,27,--,--
3.2,FREESTYLE,1,50.0,00:00:56.375,0:18:48  ,0:18:48  ,86.0,--,--,30,--,--
3.3,FREESTYLE,1,50.0,00:00:50.937,0:16:59  ,0:16:59  ,79.0,--,--,28,--,--
3.4,FREESTYLE,1,50.0,00:00:52.187,0:17:23  ,0:17:23  ,81.0,--,--,29,--,--
REST,,,0.0,00:01:35.617,--,--,0.0,--,--,--,29.058823529411764,--
4,FREESTYLE,4,200.0,00:03:28.609,0:17:22  ,0:16:52  ,81.0,--,--,115,28.0,36
4.1,FREESTYLE,1,50.0,00:00:51.375,0:17:07  ,0:17:07  ,79.0,--,--,28,--,--
4.2,FREESTYLE,1,50.0,00:00:53.375,0:17:48  ,0:17:48  ,83.0,--,--,30,--,--
4.3,FREESTYLE,1,50.0,00:00:50.562,0:16:52  ,0:16:52  ,79.0,--,--,28,--,--
4.4,FREESTYLE,1,50.0,00:00:53.312,0:17:47  ,0:17:47  ,82.0,--,--,29,--,--
REST,,,0.0,00:02:20.16,--,--,0.0,--,--,--,29.05,--
5,BUTTERFLY,1,50.0,00:00:50.695,0:16:54  ,0:16:54  ,76.0,--,--,25,25.0,10
5.1,BUTTERFLY,1,50.0,00:00:50.687,0:16:54  ,0:16:54  ,76.0,--,--,25,--,--
REST,,,0.0,00:00:16.430,--,--,0.0,--,--,--,28.857142857142858,--
6,BACKSTROKE,1,50.0,00:01:03.648,0:21:12  ,0:21:13  ,88.0,--,--,24,24.0,11
6.1,BACKSTROKE,1,50.0,00:01:03.625,0:21:13  ,0:21:13  ,88.0,--,--,24,--,--
REST,,,0.0,00:00:52.977,--,--,0.0,--,--,--,28.565217391304348,--
7,FREESTYLE,4,200.0,00:03:30.352,0:17:31  ,0:16:30  ,81.0,--,--,116,29.0,36
7.1,FREESTYLE,1,50.0,00:00:49.500,0:16:30  ,0:16:30  ,77.0,--,--,27,--,--
7.2,FREESTYLE,1,50.0,00:00:55.562,0:18:32  ,0:18:32  ,86.0,--,--,30,--,--
7.3,FREESTYLE,1,50.0,00:00:53.687,0:17:54  ,0:17:54  ,84.0,--,--,30,--,--
7.4,FREESTYLE,1,50.0,00:00:51.625,0:17:13  ,0:17:13  ,81.0,--,--,29,--,--
REST,,,0.0,00:02:44.773,--,--,0.0,--,--,--,28.666666666666668,--
8,FREESTYLE,4,200.0,00:03:28.156,0:17:20  ,0:16:55  ,80.0,--,--,114,28.0,36
8.1,FREESTYLE,1,50.0,00:00:50.750,0:16:55  ,0:16:55  ,79.0,--,--,28,--,--
8.2,FREESTYLE,1,50.0,00:00:51.812,0:17:16  ,0:17:16  ,80.0,--,--,28,--,--
8.3,FREESTYLE,1,50.0,00:00:52.187,0:17:23  ,0:17:23  ,81.0,--,--,29,--,--
8.4,FREESTYLE,1,50.0,00:00:53.375,0:17:48  ,0:17:48  ,82.0,--,--,29,--,--
REST,,,0.0,00:03:07.719,--,--,0.0,--,--,--,28.666666666666668,--
9,BUTTERFLY,1,50.0,00:00:53.383,0:17:47  ,0:17:48  ,80.0,--,--,27,27.0,9
9.1,BUTTERFLY,1,50.0,00:00:53.375,0:17:48  ,0:17:48  ,80.0,--,--,27,--,--
REST,,,0.0,00:00:07.742,--,--,0.0,--,--,--,28.612903225806452,--
10,FREESTYLE,1,50.0,00:00:50.133,0:16:44  ,0:16:44  ,77.0,--,--,27,27.0,9
10.1,FREESTYLE,1,50.0,00:00:50.187,0:16:44  ,0:16:44  ,77.0,--,--,27,--,--
Summary,,32,1600.0,00:42:00.891,0:17:33  ,0:16:03  ,81.0,--,--,914,28.5,291
