Split,Swim Stroke,Lengths,Distance,Time,Avg Pace,Best Pace,Avg SWOLF,Avg Power,Max Power,Total Strokes,Avg Strokes,Calories
1,FREESTYLE,2,100.0,00:01:41.617,0:16:52  ,0:15:58  ,79.0,--,--,56,28.0,18
1.1,FREESTYLE,1,50.0,00:00:47.937,0:15:58  ,0:15:58  ,75.0,--,--,27,--,--
1.2,FREESTYLE,1,50.0,00:00:53.312,0:17:47  ,0:17:47  ,82.0,--,--,29,--,--
REST,,,0.0,00:00:02.773,--,--,--,--,--,--,--,--
REST,,,0.0,00:02:00.766,--,--,--,--,--,--,--,--
2,FREESTYLE,2,100.0,00:01:45.195,0:17:31  ,0:17:23  ,98.0,--,--,57,33.5,18
2.1,FREESTYLE,1,50.0,00:00:52.187,0:17:23  ,0:17:23  ,80.0,--,--,28,--,--
2.2,FREESTYLE,1,50.0,00:00:53.00,0:17:40  ,0:17:40  ,82.0,--,--,29,--,--
REST,,,0.0,00:00:12.805,--,--,--,--,--,--,--,--
3,BREASTSTROKE,2,100.0,00:02:24.648,0:24:07  ,0:23:03  ,93.0,--,--,73,32.0,41
3.1,BREASTSTROKE,1,50.0,00:01:15.500,0:25:10  ,0:25:10  ,114.0,--,--,38,--,--
3.2,BREASTSTROKE,1,50.0,00:01:09.125,0:23:03  ,0:23:03  ,104.0,--,--,35,--,--
REST,,,0.0,00:01:05.414,--,--,--,--,--,--,--,--
4,MIXED,3,100.0,00:02:25.172,0:17:54  ,0:17:21  ,85.0,--,--,59,30.0,27
4.1,FREESTYLE,1,50.0,00:00:52.62,0:17:21  ,0:17:21  ,81.0,--,--,29,--,--
4.2,FREESTYLE,1,50.0,00:00:55.375,0:18:28  ,0:18:28  ,85.0,--,--,30,--,--
4.3,--,1,--,00:00:37.812,--,--,--,--,--,--,--,--
REST,,,0.0,00:00:52.453,--,--,--,--,--,--,--,--
REST,,,0.0,00:00:00.977,--,--,--,--,--,--,--,--
Summary,,9,400.0,00:12:32.00,0:19:06  ,0:15:58  ,88.0,--,--,245,30.625,104
