Split,Swim Stroke,Lengths,Distance,Time,Avg Pace,Best Pace,Avg SWOLF,Avg Power,Max Power,Total Strokes,Avg Strokes,Calories
1,FREESTYLE,8,200.0,00:03:22.445,0:16:50  ,0:15:00  ,37.0,--,--,100,12.0,40
1.1,FREESTYLE,1,25.0,00:00:22.500,0:15:00  ,0:15:00  ,34.0,--,--,11,--,--
1.2,FREESTYLE,1,25.0,00:00:24.562,0:16:23  ,0:16:23  ,37.0,--,--,12,--,--
1.3,FREESTYLE,1,25.0,00:00:26.250,0:17:30  ,0:17:30  ,39.0,--,--,13,--,--
1.4,FREESTYLE,1,25.0,00:00:24.500,0:16:20  ,0:16:20  ,37.0,--,--,12,--,--
1.5,FREESTYLE,1,25.0,00:00:28.125,0:18:46  ,0:18:46  ,42.0,--,--,14,--,--
1.6,FREESTYLE,1,25.0,00:00:23.875,0:15:55  ,0:15:55  ,36.0,--,--,12,--,--
1.7,FREESTYLE,1,25.0,00:00:26.62,0:17:22  ,0:17:22  ,39.0,--,--,13,--,--
1.8,FREESTYLE,1,25.0,00:00:26.125,0:17:26  ,0:17:26  ,39.0,--,--,13,--,--
REST,,,0.0,00:01:01.78,--,--,0.0,--,--,--,12.444444444444445,--
2,BREASTSTROKE,4,100.0,00:01:57.742,0:19:37  ,0:18:03  ,41.0,--,--,49,12.0,28
2.1,BREASTSTROKE,1,25.0,00:00:29.625,0:19:46  ,0:19:46  ,42.0,--,--,12,--,--
2.2,BREASTSTROKE,1,25.0,00:00:30.750,0:20:30  ,0:20:30  ,43.0,--,--,12,--,--
2.3,BREASTSTROKE,1,25.0,00:00:30.312,0:20:13  ,0:20:13  ,43.0,--,--,13,--,--
2.4,BREASTSTROKE,1,25.0,00:00:27.62,0:18:03  ,0:18:03  ,39.0,--,--,12,--,--
REST,,,0.0,00:00:53.508,--,--,0.0,--,--,--,12.307692307692308,--
3,FREESTYLE,8,200.0,00:03:26.492,0:17:11  ,0:16:10  ,38.0,--,--,102,12.0,40
3.1,FREESTYLE,1,25.0,00:00:24.250,0:16:10  ,0:16:10  ,35.0,--,--,11,--,--
3.2,FREESTYLE,1,25.0,00:00:28.375,0:18:55  ,0:18:55  ,42.0,--,--,14,--,--
3.3,FREESTYLE,1,25.0,00:00:26.187,0:17:28  ,0:17:28  ,39.0,--,--,13,--,--
3.4,FREESTYLE,1,25.0,00:00:24.687,0:16:28  ,0:16:28  ,37.0,--,--,12,--,--
3.5,FREESTYLE,1,25.0,00:00:26.562,0:17:42  ,0:17:42  ,40.0,--,--,13,--,--
3.6,FREESTYLE,1,25.0,00:00:25.812,0:17:13  ,0:17:13  ,39.0,--,--,13,--,--
3.7,FREESTYLE,1,25.0,00:00:25.687,0:17:07  ,0:17:07  ,39.0,--,--,13,--,--
3.8,FREESTYLE,1,25.0,00:00:24.937,0:16:38  ,0:16:38  ,38.0,--,--,13,--,--
REST,,,0.0,00:02:42.383,--,--,0.0,--,--,--,12.476190476190476,--
4,FREESTYLE,4,100.0,00:01:36.352,0:16:03  ,0:15:13  ,35.0,--,--,45,11.0,20
4.1,FREESTYLE,1,25.0,00:00:22.812,0:15:13  ,0:15:13  ,34.0,--,--,11,--,--
4.2,FREESTYLE,1,25.0,00:00:25.437,0:16:58  ,0:16:58  ,36.0,--,--,11,--,--
4.3,FREESTYLE,1,25.0,00:00:24.562,0:16:23  ,0:16:23  ,37.0,--,--,12,--,--
4.4,FREESTYLE,1,25.0,00:00:23.562,0:15:42  ,0:15:42  ,35.0,--,--,11,--,--
REST,,,0.0,00:02:22.523,--,--,0.0,--,--,--,12.32,--
5,FREESTYLE,4,100.0,00:01:38.797,0:16:29  ,0:14:25  ,37.0,--,--,51,12.0,20
5.1,FREESTYLE,1,25.0,00:00:23.687,0:15:47  ,0:15:47  ,36.0,--,--,12,--,--
5.2,FREESTYLE,1,25.0,00:00:24.812,0:16:33  ,0:16:33  ,37.0,--,--,12,--,--
5.3,FREESTYLE,1,25.0,00:00:28.750,0:19:10  ,0:19:10  ,44.0,--,--,15,--,--
5.4,FREESTYLE,1,25.0,00:00:21.625,0:14:25  ,0:14:25  ,34.0,--,--,12,--,--
REST,,,0.0,00:02:09.515,--,--,0.0,--,--,--,12.379310344827585,--
6,FREESTYLE,8,200.0,00:03:17.703,0:16:29  ,0:15:00  ,38.0,--,--,110,13.0,40
6.1,FREESTYLE,1,25.0,00:00:22.500,0:15:00  ,0:15:00  ,35.0,--,--,12,--,--
6.2,FREESTYLE,1,25.0,00:00:25.375,0:16:55  ,0:16:55  ,39.0,--,--,14,--,--
6.3,FREESTYLE,1,25.0,00:00:24.812,0:16:33  ,0:16:33  ,39.0,--,--,14,--,--
6.4,FREESTYLE,1,25.0,00:00:24.562,0:16:23  ,0:16:23  ,39.0,--,--,14,--,--
6.5,FREESTYLE,1,25.0,00:00:23.500,0:15:40  ,0:15:40  ,37.0,--,--,13,--,--
6.6,FREESTYLE,1,25.0,00:00:25.375,0:16:55  ,0:16:55  ,39.0,--,--,14,--,--
6.7,FREESTYLE,1,25.0,00:00:26.00,0:17:20  ,0:17:20  ,40.0,--,--,14,--,--
6.8,FREESTYLE,1,25.0,00:00:25.625,0:17:05  ,0:17:05  ,41.0,--,--,15,--,--
REST,,,0.0,00:01:54.47,--,--,0.0,--,--,--,12.675675675675675,--
7,FREESTYLE,4,100.0,00:01:38.219,0:16:22  ,0:14:45  ,37.0,--,--,51,12.0,20
7.1,FREESTYLE,1,25.0,00:00:23.375,0:15:35  ,0:15:35  ,35.0,--,--,12,--,--
7.2,FREESTYLE,1,25.0,00:00:25.375,0:16:55  ,0:16:55  ,38.0,--,--,13,--,--
7.3,FREESTYLE,1,25.0,00:00:27.375,0:18:15  ,0:18:15  ,41.0,--,--,14,--,--
7.4,FREESTYLE,1,25.0,00:00:22.125,0:14:45  ,0:14:45  ,34.0,--,--,12,--,--
REST,,,0.0,00:02:29.844,--,--,0.0,--,--,--,12.731707317073171,--
8,BUTTERFLY,2,50.0,00:00:51.883,0:17:18  ,0:15:15  ,38.0,--,--,24,12.0,10
8.1,BUTTERFLY,1,25.0,00:00:29.62,0:19:22  ,0:19:22  ,43.0,--,--,14,--,--
8.2,BUTTERFLY,1,25.0,00:00:22.875,0:15:15  ,0:15:15  ,33.0,--,--,10,--,--
REST,,,0.0,00:04:04.930,--,--,0.0,--,--,--,12.666666666666666,--
9,BUTTERFLY,1,25.0,00:00:23.641,0:15:47  ,0:15:47  ,35.0,--,--,11,11.0,6
9.1,BUTTERFLY,1,25.0,00:00:23.687,0:15:47  ,0:15:47  ,35.0,--,--,11,--,--
REST,,,0.0,00:00:49.422,--,--,0.0,--,--,--,12.627906976744185,--
10,BUTTERFLY,1,25.0,00:00:24.141,0:16:07  ,0:16:08  ,34.0,--,--,10,10.0,5
10.1,BUTTERFLY,1,25.0,00:00:24.187,0:16:08  ,0:16:08  ,34.0,--,--,10,--,--
REST,,,0.0,00:02:05.234,--,--,0.0,--,--,--,12.511111111111111,--
11,BUTTERFLY,2,50.0,00:00:49.922,0:16:40  ,0:15:53  ,36.0,--,--,22,11.0,11
11.1,BUTTERFLY,1,25.0,00:00:23.812,0:15:53  ,0:15:53  ,34.0,--,--,10,--,--
11.2,BUTTERFLY,1,25.0,00:00:26.187,0:17:28  ,0:17:28  ,38.0,--,--,12,--,--
REST,,,0.0,00:03:41.16,--,--,0.0,--,--,--,12.425531914893616,--
12,BUTTERFLY,2,50.0,00:00:49.375,0:16:27  ,0:14:22  ,34.0,--,--,20,10.0,11
12.1,BUTTERFLY,1,25.0,00:00:21.562,0:14:22  ,0:14:22  ,31.0,--,--,9,--,--
12.2,BUTTERFLY,1,25.0,00:00:27.812,0:18:33  ,0:18:33  ,39.0,--,--,11,--,--
REST,,,0.0,00:02:15.875,--,--,0.0,--,--,--,12.36734693877551,--
13,BUTTERFLY,2,50.0,00:00:49.906,0:16:40  ,0:15:22  ,36.0,--,--,22,11.0,11
13.1,BUTTERFLY,1,25.0,00:00:23.62,0:15:22  ,0:15:22  ,34.0,--,--,11,--,--
13.2,BUTTERFLY,1,25.0,00:00:26.937,0:17:57  ,0:17:57  ,38.0,--,--,11,--,--
REST,,,0.0,00:01:32.656,--,--,0.0,--,--,--,12.313725490196079,--
14,BUTTERFLY,2,50.0,00:00:53.273,0:17:44  ,0:17:26  ,37.0,--,--,22,11.0,10
14.1,BUTTERFLY,1,25.0,00:00:26.125,0:17:26  ,0:17:26  ,37.0,--,--,11,--,--
14.2,BUTTERFLY,1,25.0,00:00:27.125,0:18:05  ,0:18:05  ,38.0,--,--,11,--,--
REST,,,0.0,00:02:03.664,--,--,0.0,--,--,--,11.618181818181819,--
15,DRILL,4,100.0,00:02:15.930,--,--,0.0,--,--,--,11.210526315789474,--
15.1,DRILL,1,25.0,00:00:33.982,--,--,--,--,--,0,--,--
15.2,DRILL,1,25.0,00:00:33.982,--,--,--,--,--,0,--,--
15.3,DRILL,1,25.0,00:00:33.982,--,--,--,--,--,0,--,--
15.4,DRILL,1,25.0,00:00:33.982,--,--,--,--,--,0,--,--
REST,,,0.0,00:00:44.320,--,--,0.0,--,--,--,11.210526315789474,--
16,DRILL,2,50.0,00:00:57.08,--,--,0.0,--,--,--,10.830508474576272,--
16.1,DRILL,1,25.0,00:00:28.504,--,--,--,--,--,0,--,--
16.2,DRILL,1,25.0,00:00:28.504,--,--,--,--,--,0,--,--
REST,,,0.0,00:01:37.180,--,--,0.0,--,--,--,10.830508474576272,--
17,DRILL,2,50.0,00:01:04.664,--,--,0.0,--,--,--,10.306451612903226,--
17.1,DRILL,1,25.0,00:00:32.332,--,--,--,--,--,0,--,--
17.2,DRILL,1,25.0,00:00:32.332,--,--,--,--,--,0,--,--
REST,,,0.0,00:02:19.586,--,--,0.0,--,--,--,10.306451612903226,--
18,DRILL,3,75.0,00:02:31.508,--,--,0.0,--,--,--,10.171875,--
18.1,DRILL,1,25.0,00:00:50.502,--,--,--,--,--,0,--,--
18.2,DRILL,1,25.0,00:00:50.502,--,--,--,--,--,0,--,--
18.3,DRILL,1,25.0,00:00:50.502,--,--,--,--,--,0,--,--
REST,,,0.0,00:01:00.555,--,--,0.0,--,--,--,10.171875,--
19,FREESTYLE,8,200.0,00:03:18.820,0:16:34  ,0:15:10  ,37.0,--,--,103,12.0,40
19.1,FREESTYLE,1,25.0,00:00:24.687,0:16:28  ,0:16:28  ,37.0,--,--,12,--,--
19.2,FREESTYLE,1,25.0,00:00:25.437,0:16:58  ,0:16:58  ,37.0,--,--,12,--,--
19.3,FREESTYLE,1,25.0,00:00:22.750,0:15:10  ,0:15:10  ,35.0,--,--,12,--,--
19.4,FREESTYLE,1,25.0,00:00:25.750,0:17:10  ,0:17:10  ,39.0,--,--,13,--,--
19.5,FREESTYLE,1,25.0,00:00:25.500,0:17:00  ,0:17:00  ,39.0,--,--,13,--,--
19.6,FREESTYLE,1,25.0,00:00:24.625,0:16:25  ,0:16:25  ,38.0,--,--,13,--,--
19.7,FREESTYLE,1,25.0,00:00:27.312,0:18:12  ,0:18:12  ,42.0,--,--,15,--,--
19.8,FREESTYLE,1,25.0,00:00:22.750,0:15:10  ,0:15:10  ,36.0,--,--,13,--,--
REST,,,0.0,00:01:41.680,--,--,0.0,--,--,--,10.48611111111111,--
20,FREESTYLE,4,100.0,00:01:39.117,0:16:32  ,0:15:30  ,37.0,--,--,51,12.0,20
20.1,FREESTYLE,1,25.0,00:00:24.562,0:16:23  ,0:16:23  ,38.0,--,--,13,--,--
20.2,FREESTYLE,1,25.0,00:00:25.562,0:17:02  ,0:17:02  ,39.0,--,--,13,--,--
20.3,FREESTYLE,1,25.0,00:00:25.812,0:17:13  ,0:17:13  ,39.0,--,--,13,--,--
20.4,FREESTYLE,1,25.0,00:00:23.250,0:15:30  ,0:15:30  ,35.0,--,--,12,--,--
REST,,,0.0,00:01:17.883,--,--,0.0,--,--,--,10.592105263157896,--
21,FREESTYLE,4,100.0,00:01:30.133,0:15:00  ,0:14:15  ,35.0,--,--,52,13.0,20
21.1,FREESTYLE,1,25.0,00:00:23.125,0:15:25  ,0:15:25  ,35.0,--,--,12,--,--
21.2,FREESTYLE,1,25.0,00:00:23.687,0:15:47  ,0:15:47  ,38.0,--,--,14,--,--
21.3,FREESTYLE,1,25.0,00:00:21.937,0:14:37  ,0:14:37  ,35.0,--,--,13,--,--
21.4,FREESTYLE,1,25.0,00:00:21.375,0:14:15  ,0:14:15  ,34.0,--,--,13,--,--
Summary,,79,1975.0,01:14:04.563,0:16:45  ,0:14:15  ,37.0,--,--,845,12.399999618530273,352
