Split,Swim Stroke,Lengths,Distance,Time,Avg Pace,Best Pace,Avg SWOLF,Avg Power,Max Power,Total Strokes,Avg Strokes,Calories
1,FREESTYLE,20,1000.0,00:18:51.180,0:18:51  ,0:16:04  ,86.0,--,--,606,30.0,180
1.1,FREESTYLE,1,50.0,00:00:50.00,0:16:40  ,0:16:40  ,77.0,--,--,27,--,--
1.2,FREESTYLE,1,50.0,00:00:59.187,0:19:44  ,0:19:44  ,90.0,--,--,31,--,--
1.3,FREESTYLE,1,50.0,00:00:56.625,0:18:52  ,0:18:52  ,86.0,--,--,29,--,--
1.4,FREESTYLE,1,50.0,00:00:56.937,0:18:58  ,0:18:58  ,87.0,--,--,30,--,--
1.5,FREESTYLE,1,50.0,00:00:58.375,0:19:28  ,0:19:28  ,88.0,--,--,30,--,--
1.6,FREESTYLE,1,50.0,00:00:54.437,0:18:09  ,0:18:09  ,83.0,--,--,29,--,--
1.7,FREESTYLE,1,50.0,00:00:58.562,0:19:32  ,0:19:32  ,91.0,--,--,32,--,--
1.8,FREESTYLE,1,50.0,00:00:56.687,0:18:53  ,0:18:53  ,87.0,--,--,30,--,--
1.9,FREESTYLE,1,50.0,00:00:56.937,0:18:58  ,0:18:58  ,87.0,--,--,30,--,--
1.10,FREESTYLE,1,50.0,00:01:00.312,0:20:06  ,0:20:06  ,92.0,--,--,32,--,--
1.11,FREESTYLE,1,50.0,00:00:57.812,0:19:17  ,0:19:17  ,89.0,--,--,31,--,--
1.12,FREESTYLE,1,50.0,00:00:56.812,0:18:56  ,0:18:56  ,87.0,--,--,30,--,--
1.13,FREESTYLE,1,50.0,00:00:52.687,0:17:33  ,0:17:33  ,82.0,--,--,29,--,--
1.14,FREESTYLE,1,50.0,00:00:55.937,0:18:39  ,0:18:39  ,87.0,--,--,31,--,--
1.15,FREESTYLE,1,50.0,00:00:54.625,0:18:12  ,0:18:12  ,85.0,--,--,30,--,--
1.16,FREESTYLE,1,50.0,00:01:01.62,0:20:22  ,0:20:22  ,93.0,--,--,32,--,--
1.17,FREESTYLE,1,50.0,00:00:58.250,0:19:25  ,0:19:25  ,90.0,--,--,32,--,--
1.18,FREESTYLE,1,50.0,00:01:00.187,0:20:04  ,0:20:04  ,92.0,--,--,32,--,--
1.19,FREESTYLE,1,50.0,00:00:57.62,0:19:01  ,0:19:01  ,88.0,--,--,31,--,--
1.20,FREESTYLE,1,50.0,00:00:48.187,0:16:04  ,0:16:04  ,76.0,--,--,28,--,--
REST,,,0.0,00:00:13.78,--,--,0.0,--,--,--,30.285714285714285,--
REST,,,0.0,00:00:01.227,--,--,0.0,--,--,--,30.285714285714285,--
REST,,,0.0,00:02:36.898,--,--,0.0,--,--,--,30.285714285714285,--
2,FREESTYLE,4,200.0,00:03:35.00,0:17:55  ,0:17:21  ,83.0,--,--,119,29.0,36
2.1,FREESTYLE,1,50.0,00:00:52.62,0:17:21  ,0:17:21  ,82.0,--,--,30,--,--
2.2,FREESTYLE,1,50.0,00:00:54.750,0:18:15  ,0:18:15  ,85.0,--,--,30,--,--
2.3,FREESTYLE,1,50.0,00:00:52.562,0:17:31  ,0:17:31  ,82.0,--,--,29,--,--
2.4,FREESTYLE,1,50.0,00:00:55.687,0:18:34  ,0:18:34  ,86.0,--,--,30,--,--
REST,,,0.0,00:02:14.625,--,--,0.0,--,--,--,30.16,--
3,FREESTYLE,4,200.0,00:03:37.109,0:18:05  ,0:17:32  ,84.0,--,--,122,30.0,36
3.1,FREESTYLE,1,50.0,00:00:52.625,0:17:32  ,0:17:32  ,82.0,--,--,29,--,--
3.2,FREESTYLE,1,50.0,00:00:54.437,0:18:09  ,0:18:09  ,85.0,--,--,31,--,--
3.3,FREESTYLE,1,50.0,00:00:55.125,0:18:22  ,0:18:22  ,86.0,--,--,31,--,--
3.4,FREESTYLE,1,50.0,00:00:54.937,0:18:18  ,0:18:18  ,86.0,--,--,31,--,--
REST,,,0.0,00:01:35.453,--,--,0.0,--,--,--,30.17241379310345,--
4,FREESTYLE,2,100.0,00:01:33.617,0:15:36  ,0:15:22  ,76.0,--,--,59,29.0,18
4.1,FREESTYLE,1,50.0,00:00:46.125,0:15:22  ,0:15:22  ,74.0,--,--,28,--,--
4.2,FREESTYLE,1,50.0,00:00:47.500,0:15:50  ,0:15:50  ,79.0,--,--,31,--,--
Summary,,30,1500.0,00:34:18.281,0:18:23  ,0:15:22  ,85.0,--,--,906,30.200000762939453,270
