Split,Swim Stroke,Lengths,Distance,Time,Avg Pace,Best Pace,Avg SWOLF,Avg Power,Max Power,Total Strokes,Avg Strokes,Calories
1,FREESTYLE,2,50.0,00:00:42.227,0:13:54  ,0:13:35  ,30.0,--,--,19,9.0,10
1.1,FREESTYLE,1,25.0,00:00:21.375,0:14:15  ,0:14:15  ,31.0,--,--,10,--,--
1.2,FREESTYLE,1,25.0,00:00:20.375,0:13:35  ,0:13:35  ,29.0,--,--,9,--,--
REST,,,0.0,00:01:25.70,--,--,0.0,--,--,--,6.333333333333333,--
2,DRILL,2,50.0,00:00:39.94,--,--,0.0,--,--,--,4.75,--
2.1,DRILL,1,25.0,00:00:19.547,--,--,--,--,--,0,--,--
2.2,DRILL,1,25.0,00:00:19.547,--,--,--,--,--,0,--,--
REST,,,0.0,00:00:40.781,--,--,0.0,--,--,--,4.75,--
3,DRILL,1,25.0,00:00:23.945,--,--,0.0,--,--,--,3.8,--
3.1,DRILL,1,25.0,00:00:23.945,--,--,--,--,--,0,--,--
REST,,,0.0,00:00:30.680,--,--,0.0,--,--,--,3.8,--
4,DRILL,1,25.0,00:00:23.875,--,--,0.0,--,--,--,2.7142857142857144,--
4.1,DRILL,1,25.0,00:00:23.875,--,--,--,--,--,0,--,--
REST,,,0.0,00:01:16.875,--,--,0.0,--,--,--,2.7142857142857144,--
5,DRILL,2,50.0,00:00:52.883,--,--,0.0,--,--,--,2.375,--
5.1,DRILL,1,25.0,00:00:26.441,--,--,--,--,--,0,--,--
5.2,DRILL,1,25.0,00:00:26.441,--,--,--,--,--,0,--,--
REST,,,0.0,00:01:07.305,--,--,0.0,--,--,--,2.375,--
6,DRILL,1,25.0,00:00:22.938,--,--,0.0,--,--,--,2.111111111111111,--
6.1,DRILL,1,25.0,00:00:22.938,--,--,--,--,--,0,--,--
REST,,,0.0,00:00:21.125,--,--,0.0,--,--,--,2.111111111111111,--
7,DRILL,1,25.0,00:00:23.453,--,--,0.0,--,--,--,1.9,--
7.1,DRILL,1,25.0,00:00:23.453,--,--,--,--,--,0,--,--
REST,,,0.0,00:00:40.359,--,--,0.0,--,--,--,1.9,--
8,DRILL,1,25.0,00:00:30.961,--,--,0.0,--,--,--,1.7272727272727273,--
8.1,DRILL,1,25.0,00:00:30.961,--,--,--,--,--,0,--,--
REST,,,0.0,00:00:39.414,--,--,0.0,--,--,--,1.7272727272727273,--
9,DRILL,1,25.0,00:00:29.813,--,--,0.0,--,--,--,1.5833333333333333,--
9.1,DRILL,1,25.0,00:00:29.813,--,--,--,--,--,0,--,--
REST,,,0.0,00:00:53.375,--,--,0.0,--,--,--,1.5833333333333333,--
10,DRILL,1,25.0,00:00:27.102,--,--,0.0,--,--,--,1.4615384615384615,--
10.1,DRILL,1,25.0,00:00:27.102,--,--,--,--,--,0,--,--
REST,,,0.0,00:00:36.336,--,--,0.0,--,--,--,1.4615384615384615,--
11,DRILL,1,25.0,00:00:26.500,--,--,0.0,--,--,--,1.3571428571428572,--
11.1,DRILL,1,25.0,00:00:26.500,--,--,--,--,--,0,--,--
REST,,,0.0,00:02:48.750,--,--,0.0,--,--,--,1.3571428571428572,--
12,DRILL,1,25.0,00:00:30.39,--,--,0.0,--,--,--,1.2666666666666666,--
12.1,DRILL,1,25.0,00:00:30.39,--,--,--,--,--,0,--,--
REST,,,0.0,00:00:36.648,--,--,0.0,--,--,--,1.2666666666666666,--
13,DRILL,1,25.0,00:00:29.859,--,--,0.0,--,--,--,1.7058823529411764,--
13.1,DRILL,1,25.0,00:00:29.859,--,--,--,--,--,0,--,--
REST,,,0.0,00:00:40.578,--,--,0.0,--,--,--,1.7058823529411764,--
14,FREESTYLE,4,100.0,00:01:23.992,0:14:00  ,0:13:40  ,32.0,--,--,46,11.0,20
14.1,FREESTYLE,1,25.0,00:00:20.500,0:13:40  ,0:13:40  ,31.0,--,--,10,--,--
14.2,FREESTYLE,1,25.0,00:00:20.687,0:13:47  ,0:13:47  ,33.0,--,--,12,--,--
14.3,FREESTYLE,1,25.0,00:00:21.312,0:14:12  ,0:14:12  ,32.0,--,--,11,--,--
14.4,FREESTYLE,1,25.0,00:00:21.562,0:14:22  ,0:14:22  ,35.0,--,--,13,--,--
REST,,,0.0,00:02:42.945,--,--,0.0,--,--,--,3.619047619047619,--
15,FREESTYLE,2,50.0,00:00:37.820,0:12:37  ,0:12:18  ,29.0,--,--,21,10.0,10
15.1,FREESTYLE,1,25.0,00:00:19.437,0:12:57  ,0:12:57  ,30.0,--,--,11,--,--
15.2,FREESTYLE,1,25.0,00:00:18.437,0:12:18  ,0:12:18  ,28.0,--,--,10,--,--
REST,,,0.0,00:01:54.117,--,--,0.0,--,--,--,3.909090909090909,--
16,BUTTERFLY,1,25.0,00:00:18.758,0:12:30  ,0:12:30  ,28.0,--,--,9,9.0,7
16.1,BUTTERFLY,1,25.0,00:00:18.750,0:12:30  ,0:12:30  ,28.0,--,--,9,--,--
REST,,,0.0,00:01:36.617,--,--,0.0,--,--,--,4.130434782608695,--
17,BUTTERFLY,1,25.0,00:00:19.633,0:13:07  ,0:13:08  ,29.0,--,--,9,9.0,6
17.1,BUTTERFLY,1,25.0,00:00:19.687,0:13:08  ,0:13:08  ,29.0,--,--,9,--,--
REST,,,0.0,00:06:32.180,--,--,0.0,--,--,--,4.333333333333333,--
REST,,,0.0,00:00:16.891,--,--,0.0,--,--,--,4.333333333333333,--
REST,,,0.0,00:00:18.484,--,--,0.0,--,--,--,4.333333333333333,--
18,DRILL,1,25.0,00:00:59.250,--,--,0.0,--,--,--,4.423076923076923,--
18.1,DRILL,1,25.0,00:00:59.250,--,--,--,--,--,0,--,--
REST,,,0.0,00:00:39.625,--,--,0.0,--,--,--,4.423076923076923,--
19,BACKSTROKE,2,50.0,00:00:52.188,0:17:23  ,0:17:02  ,36.0,--,--,20,10.0,10
19.1,BACKSTROKE,1,25.0,00:00:25.562,0:17:02  ,0:17:02  ,37.0,--,--,11,--,--
19.2,BACKSTROKE,1,25.0,00:00:26.625,0:17:46  ,0:17:46  ,36.0,--,--,9,--,--
REST,,,0.0,00:00:53.500,--,--,0.0,--,--,--,4.785714285714286,--
20,BACKSTROKE,2,50.0,00:00:58.984,0:19:39  ,0:17:40  ,40.0,--,--,21,10.0,11
20.1,BACKSTROKE,1,25.0,00:00:26.500,0:17:40  ,0:17:40  ,37.0,--,--,10,--,--
20.2,BACKSTROKE,1,25.0,00:00:32.436,0:21:38  ,0:21:38  ,43.0,--,--,11,--,--
REST,,,0.0,00:00:56.578,--,--,0.0,--,--,--,4.833333333333333,--
21,DRILL,2,50.0,00:00:54.867,--,--,0.0,--,--,--,4.67741935483871,--
21.1,DRILL,1,25.0,00:00:27.433,--,--,--,--,--,0,--,--
21.2,DRILL,1,25.0,00:00:27.433,--,--,--,--,--,0,--,--
REST,,,0.0,00:01:24.383,--,--,0.0,--,--,--,4.67741935483871,--
22,DRILL,1,25.0,00:00:21.563,--,--,0.0,--,--,--,4.53125,--
22.1,DRILL,1,25.0,00:00:21.563,--,--,--,--,--,0,--,--
REST,,,0.0,00:00:33.625,--,--,0.0,--,--,--,4.53125,--
23,DRILL,1,25.0,00:00:23.180,--,--,0.0,--,--,--,4.393939393939394,--
23.1,DRILL,1,25.0,00:00:23.180,--,--,--,--,--,0,--,--
REST,,,0.0,00:00:30.945,--,--,0.0,--,--,--,4.393939393939394,--
24,BREASTSTROKE,1,25.0,00:00:25.31,0:16:42  ,0:16:43  ,36.0,--,--,11,11.0,7
24.1,BREASTSTROKE,1,25.0,00:00:25.62,0:16:43  ,0:16:43  ,36.0,--,--,11,--,--
REST,,,0.0,00:00:01.492,--,--,0.0,--,--,--,4.588235294117647,--
REST,,,0.0,00:00:39.117,--,--,0.0,--,--,--,4.588235294117647,--
25,BREASTSTROKE,1,25.0,00:00:23.695,0:15:47  ,0:15:47  ,35.0,--,--,11,11.0,7
25.1,BREASTSTROKE,1,25.0,00:00:23.687,0:15:47  ,0:15:47  ,35.0,--,--,11,--,--
REST,,,0.0,00:01:26.617,--,--,0.0,--,--,--,4.771428571428571,--
26,BREASTSTROKE,1,25.0,00:00:23.258,0:15:30  ,0:15:30  ,34.0,--,--,11,11.0,7
26.1,BREASTSTROKE,1,25.0,00:00:23.250,0:15:30  ,0:15:30  ,34.0,--,--,11,--,--
REST,,,0.0,00:00:40.117,--,--,0.0,--,--,--,4.944444444444445,--
27,BREASTSTROKE,1,25.0,00:00:23.883,0:15:55  ,0:15:55  ,35.0,--,--,11,11.0,7
27.1,BREASTSTROKE,1,25.0,00:00:23.875,0:15:55  ,0:15:55  ,35.0,--,--,11,--,--
REST,,,0.0,00:01:23.992,--,--,0.0,--,--,--,5.2368421052631575,--
28,BUTTERFLY,2,50.0,00:00:41.164,0:13:42  ,0:13:08  ,30.0,--,--,19,9.0,12
28.1,BUTTERFLY,1,25.0,00:00:21.437,0:14:17  ,0:14:17  ,31.0,--,--,10,--,--
28.2,BUTTERFLY,1,25.0,00:00:19.687,0:13:08  ,0:13:08  ,29.0,--,--,9,--,--
REST,,,0.0,00:02:06.398,--,--,0.0,--,--,--,5.333333333333333,--
29,BUTTERFLY,1,25.0,00:00:18.656,0:12:25  ,0:12:25  ,28.0,--,--,9,9.0,7
29.1,BUTTERFLY,1,25.0,00:00:18.625,0:12:25  ,0:12:25  ,28.0,--,--,9,--,--
REST,,,0.0,00:00:36.781,--,--,0.0,--,--,--,5.425,--
30,BUTTERFLY,1,25.0,00:00:19.773,0:13:12  ,0:13:13  ,29.0,--,--,9,9.0,6
30.1,BUTTERFLY,1,25.0,00:00:19.812,0:13:13  ,0:13:13  ,29.0,--,--,9,--,--
REST,,,0.0,00:01:48.414,--,--,0.0,--,--,--,5.512195121951219,--
31,DRILL,1,25.0,00:00:21.922,--,--,0.0,--,--,--,5.380952380952381,--
31.1,DRILL,1,25.0,00:00:21.922,--,--,--,--,--,0,--,--
REST,,,0.0,00:00:54.828,--,--,0.0,--,--,--,5.380952380952381,--
32,DRILL,1,25.0,00:00:21.805,--,--,0.0,--,--,--,5.255813953488372,--
32.1,DRILL,1,25.0,00:00:21.805,--,--,--,--,--,0,--,--
REST,,,0.0,00:02:33.258,--,--,0.0,--,--,--,5.255813953488372,--
33,BUTTERFLY,1,25.0,00:00:19.555,0:13:04  ,0:13:05  ,28.0,--,--,8,8.0,6
33.1,BUTTERFLY,1,25.0,00:00:19.625,0:13:05  ,0:13:05  ,28.0,--,--,8,--,--
REST,,,0.0,00:02:14.758,--,--,0.0,--,--,--,5.318181818181818,--
34,BUTTERFLY,1,25.0,00:00:20.570,0:13:42  ,0:13:43  ,29.0,--,--,8,8.0,6
34.1,BUTTERFLY,1,25.0,00:00:20.562,0:13:43  ,0:13:43  ,29.0,--,--,8,--,--
REST,,,0.0,00:02:46.742,--,--,0.0,--,--,--,5.260869565217392,--
35,DRILL,2,50.0,00:00:42.359,--,--,0.0,--,--,--,5.041666666666667,--
35.1,DRILL,1,25.0,00:00:21.179,--,--,--,--,--,0,--,--
35.2,DRILL,1,25.0,00:00:21.179,--,--,--,--,--,0,--,--
REST,,,0.0,00:01:04.16,--,--,0.0,--,--,--,5.041666666666667,--
36,DRILL,2,50.0,00:00:36.609,--,--,0.0,--,--,--,5.02,--
36.1,DRILL,1,25.0,00:00:18.304,--,--,--,--,--,0,--,--
36.2,DRILL,1,25.0,00:00:18.304,--,--,--,--,--,0,--,--
REST,,,0.0,00:04:38.766,--,--,0.0,--,--,--,5.02,--
37,FREESTYLE,2,50.0,00:00:36.563,0:12:10  ,0:10:12  ,28.0,--,--,20,10.0,10
37.1,FREESTYLE,1,25.0,00:00:15.312,0:10:12  ,0:10:12  ,24.0,--,--,9,--,--
37.2,FREESTYLE,1,25.0,00:00:21.250,0:14:10  ,0:14:10  ,32.0,--,--,11,--,--
REST,,,0.0,00:03:15.63,--,--,0.0,--,--,--,4.943396226415095,--
REST,,,0.0,00:00:07.883,--,--,0.0,--,--,--,4.943396226415095,--
REST,,,0.0,00:01:37.992,--,--,0.0,--,--,--,4.943396226415095,--
REST,,,0.0,00:00:10.563,--,--,0.0,--,--,--,4.943396226415095,--
REST,,,0.0,00:00:35.00,--,--,0.0,--,--,--,4.943396226415095,--
REST,,,0.0,00:00:07.86,--,--,0.0,--,--,--,4.943396226415095,--
REST,,,0.0,00:01:57.164,--,--,0.0,--,--,--,4.943396226415095,--
REST,,,0.0,00:00:06.977,--,--,0.0,--,--,--,4.943396226415095,--
REST,,,0.0,00:01:52.648,--,--,0.0,--,--,--,4.943396226415095,--
REST,,,0.0,00:00:06.766,--,--,0.0,--,--,--,4.943396226415095,--
REST,,,0.0,00:00:28.422,--,--,0.0,--,--,--,4.943396226415095,--
38,DRILL,3,75.0,00:01:22.70,--,--,0.0,--,--,--,4.763636363636364,--
38.1,DRILL,1,25.0,00:00:27.356,--,--,--,--,--,0,--,--
38.2,DRILL,1,25.0,00:00:27.356,--,--,--,--,--,0,--,--
38.3,DRILL,1,25.0,00:00:27.356,--,--,--,--,--,0,--,--
REST,,,0.0,00:05:06.117,--,--,0.0,--,--,--,4.763636363636364,--
39,DRILL,2,50.0,00:01:33.594,--,--,0.0,--,--,--,4.5964912280701755,--
39.1,DRILL,1,25.0,00:00:46.797,--,--,--,--,--,0,--,--
39.2,DRILL,1,25.0,00:00:46.797,--,--,--,--,--,0,--,--
REST,,,0.0,00:00:10.781,--,--,0.0,--,--,--,4.5964912280701755,--
40,DRILL,2,50.0,00:00:38.570,--,--,0.0,--,--,--,4.517241379310345,--
40.1,DRILL,1,25.0,00:00:19.285,--,--,--,--,--,0,--,--
40.2,DRILL,1,25.0,00:00:19.285,--,--,--,--,--,0,--,--
REST,,,0.0,00:00:50.180,--,--,0.0,--,--,--,4.517241379310345,--
41,DRILL,1,25.0,00:00:26.766,--,--,0.0,--,--,--,4.440677966101695,--
41.1,DRILL,1,25.0,00:00:26.766,--,--,--,--,--,0,--,--
REST,,,0.0,00:00:47.109,--,--,0.0,--,--,--,4.440677966101695,--
42,DRILL,1,25.0,00:00:26.211,--,--,0.0,--,--,--,4.366666666666666,--
42.1,DRILL,1,25.0,00:00:26.211,--,--,--,--,--,0,--,--
REST,,,0.0,00:02:01.477,--,--,0.0,--,--,--,4.366666666666666,--
43,DRILL,1,25.0,00:00:22.563,--,--,0.0,--,--,--,4.295081967213115,--
43.1,DRILL,1,25.0,00:00:22.563,--,--,--,--,--,0,--,--
REST,,,0.0,00:01:09.813,--,--,0.0,--,--,--,4.295081967213115,--
44,DRILL,1,25.0,00:00:25.828,--,--,0.0,--,--,--,4.225806451612903,--
44.1,DRILL,1,25.0,00:00:25.828,--,--,--,--,--,0,--,--
REST,,,0.0,00:00:58.359,--,--,0.0,--,--,--,4.225806451612903,--
45,DRILL,1,25.0,00:00:21.625,--,--,0.0,--,--,--,4.158730158730159,--
45.1,DRILL,1,25.0,00:00:21.625,--,--,--,--,--,0,--,--
REST,,,0.0,00:00:25.375,--,--,0.0,--,--,--,4.158730158730159,--
46,DRILL,1,25.0,00:00:22.47,--,--,0.0,--,--,--,4.030769230769231,--
46.1,DRILL,1,25.0,00:00:22.47,--,--,--,--,--,0,--,--
REST,,,0.0,00:05:29.766,--,--,0.0,--,--,--,4.030769230769231,--
47,DRILL,2,50.0,00:01:13.930,--,--,0.0,--,--,--,3.9696969696969697,--
47.1,DRILL,1,25.0,00:00:36.965,--,--,--,--,--,0,--,--
47.2,DRILL,1,25.0,00:00:36.965,--,--,--,--,--,0,--,--
REST,,,0.0,00:00:13.633,--,--,0.0,--,--,--,3.9696969696969697,--
48,DRILL,1,25.0,00:00:27.406,--,--,0.0,--,--,--,3.91044776119403,--
48.1,DRILL,1,25.0,00:00:27.406,--,--,--,--,--,0,--,--
REST,,,0.0,00:01:08.906,--,--,0.0,--,--,--,3.91044776119403,--
49,DRILL,1,25.0,00:00:26.656,--,--,0.0,--,--,--,3.9130434782608696,--
49.1,DRILL,1,25.0,00:00:26.656,--,--,--,--,--,0,--,--
REST,,,0.0,00:02:50.844,--,--,0.0,--,--,--,3.9130434782608696,--
50,FREESTYLE,2,50.0,00:00:39.86,0:08:59  ,0:08:12  ,20.0,--,--,14,7.0,10
50.1,FREESTYLE,1,25.0,00:00:14.687,0:09:47  ,0:09:47  ,23.0,--,--,8,--,--
50.2,FREESTYLE,1,25.0,00:00:12.312,0:08:12  ,0:08:12  ,18.0,--,--,6,--,--
REST,,,0.0,00:00:01.141,--,--,0.0,--,--,--,4.042253521126761,--
REST,,,0.0,00:00:28.875,--,--,0.0,--,--,--,4.042253521126761,--
51,FREESTYLE,2,50.0,00:00:39.648,0:13:12  ,0:13:08  ,31.0,--,--,22,11.0,10
51.1,FREESTYLE,1,25.0,00:00:19.937,0:13:18  ,0:13:18  ,31.0,--,--,11,--,--
51.2,FREESTYLE,1,25.0,00:00:19.687,0:13:08  ,0:13:08  ,31.0,--,--,11,--,--
REST,,,0.0,00:02:23.789,--,--,0.0,--,--,--,4.138888888888889,--
52,BUTTERFLY,1,25.0,00:00:19.477,0:12:57  ,0:12:57  ,28.0,--,--,9,9.0,7
52.1,BUTTERFLY,1,25.0,00:00:19.437,0:12:57  ,0:12:57  ,28.0,--,--,9,--,--
REST,,,0.0,00:00:39.898,--,--,0.0,--,--,--,4.205479452054795,--
53,BUTTERFLY,1,25.0,00:00:19.617,0:13:07  ,0:13:08  ,29.0,--,--,9,9.0,6
53.1,BUTTERFLY,1,25.0,00:00:19.687,0:13:08  ,0:13:08  ,29.0,--,--,9,--,--
REST,,,0.0,00:03:14.820,--,--,0.0,--,--,--,4.36,--
54,FREESTYLE,2,50.0,00:00:37.313,0:12:27  ,0:12:20  ,29.0,--,--,22,11.0,10
54.1,FREESTYLE,1,25.0,00:00:18.875,0:12:35  ,0:12:35  ,30.0,--,--,11,--,--
54.2,FREESTYLE,1,25.0,00:00:18.500,0:12:20  ,0:12:20  ,30.0,--,--,11,--,--
Summary,,76,1900.0,02:02:51.961,1:04:39  ,0:08:12  ,30.0,--,--,338,9.899999618530273,402
