Split,Swim Stroke,Lengths,Distance,Time,Avg Pace,Best Pace,Avg SWOLF,Avg Power,Max Power,Total Strokes,Avg Strokes,Calories
1,FREESTYLE,4,100.0,00:01:23.266,0:13:49  ,0:12:27  ,31.0,--,--,43,10.0,20
1.1,FREESTYLE,1,25.0,00:00:18.687,0:12:27  ,0:12:27  ,28.0,--,--,9,--,--
1.2,FREESTYLE,1,25.0,00:00:21.125,0:14:05  ,0:14:05  ,32.0,--,--,11,--,--
1.3,FREESTYLE,1,25.0,00:00:23.00,0:15:20  ,0:15:20  ,35.0,--,--,12,--,--
1.4,FREESTYLE,1,25.0,00:00:20.187,0:13:27  ,0:13:27  ,31.0,--,--,11,--,--
REST,,,0.0,00:02:17.836,--,--,0.0,--,--,--,3.909090909090909,--
2,DRILL,8,200.0,00:03:10.188,--,--,0.0,--,--,--,2.8666666666666667,--
2.1,DRILL,1,25.0,00:00:23.773,--,--,--,--,--,0,--,--
2.2,DRILL,1,25.0,00:00:23.773,--,--,--,--,--,0,--,--
2.3,DRILL,1,25.0,00:00:23.773,--,--,--,--,--,0,--,--
2.4,DRILL,1,25.0,00:00:23.773,--,--,--,--,--,0,--,--
2.5,DRILL,1,25.0,00:00:23.773,--,--,--,--,--,0,--,--
2.6,DRILL,1,25.0,00:00:23.773,--,--,--,--,--,0,--,--
2.7,DRILL,1,25.0,00:00:23.773,--,--,--,--,--,0,--,--
2.8,DRILL,1,25.0,00:00:23.773,--,--,--,--,--,0,--,--
REST,,,0.0,00:01:26.375,--,--,0.0,--,--,--,2.8666666666666667,--
3,DRILL,4,100.0,00:01:31.828,--,--,0.0,--,--,--,2.263157894736842,--
3.1,DRILL,1,25.0,00:00:22.957,--,--,--,--,--,0,--,--
3.2,DRILL,1,25.0,00:00:22.957,--,--,--,--,--,0,--,--
3.3,DRILL,1,25.0,00:00:22.957,--,--,--,--,--,0,--,--
3.4,DRILL,1,25.0,00:00:22.957,--,--,--,--,--,0,--,--
REST,,,0.0,00:02:21.172,--,--,0.0,--,--,--,2.263157894736842,--
4,DRILL,4,100.0,00:01:30.953,--,--,0.0,--,--,--,2.0476190476190474,--
4.1,DRILL,1,25.0,00:00:22.738,--,--,--,--,--,0,--,--
4.2,DRILL,1,25.0,00:00:22.738,--,--,--,--,--,0,--,--
4.3,DRILL,1,25.0,00:00:22.738,--,--,--,--,--,0,--,--
4.4,DRILL,1,25.0,00:00:22.738,--,--,--,--,--,0,--,--
REST,,,0.0,00:01:34.47,--,--,0.0,--,--,--,2.0476190476190474,--
5,DRILL,2,50.0,00:00:40.328,--,--,0.0,--,--,--,1.9545454545454546,--
5.1,DRILL,1,25.0,00:00:20.164,--,--,--,--,--,0,--,--
5.2,DRILL,1,25.0,00:00:20.164,--,--,--,--,--,0,--,--
REST,,,0.0,00:01:24.734,--,--,0.0,--,--,--,1.9545454545454546,--
6,DRILL,1,25.0,00:00:28.492,--,--,0.0,--,--,--,1.8695652173913044,--
6.1,DRILL,1,25.0,00:00:28.492,--,--,--,--,--,0,--,--
REST,,,0.0,00:01:26.445,--,--,0.0,--,--,--,1.8695652173913044,--
7,DRILL,1,25.0,00:00:24.789,--,--,0.0,--,--,--,1.7916666666666667,--
7.1,DRILL,1,25.0,00:00:24.789,--,--,--,--,--,0,--,--
REST,,,0.0,00:00:28.711,--,--,0.0,--,--,--,1.7916666666666667,--
8,DRILL,1,25.0,00:00:23.906,--,--,0.0,--,--,--,1.72,--
8.1,DRILL,1,25.0,00:00:23.906,--,--,--,--,--,0,--,--
REST,,,0.0,00:00:34.781,--,--,0.0,--,--,--,1.72,--
9,DRILL,1,25.0,00:00:24.289,--,--,0.0,--,--,--,1.6538461538461537,--
9.1,DRILL,1,25.0,00:00:24.289,--,--,--,--,--,0,--,--
REST,,,0.0,00:02:15.711,--,--,0.0,--,--,--,1.6538461538461537,--
10,DRILL,1,25.0,00:00:20.648,--,--,0.0,--,--,--,1.5925925925925926,--
10.1,DRILL,1,25.0,00:00:20.648,--,--,--,--,--,0,--,--
REST,,,0.0,00:00:59.227,--,--,0.0,--,--,--,1.5925925925925926,--
11,DRILL,1,25.0,00:00:20.672,--,--,0.0,--,--,--,1.5357142857142858,--
11.1,DRILL,1,25.0,00:00:20.672,--,--,--,--,--,0,--,--
REST,,,0.0,00:01:11.703,--,--,0.0,--,--,--,1.5357142857142858,--
12,DRILL,1,25.0,00:00:29.297,--,--,0.0,--,--,--,1.4827586206896552,--
12.1,DRILL,1,25.0,00:00:29.297,--,--,--,--,--,0,--,--
REST,,,0.0,00:00:47.891,--,--,0.0,--,--,--,1.4827586206896552,--
13,DRILL,1,25.0,00:00:33.164,--,--,0.0,--,--,--,1.4333333333333333,--
13.1,DRILL,1,25.0,00:00:33.164,--,--,--,--,--,0,--,--
REST,,,0.0,00:01:37.961,--,--,0.0,--,--,--,1.4333333333333333,--
14,BUTTERFLY,1,25.0,00:00:17.719,0:11:47  ,0:11:47  ,26.0,--,--,8,8.0,7
14.1,BUTTERFLY,1,25.0,00:00:17.687,0:11:47  ,0:11:47  ,26.0,--,--,8,--,--
REST,,,0.0,00:01:18.469,--,--,0.0,--,--,--,1.6451612903225807,--
15,BUTTERFLY,1,25.0,00:00:19.523,0:13:02  ,0:13:03  ,28.0,--,--,8,8.0,6
15.1,BUTTERFLY,1,25.0,00:00:19.562,0:13:03  ,0:13:03  ,28.0,--,--,8,--,--
REST,,,0.0,00:01:29.789,--,--,0.0,--,--,--,1.84375,--
16,BUTTERFLY,1,25.0,00:00:18.766,0:12:30  ,0:12:30  ,27.0,--,--,8,8.0,7
16.1,BUTTERFLY,1,25.0,00:00:18.750,0:12:30  ,0:12:30  ,27.0,--,--,8,--,--
REST,,,0.0,00:01:29.359,--,--,0.0,--,--,--,2.0303030303030303,--
17,BUTTERFLY,1,25.0,00:00:18.734,0:12:32  ,0:12:33  ,29.0,--,--,10,10.0,7
17.1,BUTTERFLY,1,25.0,00:00:18.812,0:12:33  ,0:12:33  ,29.0,--,--,10,--,--
REST,,,0.0,00:01:11.891,--,--,0.0,--,--,--,2.264705882352941,--
18,BUTTERFLY,1,25.0,00:00:19.55,0:12:42  ,0:12:42  ,28.0,--,--,9,9.0,7
18.1,BUTTERFLY,1,25.0,00:00:19.62,0:12:42  ,0:12:42  ,28.0,--,--,9,--,--
REST,,,0.0,00:00:51.508,--,--,0.0,--,--,--,2.4571428571428573,--
19,BUTTERFLY,1,25.0,00:00:18.508,0:12:22  ,0:12:22  ,27.0,--,--,8,8.0,7
19.1,BUTTERFLY,1,25.0,00:00:18.562,0:12:22  ,0:12:22  ,27.0,--,--,8,--,--
REST,,,0.0,00:03:06.930,--,--,0.0,--,--,--,2.611111111111111,--
20,BUTTERFLY,1,25.0,00:00:17.648,0:11:47  ,0:11:47  ,26.0,--,--,8,8.0,7
20.1,BUTTERFLY,1,25.0,00:00:17.687,0:11:47  ,0:11:47  ,26.0,--,--,8,--,--
REST,,,0.0,00:01:39.539,--,--,0.0,--,--,--,2.7567567567567566,--
21,BUTTERFLY,1,25.0,00:00:17.484,0:11:37  ,0:11:37  ,24.0,--,--,7,7.0,7
21.1,BUTTERFLY,1,25.0,00:00:17.437,0:11:37  ,0:11:37  ,24.0,--,--,7,--,--
REST,,,0.0,00:01:57.766,--,--,0.0,--,--,--,2.8684210526315788,--
22,BUTTERFLY,1,25.0,00:00:17.555,0:11:42  ,0:11:42  ,25.0,--,--,7,7.0,7
22.1,BUTTERFLY,1,25.0,00:00:17.562,0:11:42  ,0:11:42  ,25.0,--,--,7,--,--
REST,,,0.0,00:01:22.445,--,--,0.0,--,--,--,2.9743589743589745,--
23,BUTTERFLY,1,25.0,00:00:18.203,0:12:09  ,0:12:10  ,26.0,--,--,8,8.0,7
23.1,BUTTERFLY,1,25.0,00:00:18.250,0:12:10  ,0:12:10  ,26.0,--,--,8,--,--
REST,,,0.0,00:01:47.734,--,--,0.0,--,--,--,3.292682926829268,--
24,BREASTSTROKE,2,50.0,00:00:52.477,0:17:30  ,0:15:35  ,37.0,--,--,21,10.0,14
24.1,BREASTSTROKE,1,25.0,00:00:29.125,0:19:25  ,0:19:25  ,40.0,--,--,11,--,--
24.2,BREASTSTROKE,1,25.0,00:00:23.375,0:15:35  ,0:15:35  ,33.0,--,--,10,--,--
REST,,,0.0,00:01:30.398,--,--,0.0,--,--,--,3.4523809523809526,--
25,DRILL,1,25.0,00:00:24.16,--,--,0.0,--,--,--,3.372093023255814,--
25.1,DRILL,1,25.0,00:00:24.16,--,--,--,--,--,0,--,--
REST,,,0.0,00:00:18.484,--,--,0.0,--,--,--,3.372093023255814,--
26,DRILL,1,25.0,00:00:25.719,--,--,0.0,--,--,--,3.2954545454545454,--
26.1,DRILL,1,25.0,00:00:25.719,--,--,--,--,--,0,--,--
REST,,,0.0,00:01:07.969,--,--,0.0,--,--,--,3.2954545454545454,--
27,DRILL,1,25.0,00:00:39.906,--,--,0.0,--,--,--,3.2222222222222223,--
27.1,DRILL,1,25.0,00:00:39.906,--,--,--,--,--,0,--,--
REST,,,0.0,00:00:35.281,--,--,0.0,--,--,--,3.2222222222222223,--
28,DRILL,1,25.0,00:00:23.352,--,--,0.0,--,--,--,3.297872340425532,--
28.1,DRILL,1,25.0,00:00:23.352,--,--,--,--,--,0,--,--
REST,,,0.0,00:01:29.86,--,--,0.0,--,--,--,3.297872340425532,--
29,FREESTYLE,2,50.0,00:00:39.164,0:13:03  ,0:12:25  ,30.0,--,--,22,11.0,10
29.1,FREESTYLE,1,25.0,00:00:18.625,0:12:25  ,0:12:25  ,29.0,--,--,10,--,--
29.2,FREESTYLE,1,25.0,00:00:20.562,0:13:43  ,0:13:43  ,33.0,--,--,12,--,--
REST,,,0.0,00:00:49.523,--,--,0.0,--,--,--,3.6122448979591835,--
30,FREESTYLE,2,50.0,00:00:39.836,0:13:17  ,0:12:55  ,31.0,--,--,22,11.0,10
30.1,FREESTYLE,1,25.0,00:00:19.375,0:12:55  ,0:12:55  ,29.0,--,--,10,--,--
30.2,FREESTYLE,1,25.0,00:00:20.500,0:13:40  ,0:13:40  ,33.0,--,--,12,--,--
REST,,,0.0,00:02:10.413,--,--,0.0,--,--,--,3.9019607843137254,--
31,FREESTYLE,4,100.0,00:01:31.305,0:15:14  ,0:14:10  ,34.0,--,--,46,11.0,20
31.1,FREESTYLE,1,25.0,00:00:21.250,0:14:10  ,0:14:10  ,31.0,--,--,10,--,--
31.2,FREESTYLE,1,25.0,00:00:25.375,0:16:55  ,0:16:55  ,38.0,--,--,13,--,--
31.3,FREESTYLE,1,25.0,00:00:22.00,0:14:40  ,0:14:40  ,33.0,--,--,11,--,--
31.4,FREESTYLE,1,25.0,00:00:22.750,0:15:10  ,0:15:10  ,35.0,--,--,12,--,--
REST,,,0.0,00:02:04.570,--,--,0.0,--,--,--,4.454545454545454,--
32,FREESTYLE,2,50.0,00:00:42.305,0:14:07  ,0:13:45  ,31.0,--,--,21,10.0,10
32.1,FREESTYLE,1,25.0,00:00:20.625,0:13:45  ,0:13:45  ,31.0,--,--,10,--,--
32.2,FREESTYLE,1,25.0,00:00:21.750,0:14:30  ,0:14:30  ,33.0,--,--,11,--,--
REST,,,0.0,00:00:55.945,--,--,0.0,--,--,--,4.571428571428571,--
33,FREESTYLE,1,25.0,00:00:19.344,0:12:55  ,0:12:55  ,29.0,--,--,10,10.0,5
33.1,FREESTYLE,1,25.0,00:00:19.375,0:12:55  ,0:12:55  ,29.0,--,--,10,--,--
REST,,,0.0,00:01:11.531,--,--,0.0,--,--,--,4.666666666666667,--
34,FREESTYLE,1,25.0,00:00:17.938,0:11:59  ,0:12:00  ,27.0,--,--,9,9.0,5
34.1,FREESTYLE,1,25.0,00:00:18.00,0:12:00  ,0:12:00  ,27.0,--,--,9,--,--
REST,,,0.0,00:01:14.438,--,--,0.0,--,--,--,4.741379310344827,--
35,DRILL,1,25.0,00:00:15.797,--,--,0.0,--,--,--,4.661016949152542,--
35.1,DRILL,1,25.0,00:00:15.797,--,--,--,--,--,0,--,--
REST,,,0.0,00:01:05.266,--,--,0.0,--,--,--,4.661016949152542,--
36,DRILL,1,25.0,00:00:15.648,--,--,0.0,--,--,--,4.583333333333333,--
36.1,DRILL,1,25.0,00:00:15.648,--,--,--,--,--,0,--,--
Summary,,60,1500.0,01:11:27.914,0:13:33  ,0:11:37  ,30.0,--,--,275,9.800000190734863,163
