Split,Swim Stroke,Lengths,Distance,Time,Avg Pace,Best Pace,Avg SWOLF,Avg Power,Max Power,Total Strokes,Avg Strokes,Calories
1,FREESTYLE,2,50.0,00:00:38.727,0:12:45  ,0:12:30  ,29.0,--,--,21,10.0,10
1.1,FREESTYLE,1,25.0,00:00:18.750,0:12:30  ,0:12:30  ,29.0,--,--,10,--,--
1.2,FREESTYLE,1,25.0,00:00:19.500,0:13:00  ,0:13:00  ,31.0,--,--,11,--,--
REST,,,0.0,00:01:15.234,--,--,0.0,--,--,--,10.5,--
2,FREESTYLE,1,25.0,00:00:26.258,0:17:30  ,0:17:30  ,36.0,--,--,10,10.0,5
2.1,FREESTYLE,1,25.0,00:00:26.250,0:17:30  ,0:17:30  ,36.0,--,--,10,--,--
REST,,,0.0,00:00:17.617,--,--,0.0,--,--,--,10.333333333333334,--
3,FREESTYLE,1,25.0,00:00:24.586,0:16:22  ,0:16:23  ,34.0,--,--,9,9.0,5
3.1,FREESTYLE,1,25.0,00:00:24.562,0:16:23  ,0:16:23  ,34.0,--,--,9,--,--
REST,,,0.0,00:00:46.789,--,--,0.0,--,--,--,9.8,--
4,FREESTYLE,2,50.0,00:00:47.852,0:15:57  ,0:15:38  ,33.0,--,--,19,9.0,10
4.1,FREESTYLE,1,25.0,00:00:23.437,0:15:38  ,0:15:38  ,32.0,--,--,9,--,--
4.2,FREESTYLE,1,25.0,00:00:24.437,0:16:17  ,0:16:17  ,34.0,--,--,10,--,--
REST,,,0.0,00:00:38.898,--,--,0.0,--,--,--,9.857142857142858,--
5,FREESTYLE,2,50.0,00:00:45.164,0:15:03  ,0:13:47  ,32.0,--,--,19,9.0,10
5.1,FREESTYLE,1,25.0,00:00:24.500,0:16:20  ,0:16:20  ,35.0,--,--,10,--,--
5.2,FREESTYLE,1,25.0,00:00:20.687,0:13:47  ,0:13:47  ,30.0,--,--,9,--,--
REST,,,0.0,00:00:40.148,--,--,0.0,--,--,--,9.666666666666666,--
6,FREESTYLE,2,50.0,00:00:40.484,0:13:29  ,0:13:05  ,29.0,--,--,19,9.0,10
6.1,FREESTYLE,1,25.0,00:00:19.625,0:13:05  ,0:13:05  ,29.0,--,--,9,--,--
6.2,FREESTYLE,1,25.0,00:00:20.812,0:13:52  ,0:13:52  ,31.0,--,--,10,--,--
REST,,,0.0,00:01:12.766,--,--,0.0,--,--,--,9.7,--
7,DRILL,1,25.0,00:00:29.453,--,--,0.0,--,--,--,8.818181818181818,--
7.1,DRILL,1,25.0,00:00:29.453,--,--,--,--,--,0,--,--
REST,,,0.0,00:01:00.234,--,--,0.0,--,--,--,8.818181818181818,--
8,DRILL,1,25.0,00:00:30.461,--,--,0.0,--,--,--,8.307692307692308,--
8.1,DRILL,1,25.0,00:00:30.461,--,--,--,--,--,0,--,--
REST,,,0.0,00:00:41.602,--,--,0.0,--,--,--,8.307692307692308,--
9,FREESTYLE,2,50.0,00:00:48.703,0:16:13  ,0:15:20  ,35.0,--,--,21,10.0,10
9.1,FREESTYLE,1,25.0,00:00:25.687,0:17:07  ,0:17:07  ,37.0,--,--,11,--,--
9.2,FREESTYLE,1,25.0,00:00:23.00,0:15:20  ,0:15:20  ,33.0,--,--,10,--,--
REST,,,0.0,00:02:31.984,--,--,0.0,--,--,--,8.428571428571429,--
10,DRILL,1,25.0,00:00:22.156,--,--,0.0,--,--,--,7.866666666666666,--
10.1,DRILL,1,25.0,00:00:22.156,--,--,--,--,--,0,--,--
REST,,,0.0,00:00:20.531,--,--,0.0,--,--,--,7.866666666666666,--
11,DRILL,1,25.0,00:00:22.773,--,--,0.0,--,--,--,7.375,--
11.1,DRILL,1,25.0,00:00:22.773,--,--,--,--,--,0,--,--
REST,,,0.0,00:02:59.102,--,--,0.0,--,--,--,7.375,--
12,BUTTERFLY,1,25.0,00:00:17.23,0:11:24  ,0:11:25  ,24.0,--,--,7,7.0,7
12.1,BUTTERFLY,1,25.0,00:00:17.125,0:11:25  ,0:11:25  ,24.0,--,--,7,--,--
REST,,,0.0,00:01:10.539,--,--,0.0,--,--,--,7.352941176470588,--
13,BUTTERFLY,1,25.0,00:00:17.875,0:11:54  ,0:11:55  ,25.0,--,--,7,7.0,7
13.1,BUTTERFLY,1,25.0,00:00:17.875,0:11:55  ,0:11:55  ,25.0,--,--,7,--,--
REST,,,0.0,00:01:18.688,--,--,0.0,--,--,--,7.333333333333333,--
14,BUTTERFLY,1,25.0,00:00:18.594,0:12:22  ,0:12:22  ,28.0,--,--,9,9.0,7
14.1,BUTTERFLY,1,25.0,00:00:18.562,0:12:22  ,0:12:22  ,28.0,--,--,9,--,--
REST,,,0.0,00:01:01.594,--,--,0.0,--,--,--,7.421052631578948,--
15,BUTTERFLY,1,25.0,00:00:18.469,0:12:20  ,0:12:20  ,28.0,--,--,9,9.0,7
15.1,BUTTERFLY,1,25.0,00:00:18.500,0:12:20  ,0:12:20  ,28.0,--,--,9,--,--
REST,,,0.0,00:05:14.219,--,--,0.0,--,--,--,7.5,--
16,BUTTERFLY,1,25.0,00:00:17.461,0:11:39  ,0:11:40  ,25.0,--,--,7,7.0,7
16.1,BUTTERFLY,1,25.0,00:00:17.500,0:11:40  ,0:11:40  ,25.0,--,--,7,--,--
REST,,,0.0,00:01:26.352,--,--,0.0,--,--,--,7.476190476190476,--
17,BUTTERFLY,1,25.0,00:00:18.711,0:12:30  ,0:12:30  ,28.0,--,--,9,9.0,7
17.1,BUTTERFLY,1,25.0,00:00:18.750,0:12:30  ,0:12:30  ,28.0,--,--,9,--,--
REST,,,0.0,00:06:37.602,--,--,0.0,--,--,--,7.545454545454546,--
18,BUTTERFLY,1,25.0,00:00:19.477,0:13:02  ,0:13:03  ,30.0,--,--,10,10.0,6
18.1,BUTTERFLY,1,25.0,00:00:19.562,0:13:03  ,0:13:03  ,30.0,--,--,10,--,--
REST,,,0.0,00:00:37.711,--,--,0.0,--,--,--,7.6521739130434785,--
19,BUTTERFLY,1,25.0,00:00:19.336,0:12:55  ,0:12:55  ,27.0,--,--,8,8.0,7
19.1,BUTTERFLY,1,25.0,00:00:19.375,0:12:55  ,0:12:55  ,27.0,--,--,8,--,--
REST,,,0.0,00:03:16.602,--,--,0.0,--,--,--,7.666666666666667,--
20,BUTTERFLY,1,25.0,00:00:19.484,0:13:02  ,0:13:03  ,30.0,--,--,10,10.0,6
20.1,BUTTERFLY,1,25.0,00:00:19.562,0:13:03  ,0:13:03  ,30.0,--,--,10,--,--
REST,,,0.0,00:00:32.453,--,--,0.0,--,--,--,7.76,--
21,BUTTERFLY,1,25.0,00:00:18.227,0:12:07  ,0:12:07  ,27.0,--,--,9,9.0,7
21.1,BUTTERFLY,1,25.0,00:00:18.187,0:12:07  ,0:12:07  ,27.0,--,--,9,--,--
REST,,,0.0,00:01:37.586,--,--,0.0,--,--,--,7.8076923076923075,--
22,BUTTERFLY,1,25.0,00:00:17.625,0:11:47  ,0:11:47  ,26.0,--,--,8,8.0,7
22.1,BUTTERFLY,1,25.0,00:00:17.687,0:11:47  ,0:11:47  ,26.0,--,--,8,--,--
REST,,,0.0,00:02:03.250,--,--,0.0,--,--,--,7.814814814814815,--
23,BUTTERFLY,1,25.0,00:00:18.656,0:12:27  ,0:12:27  ,26.0,--,--,7,7.0,7
23.1,BUTTERFLY,1,25.0,00:00:18.687,0:12:27  ,0:12:27  ,26.0,--,--,7,--,--
REST,,,0.0,00:03:26.281,--,--,0.0,--,--,--,7.785714285714286,--
24,DRILL,1,25.0,00:00:24.156,--,--,0.0,--,--,--,7.517241379310345,--
24.1,DRILL,1,25.0,00:00:24.156,--,--,--,--,--,0,--,--
REST,,,0.0,00:00:15.844,--,--,0.0,--,--,--,7.517241379310345,--
25,DRILL,1,25.0,00:00:24.383,--,--,0.0,--,--,--,7.266666666666667,--
25.1,DRILL,1,25.0,00:00:24.383,--,--,--,--,--,0,--,--
REST,,,0.0,00:02:16.742,--,--,0.0,--,--,--,7.266666666666667,--
26,DRILL,1,25.0,00:00:20.586,--,--,0.0,--,--,--,7.032258064516129,--
26.1,DRILL,1,25.0,00:00:20.586,--,--,--,--,--,0,--,--
REST,,,0.0,00:00:56.102,--,--,0.0,--,--,--,7.032258064516129,--
27,DRILL,1,25.0,00:00:23.94,--,--,0.0,--,--,--,6.8125,--
27.1,DRILL,1,25.0,00:00:23.94,--,--,--,--,--,0,--,--
REST,,,0.0,00:00:52.781,--,--,0.0,--,--,--,6.8125,--
28,DRILL,1,25.0,00:00:27.867,--,--,0.0,--,--,--,6.606060606060606,--
28.1,DRILL,1,25.0,00:00:27.867,--,--,--,--,--,0,--,--
REST,,,0.0,00:00:42.08,--,--,0.0,--,--,--,6.606060606060606,--
29,DRILL,1,25.0,00:00:28.977,--,--,0.0,--,--,--,6.411764705882353,--
29.1,DRILL,1,25.0,00:00:28.977,--,--,--,--,--,0,--,--
REST,,,0.0,00:00:46.711,--,--,0.0,--,--,--,6.411764705882353,--
30,DRILL,1,25.0,00:00:29.195,--,--,0.0,--,--,--,6.228571428571429,--
30.1,DRILL,1,25.0,00:00:29.195,--,--,--,--,--,0,--,--
REST,,,0.0,00:00:45.180,--,--,0.0,--,--,--,6.228571428571429,--
31,DRILL,1,25.0,00:00:28.94,--,--,0.0,--,--,--,6.055555555555555,--
31.1,DRILL,1,25.0,00:00:28.94,--,--,--,--,--,0,--,--
REST,,,0.0,00:02:12.281,--,--,0.0,--,--,--,6.055555555555555,--
32,FREESTYLE,1,25.0,00:00:18.680,0:12:27  ,0:12:27  ,29.0,--,--,10,10.0,5
32.1,FREESTYLE,1,25.0,00:00:18.687,0:12:27  ,0:12:27  ,29.0,--,--,10,--,--
REST,,,0.0,00:00:16.195,--,--,0.0,--,--,--,6.162162162162162,--
33,FREESTYLE,1,25.0,00:00:18.883,0:07:44  ,0:07:45  ,18.0,--,--,6,6.0,5
33.1,FREESTYLE,1,25.0,00:00:11.625,0:07:45  ,0:07:45  ,18.0,--,--,6,--,--
REST,,,0.0,00:00:16.55,--,--,0.0,--,--,--,6.157894736842105,--
34,FREESTYLE,1,25.0,00:00:18.352,0:12:14  ,0:12:15  ,27.0,--,--,9,9.0,5
34.1,FREESTYLE,1,25.0,00:00:18.375,0:12:15  ,0:12:15  ,27.0,--,--,9,--,--
REST,,,0.0,00:00:16.523,--,--,0.0,--,--,--,6.230769230769231,--
35,FREESTYLE,1,25.0,00:00:19.31,0:12:42  ,0:12:42  ,30.0,--,--,11,11.0,5
35.1,FREESTYLE,1,25.0,00:00:19.62,0:12:42  ,0:12:42  ,30.0,--,--,11,--,--
REST,,,0.0,00:00:15.781,--,--,0.0,--,--,--,6.35,--
36,FREESTYLE,1,25.0,00:00:18.359,0:07:12  ,0:07:12  ,17.0,--,--,6,6.0,5
36.1,FREESTYLE,1,25.0,00:00:10.812,0:07:12  ,0:07:12  ,17.0,--,--,6,--,--
REST,,,0.0,00:00:16.328,--,--,0.0,--,--,--,6.341463414634147,--
37,FREESTYLE,1,25.0,00:00:18.414,0:12:17  ,0:12:18  ,27.0,--,--,9,9.0,5
37.1,FREESTYLE,1,25.0,00:00:18.437,0:12:18  ,0:12:18  ,27.0,--,--,9,--,--
REST,,,0.0,00:00:15.836,--,--,0.0,--,--,--,6.404761904761905,--
38,FREESTYLE,1,25.0,00:00:18.906,0:12:34  ,0:12:35  ,29.0,--,--,10,10.0,5
38.1,FREESTYLE,1,25.0,00:00:18.875,0:12:35  ,0:12:35  ,29.0,--,--,10,--,--
REST,,,0.0,00:00:16.594,--,--,0.0,--,--,--,6.488372093023256,--
39,FREESTYLE,1,25.0,00:00:18.656,0:12:27  ,0:12:27  ,28.0,--,--,9,9.0,5
39.1,FREESTYLE,1,25.0,00:00:18.687,0:12:27  ,0:12:27  ,28.0,--,--,9,--,--
REST,,,0.0,00:00:16.30,--,--,0.0,--,--,--,6.545454545454546,--
40,FREESTYLE,1,25.0,00:00:19.156,0:12:47  ,0:12:48  ,29.0,--,--,10,10.0,5
40.1,FREESTYLE,1,25.0,00:00:19.187,0:12:48  ,0:12:48  ,29.0,--,--,10,--,--
REST,,,0.0,00:00:15.969,--,--,0.0,--,--,--,6.622222222222222,--
41,FREESTYLE,1,25.0,00:00:18.320,0:12:14  ,0:12:15  ,28.0,--,--,10,10.0,5
41.1,FREESTYLE,1,25.0,00:00:18.375,0:12:15  ,0:12:15  ,28.0,--,--,10,--,--
REST,,,0.0,00:02:13.805,--,--,0.0,--,--,--,6.76595744680851,--
42,FREESTYLE,2,50.0,00:00:41.398,0:13:47  ,0:13:30  ,30.0,--,--,20,10.0,10
42.1,FREESTYLE,1,25.0,00:00:21.125,0:14:05  ,0:14:05  ,31.0,--,--,10,--,--
42.2,FREESTYLE,1,25.0,00:00:20.250,0:13:30  ,0:13:30  ,30.0,--,--,10,--,--
REST,,,0.0,00:02:28.977,--,--,0.0,--,--,--,6.8979591836734695,--
43,FREESTYLE,2,50.0,00:00:41.289,0:13:45  ,0:12:52  ,31.0,--,--,21,10.0,10
43.1,FREESTYLE,1,25.0,00:00:19.312,0:12:52  ,0:12:52  ,29.0,--,--,10,--,--
43.2,FREESTYLE,1,25.0,00:00:21.937,0:14:37  ,0:14:37  ,33.0,--,--,11,--,--
REST,,,0.0,00:00:34.586,--,--,0.0,--,--,--,6.98,--
44,FREESTYLE,2,50.0,00:00:40.969,0:13:39  ,0:13:39  ,31.0,--,--,20,10.0,10
44.1,FREESTYLE,1,25.0,00:00:20.500,0:13:39  ,0:13:39  ,31.0,--,--,10,--,--
44.2,FREESTYLE,1,25.0,00:00:20.500,0:13:39  ,0:13:39  ,31.0,--,--,10,--,--
REST,,,0.0,00:01:56.594,--,--,0.0,--,--,--,7.096153846153846,--
45,BREASTSTROKE,1,25.0,00:00:26.641,0:17:47  ,0:17:48  ,37.0,--,--,10,10.0,7
45.1,BREASTSTROKE,1,25.0,00:00:26.687,0:17:48  ,0:17:48  ,37.0,--,--,10,--,--
REST,,,0.0,00:00:20.547,--,--,0.0,--,--,--,7.150943396226415,--
46,BREASTSTROKE,1,25.0,00:00:24.805,0:16:30  ,0:16:30  ,34.0,--,--,9,9.0,7
46.1,BREASTSTROKE,1,25.0,00:00:24.750,0:16:30  ,0:16:30  ,34.0,--,--,9,--,--
REST,,,0.0,00:00:55.195,--,--,0.0,--,--,--,7.185185185185185,--
47,BREASTSTROKE,1,25.0,00:00:23.266,0:15:30  ,0:15:30  ,34.0,--,--,11,11.0,7
47.1,BREASTSTROKE,1,25.0,00:00:23.250,0:15:30  ,0:15:30  ,34.0,--,--,11,--,--
REST,,,0.0,00:00:56.797,--,--,0.0,--,--,--,7.254545454545455,--
48,BREASTSTROKE,1,25.0,00:00:25.367,0:16:55  ,0:16:55  ,34.0,--,--,9,9.0,7
48.1,BREASTSTROKE,1,25.0,00:00:25.375,0:16:55  ,0:16:55  ,34.0,--,--,9,--,--
REST,,,0.0,00:00:46.08,--,--,0.0,--,--,--,7.285714285714286,--
49,BACKSTROKE,1,25.0,00:00:27.117,0:18:06  ,0:18:08  ,37.0,--,--,10,10.0,5
49.1,BACKSTROKE,1,25.0,00:00:27.187,0:18:08  ,0:18:08  ,37.0,--,--,10,--,--
REST,,,0.0,00:00:41.445,--,--,0.0,--,--,--,7.333333333333333,--
50,BACKSTROKE,1,25.0,00:00:26.719,0:17:47  ,0:17:48  ,36.0,--,--,9,9.0,5
50.1,BACKSTROKE,1,25.0,00:00:26.687,0:17:48  ,0:17:48  ,36.0,--,--,9,--,--
REST,,,0.0,00:02:14.156,--,--,0.0,--,--,--,7.362068965517241,--
51,BUTTERFLY,1,25.0,00:00:18.313,0:12:12  ,0:12:12  ,25.0,--,--,7,7.0,7
51.1,BUTTERFLY,1,25.0,00:00:18.312,0:12:12  ,0:12:12  ,25.0,--,--,7,--,--
REST,,,0.0,00:01:29.875,--,--,0.0,--,--,--,7.3559322033898304,--
52,BUTTERFLY,1,25.0,00:00:18.391,0:12:14  ,0:12:15  ,26.0,--,--,8,8.0,7
52.1,BUTTERFLY,1,25.0,00:00:18.375,0:12:15  ,0:12:15  ,26.0,--,--,8,--,--
Summary,,60,1500.0,01:28:25.375,0:13:35  ,0:07:12  ,30.0,--,--,442,9.199999809265137,274
