Split,Swim Stroke,Lengths,Distance,Time,Avg Pace,Best Pace,Avg SWOLF,Avg Power,Max Power,Total Strokes,Avg Strokes,Calories
1,FREESTYLE,4,200.0,00:03:19.922,0:16:37  ,0:15:11  ,77.0,--,--,109,27.0,36
1.1,FREESTYLE,1,50.0,00:00:45.562,0:15:11  ,0:15:11  ,70.0,--,--,24,--,--
1.2,FREESTYLE,1,50.0,00:00:51.312,0:17:06  ,0:17:06  ,79.0,--,--,28,--,--
1.3,FREESTYLE,1,50.0,00:00:53.937,0:17:58  ,0:17:58  ,84.0,--,--,30,--,--
1.4,FREESTYLE,1,50.0,00:00:48.687,0:16:14  ,0:16:14  ,76.0,--,--,27,--,--
REST,,,0.0,00:01:01.852,--,--,0.0,--,--,--,27.0,--
2,FREESTYLE,2,100.0,00:01:31.219,0:15:12  ,0:14:28  ,73.0,--,--,56,28.0,18
2.1,FREESTYLE,1,50.0,00:00:43.437,0:14:28  ,0:14:28  ,69.0,--,--,26,--,--
2.2,FREESTYLE,1,50.0,00:00:47.812,0:15:56  ,0:15:56  ,78.0,--,--,30,--,--
REST,,,0.0,00:04:27.656,--,--,0.0,--,--,--,26.285714285714285,--
3,FREESTYLE,4,200.0,00:03:17.898,0:16:30  ,0:11:07  ,78.0,--,--,116,29.0,36
3.1,FREESTYLE,1,50.0,00:00:33.375,0:11:07  ,0:11:07  ,52.0,--,--,19,--,--
3.2,FREESTYLE,1,50.0,00:01:01.875,0:20:37  ,0:20:37  ,98.0,--,--,36,--,--
3.3,FREESTYLE,1,50.0,00:00:52.00,0:17:20  ,0:17:20  ,83.0,--,--,31,--,--
3.4,FREESTYLE,1,50.0,00:00:50.687,0:16:54  ,0:16:54  ,81.0,--,--,30,--,--
REST,,,0.0,00:19:44.789,--,--,0.0,--,--,--,28.1,--
4,DRILL,1,50.0,00:00:51.469,--,--,0.0,--,--,--,25.545454545454547,--
4.1,DRILL,1,50.0,00:00:51.469,--,--,--,--,--,0,--,--
REST,,,0.0,00:00:41.469,--,--,0.0,--,--,--,25.545454545454547,--
5,DRILL,1,50.0,00:00:45.984,--,--,0.0,--,--,--,23.416666666666668,--
5.1,DRILL,1,50.0,00:00:45.984,--,--,--,--,--,0,--,--
REST,,,0.0,00:01:55.391,--,--,0.0,--,--,--,23.416666666666668,--
6,BUTTERFLY,1,50.0,00:00:51.63,0:17:01  ,0:17:01  ,77.0,--,--,26,26.0,10
6.1,BUTTERFLY,1,50.0,00:00:51.62,0:17:01  ,0:17:01  ,77.0,--,--,26,--,--
REST,,,0.0,00:00:43.813,--,--,0.0,--,--,--,23.615384615384617,--
7,FREESTYLE,1,50.0,00:00:46.133,0:15:23  ,0:15:24  ,72.0,--,--,26,26.0,9
7.1,FREESTYLE,1,50.0,00:00:46.187,0:15:24  ,0:15:24  ,72.0,--,--,26,--,--
REST,,,0.0,00:01:17.867,--,--,0.0,--,--,--,23.785714285714285,--
8,BUTTERFLY,1,50.0,00:00:53.672,0:17:54  ,0:17:54  ,78.0,--,--,24,24.0,9
8.1,BUTTERFLY,1,50.0,00:00:53.687,0:17:54  ,0:17:54  ,78.0,--,--,24,--,--
REST,,,0.0,00:00:27.578,--,--,0.0,--,--,--,24.0625,--
9,FREESTYLE,3,150.0,00:02:26.406,0:16:16  ,0:15:50  ,77.0,--,--,87,29.0,27
9.1,FREESTYLE,1,50.0,00:00:50.437,0:16:49  ,0:16:49  ,78.0,--,--,28,--,--
9.2,FREESTYLE,1,50.0,00:00:48.500,0:16:10  ,0:16:10  ,78.0,--,--,29,--,--
9.3,FREESTYLE,1,50.0,00:00:47.500,0:15:50  ,0:15:50  ,78.0,--,--,30,--,--
REST,,,0.0,00:01:09.531,--,--,0.0,--,--,--,24.666666666666668,--
REST,,,0.0,00:00:01.00,--,--,0.0,--,--,--,24.666666666666668,--
Summary,,18,900.0,00:46:15.63,0:16:22  ,0:11:07  ,76.0,--,--,444,27.700000762939453,145
