Split,Swim Stroke,Lengths,Distance,Time,Avg Pace,Best Pace,Avg SWOLF,Avg Power,Max Power,Total Strokes,Avg Strokes,Calories
1,FREESTYLE,8,200.0,00:03:00.203,0:14:59  ,0:13:13  ,33.0,--,--,91,11.0,40
1.1,FREESTYLE,1,25.0,00:00:19.812,0:13:13  ,0:13:13  ,30.0,--,--,10,--,--
1.2,FREESTYLE,1,25.0,00:00:21.312,0:14:12  ,0:14:12  ,31.0,--,--,10,--,--
1.3,FREESTYLE,1,25.0,00:00:22.250,0:14:50  ,0:14:50  ,33.0,--,--,11,--,--
1.4,FREESTYLE,1,25.0,00:00:23.562,0:15:42  ,0:15:42  ,35.0,--,--,11,--,--
1.5,FREESTYLE,1,25.0,00:00:22.375,0:14:55  ,0:14:55  ,34.0,--,--,12,--,--
1.6,FREESTYLE,1,25.0,00:00:24.687,0:16:28  ,0:16:28  ,38.0,--,--,13,--,--
1.7,FREESTYLE,1,25.0,00:00:22.625,0:15:05  ,0:15:05  ,35.0,--,--,12,--,--
1.8,FREESTYLE,1,25.0,00:00:23.250,0:15:30  ,0:15:30  ,35.0,--,--,12,--,--
REST,,,0.0,00:02:04.328,--,--,0.0,--,--,--,11.333333333333334,--
2,FREESTYLE,2,50.0,00:00:46.313,0:15:25  ,0:13:43  ,34.0,--,--,23,11.0,10
2.1,FREESTYLE,1,25.0,00:00:20.562,0:13:43  ,0:13:43  ,32.0,--,--,11,--,--
2.2,FREESTYLE,1,25.0,00:00:25.750,0:17:10  ,0:17:10  ,38.0,--,--,12,--,--
REST,,,0.0,00:00:55.188,--,--,0.0,--,--,--,10.363636363636363,--
3,DRILL,2,50.0,00:01:14.773,--,--,0.0,--,--,--,8.76923076923077,--
3.1,DRILL,1,25.0,00:00:37.386,--,--,--,--,--,0,--,--
3.2,DRILL,1,25.0,00:00:37.386,--,--,--,--,--,0,--,--
REST,,,0.0,00:00:36.289,--,--,0.0,--,--,--,8.76923076923077,--
4,DRILL,2,50.0,00:01:02.789,--,--,0.0,--,--,--,7.6,--
4.1,DRILL,1,25.0,00:00:31.394,--,--,--,--,--,0,--,--
4.2,DRILL,1,25.0,00:00:31.394,--,--,--,--,--,0,--,--
REST,,,0.0,00:00:36.273,--,--,0.0,--,--,--,7.6,--
5,DRILL,2,50.0,00:01:17.797,--,--,0.0,--,--,--,7.125,--
5.1,DRILL,1,25.0,00:00:38.898,--,--,--,--,--,0,--,--
5.2,DRILL,1,25.0,00:00:38.898,--,--,--,--,--,0,--,--
REST,,,0.0,00:00:12.203,--,--,0.0,--,--,--,7.125,--
6,DRILL,1,25.0,00:00:20.00,--,--,0.0,--,--,--,6.705882352941177,--
6.1,DRILL,1,25.0,00:00:20.00,--,--,--,--,--,0,--,--
REST,,,0.0,00:00:29.500,--,--,0.0,--,--,--,6.705882352941177,--
7,DRILL,1,25.0,00:00:22.578,--,--,0.0,--,--,--,6.333333333333333,--
7.1,DRILL,1,25.0,00:00:22.578,--,--,--,--,--,0,--,--
REST,,,0.0,00:00:38.609,--,--,0.0,--,--,--,6.333333333333333,--
8,DRILL,1,25.0,00:00:25.859,--,--,0.0,--,--,--,6.0,--
8.1,DRILL,1,25.0,00:00:25.859,--,--,--,--,--,0,--,--
REST,,,0.0,00:00:23.828,--,--,0.0,--,--,--,6.0,--
9,DRILL,1,25.0,00:00:23.141,--,--,0.0,--,--,--,5.7,--
9.1,DRILL,1,25.0,00:00:23.141,--,--,--,--,--,0,--,--
REST,,,0.0,00:00:39.922,--,--,0.0,--,--,--,5.7,--
10,DRILL,1,25.0,00:00:34.500,--,--,0.0,--,--,--,5.428571428571429,--
10.1,DRILL,1,25.0,00:00:34.500,--,--,--,--,--,0,--,--
REST,,,0.0,00:00:30.500,--,--,0.0,--,--,--,5.428571428571429,--
11,DRILL,1,25.0,00:00:27.906,--,--,0.0,--,--,--,5.181818181818182,--
11.1,DRILL,1,25.0,00:00:27.906,--,--,--,--,--,0,--,--
REST,,,0.0,00:01:15.531,--,--,0.0,--,--,--,5.181818181818182,--
12,DRILL,1,25.0,00:00:22.195,--,--,0.0,--,--,--,4.956521739130435,--
12.1,DRILL,1,25.0,00:00:22.195,--,--,--,--,--,0,--,--
REST,,,0.0,00:00:31.492,--,--,0.0,--,--,--,4.956521739130435,--
13,DRILL,1,25.0,00:00:21.672,--,--,0.0,--,--,--,4.75,--
13.1,DRILL,1,25.0,00:00:21.672,--,--,--,--,--,0,--,--
REST,,,0.0,00:01:27.203,--,--,0.0,--,--,--,4.75,--
REST,,,0.0,00:00:01.758,--,--,0.0,--,--,--,4.75,--
REST,,,0.0,00:01:07.55,--,--,0.0,--,--,--,4.75,--
14,BUTTERFLY,1,25.0,00:00:18.242,0:12:09  ,0:12:10  ,28.0,--,--,10,10.0,7
14.1,BUTTERFLY,1,25.0,00:00:18.250,0:12:10  ,0:12:10  ,28.0,--,--,10,--,--
REST,,,0.0,00:00:57.133,--,--,0.0,--,--,--,4.96,--
15,BUTTERFLY,1,25.0,00:00:18.680,0:12:27  ,0:12:27  ,28.0,--,--,9,9.0,7
15.1,BUTTERFLY,1,25.0,00:00:18.687,0:12:27  ,0:12:27  ,28.0,--,--,9,--,--
REST,,,0.0,00:01:16.883,--,--,0.0,--,--,--,5.115384615384615,--
16,BUTTERFLY,1,25.0,00:00:18.820,0:12:32  ,0:12:33  ,27.0,--,--,8,8.0,7
16.1,BUTTERFLY,1,25.0,00:00:18.812,0:12:33  ,0:12:33  ,27.0,--,--,8,--,--
REST,,,0.0,00:02:05.555,--,--,0.0,--,--,--,5.222222222222222,--
17,BUTTERFLY,1,25.0,00:00:18.23,0:12:02  ,0:12:02  ,28.0,--,--,10,10.0,7
17.1,BUTTERFLY,1,25.0,00:00:18.62,0:12:02  ,0:12:02  ,28.0,--,--,10,--,--
REST,,,0.0,00:01:07.289,--,--,0.0,--,--,--,5.392857142857143,--
18,BUTTERFLY,1,25.0,00:00:18.766,0:12:30  ,0:12:30  ,28.0,--,--,9,9.0,7
18.1,BUTTERFLY,1,25.0,00:00:18.750,0:12:30  ,0:12:30  ,28.0,--,--,9,--,--
REST,,,0.0,00:01:53.359,--,--,0.0,--,--,--,5.517241379310345,--
19,BUTTERFLY,1,25.0,00:00:19.55,0:12:45  ,0:12:45  ,29.0,--,--,10,10.0,7
19.1,BUTTERFLY,1,25.0,00:00:19.125,0:12:45  ,0:12:45  ,29.0,--,--,10,--,--
REST,,,0.0,00:00:41.133,--,--,0.0,--,--,--,5.666666666666667,--
20,BUTTERFLY,1,25.0,00:00:18.758,0:12:32  ,0:12:33  ,30.0,--,--,11,11.0,7
20.1,BUTTERFLY,1,25.0,00:00:18.812,0:12:33  ,0:12:33  ,30.0,--,--,11,--,--
REST,,,0.0,00:01:47.930,--,--,0.0,--,--,--,5.838709677419355,--
21,BUTTERFLY,1,25.0,00:00:19.125,0:12:47  ,0:12:48  ,27.0,--,--,8,8.0,7
21.1,BUTTERFLY,1,25.0,00:00:19.187,0:12:48  ,0:12:48  ,27.0,--,--,8,--,--
REST,,,0.0,00:01:04.125,--,--,0.0,--,--,--,5.90625,--
22,BUTTERFLY,1,25.0,00:00:19.289,0:12:52  ,0:12:52  ,27.0,--,--,8,8.0,7
22.1,BUTTERFLY,1,25.0,00:00:19.312,0:12:52  ,0:12:52  ,27.0,--,--,8,--,--
REST,,,0.0,00:01:14.898,--,--,0.0,--,--,--,5.96969696969697,--
23,BUTTERFLY,1,25.0,00:00:18.734,0:12:32  ,0:12:33  ,28.0,--,--,9,9.0,7
23.1,BUTTERFLY,1,25.0,00:00:18.812,0:12:33  ,0:12:33  ,28.0,--,--,9,--,--
REST,,,0.0,00:00:33.578,--,--,0.0,--,--,--,6.0588235294117645,--
24,BUTTERFLY,1,25.0,00:00:19.586,0:13:02  ,0:13:03  ,29.0,--,--,9,9.0,6
24.1,BUTTERFLY,1,25.0,00:00:19.562,0:13:03  ,0:13:03  ,29.0,--,--,9,--,--
REST,,,0.0,00:02:16.789,--,--,0.0,--,--,--,6.222222222222222,--
25,FREESTYLE,4,100.0,00:01:23.727,0:13:57  ,0:12:42  ,32.0,--,--,45,11.0,20
25.1,FREESTYLE,1,25.0,00:00:19.125,0:12:45  ,0:12:45  ,28.0,--,--,9,--,--
25.2,FREESTYLE,1,25.0,00:00:21.875,0:14:35  ,0:14:35  ,33.0,--,--,11,--,--
25.3,FREESTYLE,1,25.0,00:00:23.687,0:15:47  ,0:15:47  ,38.0,--,--,14,--,--
25.4,FREESTYLE,1,25.0,00:00:19.62,0:12:42  ,0:12:42  ,30.0,--,--,11,--,--
REST,,,0.0,00:03:20.211,--,--,0.0,--,--,--,6.725,--
26,FREESTYLE,4,100.0,00:01:24.789,0:14:08  ,0:13:30  ,32.0,--,--,43,10.0,20
26.1,FREESTYLE,1,25.0,00:00:20.250,0:13:30  ,0:13:30  ,29.0,--,--,9,--,--
26.2,FREESTYLE,1,25.0,00:00:21.500,0:14:20  ,0:14:20  ,32.0,--,--,10,--,--
26.3,FREESTYLE,1,25.0,00:00:21.812,0:14:32  ,0:14:32  ,34.0,--,--,12,--,--
26.4,FREESTYLE,1,25.0,00:00:21.250,0:14:10  ,0:14:10  ,33.0,--,--,12,--,--
REST,,,0.0,00:01:28.148,--,--,0.0,--,--,--,7.113636363636363,--
27,BREASTSTROKE,2,50.0,00:00:57.914,0:19:18  ,0:19:18  ,39.0,--,--,21,10.0,14
27.1,BREASTSTROKE,1,25.0,00:00:28.937,0:19:18  ,0:19:18  ,39.0,--,--,10,--,--
27.2,BREASTSTROKE,1,25.0,00:00:29.00,0:19:20  ,0:19:20  ,40.0,--,--,11,--,--
REST,,,0.0,00:01:53.648,--,--,0.0,--,--,--,7.043478260869565,--
28,DRILL,2,50.0,00:00:48.305,--,--,0.0,--,--,--,6.8936170212765955,--
28.1,DRILL,1,25.0,00:00:24.152,--,--,--,--,--,0,--,--
28.2,DRILL,1,25.0,00:00:24.152,--,--,--,--,--,0,--,--
REST,,,0.0,00:02:05.445,--,--,0.0,--,--,--,6.8936170212765955,--
29,BACKSTROKE,1,25.0,00:00:26.430,0:17:40  ,0:17:40  ,38.0,--,--,11,11.0,5
29.1,BACKSTROKE,1,25.0,00:00:26.500,0:17:40  ,0:17:40  ,38.0,--,--,11,--,--
REST,,,0.0,00:00:28.70,--,--,0.0,--,--,--,6.979166666666667,--
30,BACKSTROKE,1,25.0,00:00:23.188,0:15:30  ,0:15:30  ,30.0,--,--,7,7.0,5
30.1,BACKSTROKE,1,25.0,00:00:23.250,0:15:30  ,0:15:30  ,30.0,--,--,7,--,--
REST,,,0.0,00:02:10.875,--,--,0.0,--,--,--,6.979591836734694,--
31,DRILL,1,25.0,00:00:26.117,--,--,0.0,--,--,--,6.84,--
31.1,DRILL,1,25.0,00:00:26.117,--,--,--,--,--,0,--,--
REST,,,0.0,00:00:19.820,--,--,0.0,--,--,--,6.84,--
32,DRILL,1,25.0,00:00:29.836,--,--,0.0,--,--,--,6.705882352941177,--
32.1,DRILL,1,25.0,00:00:29.836,--,--,--,--,--,0,--,--
REST,,,0.0,00:01:38.39,--,--,0.0,--,--,--,6.705882352941177,--
33,DRILL,1,25.0,00:00:28.70,--,--,0.0,--,--,--,6.576923076923077,--
33.1,DRILL,1,25.0,00:00:28.70,--,--,--,--,--,0,--,--
REST,,,0.0,00:01:08.242,--,--,0.0,--,--,--,6.576923076923077,--
34,DRILL,1,25.0,00:00:27.477,--,--,0.0,--,--,--,6.518518518518518,--
34.1,DRILL,1,25.0,00:00:27.477,--,--,--,--,--,0,--,--
REST,,,0.0,00:02:39.898,--,--,0.0,--,--,--,6.518518518518518,--
35,FREESTYLE,2,50.0,00:00:38.78,0:12:42  ,0:12:27  ,29.0,--,--,20,10.0,10
35.1,FREESTYLE,1,25.0,00:00:18.687,0:12:27  ,0:12:27  ,29.0,--,--,10,--,--
35.2,FREESTYLE,1,25.0,00:00:19.437,0:12:57  ,0:12:57  ,29.0,--,--,10,--,--
REST,,,0.0,00:00:54.172,--,--,0.0,--,--,--,6.625,--
36,FREESTYLE,2,50.0,00:00:37.70,0:12:21  ,0:11:02  ,28.0,--,--,19,9.0,10
36.1,FREESTYLE,1,25.0,00:00:20.500,0:13:40  ,0:13:40  ,30.0,--,--,9,--,--
36.2,FREESTYLE,1,25.0,00:00:16.562,0:11:02  ,0:11:02  ,27.0,--,--,10,--,--
REST,,,0.0,00:11:06.930,--,--,0.0,--,--,--,6.684210526315789,--
37,DRILL,1,25.0,00:00:22.164,--,--,0.0,--,--,--,6.568965517241379,--
37.1,DRILL,1,25.0,00:00:22.164,--,--,--,--,--,0,--,--
REST,,,0.0,00:00:26.23,--,--,0.0,--,--,--,6.568965517241379,--
38,DRILL,1,25.0,00:00:23.180,--,--,0.0,--,--,--,6.4576271186440675,--
38.1,DRILL,1,25.0,00:00:23.180,--,--,--,--,--,0,--,--
REST,,,0.0,00:00:54.08,--,--,0.0,--,--,--,6.4576271186440675,--
39,DRILL,1,25.0,00:00:22.78,--,--,0.0,--,--,--,6.35,--
39.1,DRILL,1,25.0,00:00:22.78,--,--,--,--,--,0,--,--
REST,,,0.0,00:02:01.797,--,--,0.0,--,--,--,6.35,--
40,DRILL,1,25.0,00:00:22.906,--,--,0.0,--,--,--,6.245901639344262,--
40.1,DRILL,1,25.0,00:00:22.906,--,--,--,--,--,0,--,--
REST,,,0.0,00:01:03.906,--,--,0.0,--,--,--,6.245901639344262,--
41,DRILL,1,25.0,00:00:24.406,--,--,0.0,--,--,--,6.145161290322581,--
41.1,DRILL,1,25.0,00:00:24.406,--,--,--,--,--,0,--,--
REST,,,0.0,00:00:10.531,--,--,0.0,--,--,--,6.145161290322581,--
42,DRILL,1,25.0,00:00:22.445,--,--,0.0,--,--,--,6.0476190476190474,--
42.1,DRILL,1,25.0,00:00:22.445,--,--,--,--,--,0,--,--
REST,,,0.0,00:00:56.930,--,--,0.0,--,--,--,6.0476190476190474,--
43,DRILL,1,25.0,00:00:23.492,--,--,0.0,--,--,--,5.953125,--
43.1,DRILL,1,25.0,00:00:23.492,--,--,--,--,--,0,--,--
REST,,,0.0,00:00:51.633,--,--,0.0,--,--,--,5.953125,--
44,DRILL,1,25.0,00:00:21.313,--,--,0.0,--,--,--,5.924242424242424,--
44.1,DRILL,1,25.0,00:00:21.313,--,--,--,--,--,0,--,--
REST,,,0.0,00:02:03.250,--,--,0.0,--,--,--,5.924242424242424,--
45,FREESTYLE,2,50.0,00:00:40.836,0:13:37  ,0:13:27  ,31.0,--,--,21,10.0,10
45.1,FREESTYLE,1,25.0,00:00:20.187,0:13:27  ,0:13:27  ,30.0,--,--,10,--,--
45.2,FREESTYLE,1,25.0,00:00:20.687,0:13:47  ,0:13:47  ,32.0,--,--,11,--,--
REST,,,0.0,00:01:09.602,--,--,0.0,--,--,--,6.0,--
46,BREASTSTROKE,1,25.0,00:00:25.516,0:17:00  ,0:17:00  ,37.0,--,--,11,11.0,7
46.1,BREASTSTROKE,1,25.0,00:00:25.500,0:17:00  ,0:17:00  ,37.0,--,--,11,--,--
REST,,,0.0,00:00:30.484,--,--,0.0,--,--,--,6.073529411764706,--
47,BREASTSTROKE,1,25.0,00:00:24.195,0:16:07  ,0:16:08  ,35.0,--,--,11,11.0,7
47.1,BREASTSTROKE,1,25.0,00:00:24.187,0:16:08  ,0:16:08  ,35.0,--,--,11,--,--
Summary,,69,1725.0,01:33:02.195,0:53:56  ,0:11:02  ,31.0,--,--,424,10.300000190734863,374
