Split,Swim Stroke,Lengths,Distance,Time,Avg Pace,Best Pace,Avg SWOLF,Avg Power,Max Power,Total Strokes,Avg Strokes,Calories
1,FREESTYLE,4,200.0,00:03:18.516,0:15:39  ,0:13:59  ,72.0,--,--,102,25.0,37
1.1,FREESTYLE,1,50.0,00:00:41.968,0:13:59  ,0:13:59  ,64.0,--,--,22,--,--
1.2,FREESTYLE,1,50.0,00:00:41.968,0:13:59  ,0:13:59  ,65.0,--,--,23,--,--
1.3,FREESTYLE,1,50.0,00:00:52.00,0:17:19  ,0:17:19  ,80.0,--,--,28,--,--
1.4,FREESTYLE,1,50.0,00:00:52.00,0:17:19  ,0:17:19  ,81.0,--,--,29,--,--
REST,,,0.0,00:01:39.641,--,--,0.0,--,--,--,25.0,--
2,FREESTYLE,2,100.0,00:01:31.320,0:13:33  ,0:12:39  ,63.0,--,--,45,22.0,18
2.1,FREESTYLE,1,50.0,00:00:43.375,0:14:28  ,0:14:28  ,66.0,--,--,23,--,--
2.2,FREESTYLE,1,50.0,00:00:37.937,0:12:39  ,0:12:39  ,60.0,--,--,22,--,--
REST,,,0.0,00:06:26.367,--,--,0.0,--,--,--,24.5,--
3,BUTTERFLY,1,50.0,00:00:47.617,0:15:53  ,0:15:54  ,71.0,--,--,23,23.0,11
3.1,BUTTERFLY,1,50.0,00:00:47.687,0:15:54  ,0:15:54  ,71.0,--,--,23,--,--
REST,,,0.0,00:01:31.945,--,--,0.0,--,--,--,24.285714285714285,--
4,BUTTERFLY,1,50.0,00:00:49.39,0:11:59  ,0:12:00  ,55.0,--,--,19,19.0,14
4.1,BUTTERFLY,1,50.0,00:00:36.00,0:12:00  ,0:12:00  ,55.0,--,--,19,--,--
REST,,,0.0,00:04:27.898,--,--,0.0,--,--,--,23.625,--
5,BUTTERFLY,1,50.0,00:00:48.164,0:16:03  ,0:16:04  ,70.0,--,--,22,22.0,9
5.1,BUTTERFLY,1,50.0,00:00:48.187,0:16:04  ,0:16:04  ,70.0,--,--,22,--,--
REST,,,0.0,00:01:05.86,--,--,0.0,--,--,--,23.444444444444443,--
6,BUTTERFLY,1,50.0,00:00:48.461,0:13:41  ,0:13:41  ,61.0,--,--,20,20.0,9
6.1,BUTTERFLY,1,50.0,00:00:41.62,0:13:41  ,0:13:41  ,61.0,--,--,20,--,--
REST,,,0.0,00:03:38.164,--,--,0.0,--,--,--,23.1,--
7,BREASTSTROKE,1,50.0,00:00:55.438,0:13:31  ,0:13:31  ,60.0,--,--,19,19.0,14
7.1,BREASTSTROKE,1,50.0,00:00:40.562,0:13:31  ,0:13:31  ,60.0,--,--,19,--,--
REST,,,0.0,00:00:53.688,--,--,0.0,--,--,--,22.727272727272727,--
8,BREASTSTROKE,1,50.0,00:00:57.352,0:19:08  ,0:19:08  ,85.0,--,--,28,28.0,13
8.1,BREASTSTROKE,1,50.0,00:00:57.375,0:19:08  ,0:19:08  ,85.0,--,--,28,--,--
REST,,,0.0,00:02:44.648,--,--,0.0,--,--,--,23.166666666666668,--
9,FREESTYLE,1,50.0,00:00:45.859,0:07:47  ,0:07:47  ,35.0,--,--,12,12.0,10
9.1,FREESTYLE,1,50.0,00:00:23.375,0:07:47  ,0:07:47  ,35.0,--,--,12,--,--
REST,,,0.0,00:01:11.516,--,--,0.0,--,--,--,22.307692307692307,--
10,FREESTYLE,1,50.0,00:00:43.367,0:11:17  ,0:11:17  ,53.0,--,--,19,19.0,9
10.1,FREESTYLE,1,50.0,00:00:33.875,0:11:17  ,0:11:17  ,53.0,--,--,19,--,--
REST,,,0.0,00:01:03.320,--,--,0.0,--,--,--,20.6,--
REST,,,0.0,00:00:00.898,--,--,0.0,--,--,--,20.6,--
REST,,,0.0,00:00:03.602,--,--,0.0,--,--,--,20.6,--
REST,,,0.0,00:00:08.594,--,--,0.0,--,--,--,20.6,--
REST,,,0.0,00:00:08.281,--,--,0.0,--,--,--,20.6,--
11,DRILL,2,100.0,00:01:33.367,--,--,0.0,--,--,--,19.3125,--
11.1,DRILL,1,50.0,00:00:46.683,--,--,--,--,--,0,--,--
11.2,DRILL,1,50.0,00:00:46.683,--,--,--,--,--,0,--,--
REST,,,0.0,00:02:32.70,--,--,0.0,--,--,--,19.3125,--
12,DRILL,1,50.0,00:00:44.117,--,--,0.0,--,--,--,18.176470588235293,--
12.1,DRILL,1,50.0,00:00:44.117,--,--,--,--,--,0,--,--
REST,,,0.0,00:01:56.383,--,--,0.0,--,--,--,18.176470588235293,--
13,DRILL,1,50.0,00:00:56.195,--,--,0.0,--,--,--,17.166666666666668,--
13.1,DRILL,1,50.0,00:00:56.195,--,--,--,--,--,0,--,--
REST,,,0.0,00:02:57.242,--,--,0.0,--,--,--,17.166666666666668,--
14,BACKSTROKE,1,50.0,00:01:02.00,0:20:40  ,0:20:42  ,76.0,--,--,14,14.0,11
14.1,BACKSTROKE,1,50.0,00:01:02.62,0:20:42  ,0:20:42  ,76.0,--,--,14,--,--
REST,,,0.0,00:00:23.375,--,--,0.0,--,--,--,17.0,--
15,BACKSTROKE,1,50.0,00:00:56.555,0:15:03  ,0:15:04  ,64.0,--,--,19,19.0,10
15.1,BACKSTROKE,1,50.0,00:00:45.187,0:15:04  ,0:15:04  ,64.0,--,--,19,--,--
REST,,,0.0,00:01:19.08,--,--,0.0,--,--,--,17.1,--
16,DRILL,1,50.0,00:00:52.797,--,--,0.0,--,--,--,16.285714285714285,--
16.1,DRILL,1,50.0,00:00:52.797,--,--,--,--,--,0,--,--
REST,,,0.0,00:00:49.578,--,--,0.0,--,--,--,16.285714285714285,--
17,DRILL,1,50.0,00:00:53.625,--,--,0.0,--,--,--,15.91304347826087,--
17.1,DRILL,1,50.0,00:00:53.625,--,--,--,--,--,0,--,--
REST,,,0.0,00:02:13.750,--,--,0.0,--,--,--,15.91304347826087,--
18,FREESTYLE,2,100.0,00:01:28.180,0:13:05  ,0:11:44  ,61.0,--,--,44,22.0,18
18.1,FREESTYLE,1,50.0,00:00:43.375,0:14:28  ,0:14:28  ,67.0,--,--,24,--,--
18.2,FREESTYLE,1,50.0,00:00:35.187,0:11:44  ,0:11:44  ,55.0,--,--,20,--,--
REST,,,0.0,00:02:57.320,--,--,0.0,--,--,--,16.083333333333332,--
19,BUTTERFLY,1,50.0,00:00:48.336,0:16:07  ,0:16:08  ,69.0,--,--,21,21.0,11
19.1,BUTTERFLY,1,50.0,00:00:48.375,0:16:08  ,0:16:08  ,69.0,--,--,21,--,--
REST,,,0.0,00:01:57.914,--,--,0.0,--,--,--,16.28,--
20,BUTTERFLY,1,50.0,00:00:49.70,0:16:22  ,0:16:23  ,71.0,--,--,22,22.0,9
20.1,BUTTERFLY,1,50.0,00:00:49.125,0:16:23  ,0:16:23  ,71.0,--,--,22,--,--
REST,,,0.0,00:03:29.617,--,--,0.0,--,--,--,16.77777777777778,--
21,FREESTYLE,2,100.0,00:01:34.930,0:14:29  ,0:13:27  ,67.0,--,--,47,23.0,18
21.1,FREESTYLE,1,50.0,00:00:46.562,0:15:31  ,0:15:31  ,71.0,--,--,24,--,--
21.2,FREESTYLE,1,50.0,00:00:40.375,0:13:27  ,0:13:27  ,63.0,--,--,23,--,--
Summary,,28,1400.0,01:08:44.944,0:49:06  ,0:07:47  ,66.0,--,--,476,21.600000381469727,281
