Split,Swim Stroke,Lengths,Distance,Time,Avg Pace,Best Pace,Avg SWOLF,Avg Power,Max Power,Total Strokes,Avg Strokes,Calories
1,FREESTYLE,3,150.0,00:02:17.578,0:15:19  ,0:14:00  ,62.0,--,--,48,16.0,27
1.1,FREESTYLE,1,50.0,00:00:42.00,0:14:00  ,0:14:00  ,55.0,--,--,13,--,--
1.2,FREESTYLE,1,50.0,00:00:46.312,0:15:26  ,0:15:26  ,59.0,--,--,13,--,--
1.3,FREESTYLE,1,50.0,00:00:49.625,0:16:33  ,0:16:33  ,72.0,--,--,22,--,--
REST,,,0.0,00:00:32.797,--,--,0.0,--,--,--,16.75,--
2,FREESTYLE,2,100.0,00:01:33.219,0:15:32  ,0:15:25  ,65.0,--,--,38,19.0,18
2.1,FREESTYLE,1,50.0,00:00:47.00,0:15:40  ,0:15:40  ,66.0,--,--,19,--,--
2.2,FREESTYLE,1,50.0,00:00:46.250,0:15:25  ,0:15:25  ,65.0,--,--,19,--,--
REST,,,0.0,00:00:12.531,--,--,0.0,--,--,--,17.2,--
3,BREASTSTROKE,1,50.0,00:01:00.516,0:20:10  ,0:20:12  ,86.0,--,--,25,25.0,13
3.1,BREASTSTROKE,1,50.0,00:01:00.562,0:20:12  ,0:20:12  ,86.0,--,--,25,--,--
REST,,,0.0,00:00:08.297,--,--,0.0,--,--,--,19.142857142857142,--
4,FREESTYLE,2,100.0,00:01:31.508,0:15:15  ,0:14:50  ,69.0,--,--,47,23.0,18
4.1,FREESTYLE,1,50.0,00:00:44.500,0:14:50  ,0:14:50  ,68.0,--,--,23,--,--
4.2,FREESTYLE,1,50.0,00:00:47.62,0:15:41  ,0:15:41  ,71.0,--,--,24,--,--
REST,,,0.0,00:00:38.55,--,--,0.0,--,--,--,19.75,--
5,FREESTYLE,1,50.0,00:00:42.469,0:14:08  ,0:14:08  ,65.0,--,--,23,23.0,9
5.1,FREESTYLE,1,50.0,00:00:42.437,0:14:08  ,0:14:08  ,65.0,--,--,23,--,--
REST,,,0.0,00:00:26.906,--,--,0.0,--,--,--,21.1,--
6,BREASTSTROKE,2,100.0,00:02:10.788,0:21:48  ,0:21:02  ,95.0,--,--,59,29.0,26
6.1,BREASTSTROKE,1,50.0,00:01:07.687,0:22:35  ,0:22:35  ,98.0,--,--,30,--,--
6.2,BREASTSTROKE,1,50.0,00:01:03.125,0:21:02  ,0:21:02  ,92.0,--,--,29,--,--
REST,,,0.0,00:00:07.961,--,--,0.0,--,--,--,21.818181818181817,--
7,FREESTYLE,1,50.0,00:00:40.203,0:13:23  ,0:13:23  ,63.0,--,--,23,23.0,9
7.1,FREESTYLE,1,50.0,00:00:40.187,0:13:23  ,0:13:23  ,63.0,--,--,23,--,--
REST,,,0.0,00:05:11.734,--,--,0.0,--,--,--,21.923076923076923,--
8,FREESTYLE,2,100.0,00:01:30.617,0:15:06  ,0:14:34  ,69.0,--,--,47,23.0,18
8.1,FREESTYLE,1,50.0,00:00:43.687,0:14:34  ,0:14:34  ,66.0,--,--,22,--,--
8.2,FREESTYLE,1,50.0,00:00:46.937,0:15:38  ,0:15:38  ,72.0,--,--,25,--,--
REST,,,0.0,00:00:09.633,--,--,0.0,--,--,--,22.666666666666668,--
9,BREASTSTROKE,2,100.0,00:02:41.727,0:26:58  ,0:26:37  ,111.0,--,--,61,30.0,24
9.1,BREASTSTROKE,1,50.0,00:01:19.750,0:26:37  ,0:26:37  ,110.0,--,--,30,--,--
9.2,BREASTSTROKE,1,50.0,00:01:22.00,0:27:22  ,0:27:22  ,113.0,--,--,31,--,--
REST,,,0.0,00:02:18.586,--,--,0.0,--,--,--,23.1875,--
10,BUTTERFLY,1,50.0,00:00:41.891,0:13:57  ,0:13:57  ,61.0,--,--,19,19.0,12
10.1,BUTTERFLY,1,50.0,00:00:41.875,0:13:57  ,0:13:57  ,61.0,--,--,19,--,--
REST,,,0.0,00:01:03.922,--,--,0.0,--,--,--,22.941176470588236,--
11,FREESTYLE,1,50.0,00:00:44.531,0:14:51  ,0:14:51  ,68.0,--,--,23,23.0,9
11.1,FREESTYLE,1,50.0,00:00:44.562,0:14:51  ,0:14:51  ,68.0,--,--,23,--,--
REST,,,0.0,00:01:01.906,--,--,0.0,--,--,--,23.0,--
12,FREESTYLE,2,100.0,00:01:26.461,0:14:25  ,0:14:24  ,67.0,--,--,48,24.0,18
12.1,FREESTYLE,1,50.0,00:00:43.187,0:14:24  ,0:14:24  ,67.0,--,--,24,--,--
12.2,FREESTYLE,1,50.0,00:00:43.312,0:14:26  ,0:14:26  ,67.0,--,--,24,--,--
REST,,,0.0,00:01:21.602,--,--,0.0,--,--,--,23.095238095238095,--
13,FREESTYLE,4,200.0,00:03:05.828,0:15:29  ,0:14:48  ,71.0,--,--,101,25.0,36
13.1,FREESTYLE,1,50.0,00:00:44.437,0:14:48  ,0:14:48  ,68.0,--,--,24,--,--
13.2,FREESTYLE,1,50.0,00:00:47.625,0:15:53  ,0:15:53  ,74.0,--,--,26,--,--
13.3,FREESTYLE,1,50.0,00:00:47.00,0:15:40  ,0:15:40  ,72.0,--,--,25,--,--
13.4,FREESTYLE,1,50.0,00:00:46.812,0:15:36  ,0:15:36  ,73.0,--,--,26,--,--
REST,,,0.0,00:07:03.359,--,--,0.0,--,--,--,23.52,--
14,FREESTYLE,2,100.0,00:01:32.906,0:15:29  ,0:14:48  ,71.0,--,--,49,24.0,18
14.1,FREESTYLE,1,50.0,00:00:48.562,0:16:11  ,0:16:11  ,75.0,--,--,26,--,--
14.2,FREESTYLE,1,50.0,00:00:44.375,0:14:48  ,0:14:48  ,67.0,--,--,23,--,--
REST,,,0.0,00:00:08.31,--,--,0.0,--,--,--,23.925925925925927,--
15,BREASTSTROKE,2,100.0,00:02:39.578,0:26:34  ,0:25:10  ,112.0,--,--,65,32.0,24
15.1,BREASTSTROKE,1,50.0,00:01:24.125,0:28:03  ,0:28:03  ,119.0,--,--,35,--,--
15.2,BREASTSTROKE,1,50.0,00:01:15.437,0:25:10  ,0:25:10  ,105.0,--,--,30,--,--
REST,,,0.0,00:07:36.922,--,--,0.0,--,--,--,24.17241379310345,--
16,FREESTYLE,2,100.0,00:01:23.742,0:13:57  ,0:13:52  ,67.0,--,--,51,25.0,18
16.1,FREESTYLE,1,50.0,00:00:41.625,0:13:52  ,0:13:52  ,67.0,--,--,25,--,--
16.2,FREESTYLE,1,50.0,00:00:42.125,0:14:03  ,0:14:03  ,68.0,--,--,26,--,--
Summary,,30,1500.0,00:53:46.453,0:17:09  ,0:13:23  ,75.0,--,--,727,24.200000762939453,297
