Split,Swim Stroke,Lengths,Distance,Time,Avg Pace,Best Pace,Avg SWOLF,Avg Power,Max Power,Total Strokes,Avg Strokes,Calories
1,FREESTYLE,8,200.0,00:03:03.211,0:15:14  ,0:14:02  ,34.0,--,--,88,10.88888888888889,40
1.1,FREESTYLE,1,25.0,00:00:21.62,0:14:02  ,0:14:02  ,31.0,--,--,10,--,--
1.2,FREESTYLE,1,25.0,00:00:21.62,0:14:02  ,0:14:02  ,32.0,--,--,11,--,--
1.3,FREESTYLE,1,25.0,00:00:22.750,0:15:10  ,0:15:10  ,33.0,--,--,10,--,--
1.4,FREESTYLE,1,25.0,00:00:23.375,0:15:35  ,0:15:35  ,35.0,--,--,12,--,--
1.5,FREESTYLE,1,25.0,00:00:24.750,0:16:30  ,0:16:30  ,37.0,--,--,12,--,--
1.6,FREESTYLE,1,25.0,00:00:24.312,0:16:12  ,0:16:12  ,35.0,--,--,11,--,--
1.7,FREESTYLE,1,25.0,00:00:22.750,0:15:10  ,0:15:10  ,34.0,--,--,11,--,--
1.8,FREESTYLE,1,25.0,00:00:22.687,0:15:08  ,0:15:08  ,34.0,--,--,11,--,--
REST,,,0.0,00:01:23.695,--,--,--,--,--,--,--,--
2,FREESTYLE,8,200.0,00:03:05.563,0:15:27  ,0:14:08  ,35.0,--,--,89,11.125,40
2.1,FREESTYLE,1,25.0,00:00:21.437,0:14:17  ,0:14:17  ,31.0,--,--,10,--,--
2.2,FREESTYLE,1,25.0,00:00:22.875,0:15:15  ,0:15:15  ,34.0,--,--,11,--,--
2.3,FREESTYLE,1,25.0,00:00:23.562,0:15:42  ,0:15:42  ,35.0,--,--,11,--,--
2.4,FREESTYLE,1,25.0,00:00:23.250,0:15:30  ,0:15:30  ,35.0,--,--,12,--,--
2.5,FREESTYLE,1,25.0,00:00:23.687,0:15:47  ,0:15:47  ,36.0,--,--,12,--,--
2.6,FREESTYLE,1,25.0,00:00:24.62,0:16:03  ,0:16:03  ,34.0,--,--,10,--,--
2.7,FREESTYLE,1,25.0,00:00:25.500,0:17:00  ,0:17:00  ,39.0,--,--,13,--,--
2.8,FREESTYLE,1,25.0,00:00:21.187,0:14:08  ,0:14:08  ,31.0,--,--,10,--,--
REST,,,0.0,00:01:11.813,--,--,--,--,--,--,--,--
3,BUTTERFLY,4,100.0,00:01:42.523,0:17:05  ,0:15:27  ,38.0,--,--,42,11.0,20
3.1,BUTTERFLY,1,25.0,00:00:24.625,0:16:25  ,0:16:25  ,35.0,--,--,10,--,--
3.2,BUTTERFLY,1,25.0,00:00:26.750,0:17:50  ,0:17:50  ,39.0,--,--,12,--,--
3.3,BUTTERFLY,1,25.0,00:00:28.00,0:18:41  ,0:18:41  ,39.0,--,--,11,--,--
3.4,BUTTERFLY,1,25.0,00:00:23.187,0:15:27  ,0:15:27  ,32.0,--,--,9,--,--
REST,,,0.0,00:01:10.914,--,--,--,--,--,--,--,--
4,BREASTSTROKE,4,100.0,00:02:04.867,0:20:48  ,0:20:07  ,44.0,--,--,51,13.0,27
4.1,BREASTSTROKE,1,25.0,00:00:30.250,0:20:10  ,0:20:10  ,42.0,--,--,12,--,--
4.2,BREASTSTROKE,1,25.0,00:00:30.187,0:20:07  ,0:20:07  ,42.0,--,--,12,--,--
4.3,BREASTSTROKE,1,25.0,00:00:34.125,0:22:46  ,0:22:46  ,48.0,--,--,14,--,--
4.4,BREASTSTROKE,1,25.0,00:00:30.312,0:20:13  ,0:20:13  ,43.0,--,--,13,--,--
REST,,,0.0,00:00:26.383,--,--,--,--,--,--,--,--
5,BUTTERFLY,1,25.0,00:00:19.852,0:13:14  ,0:13:15  ,29.0,--,--,9,9.0,6
5.1,BUTTERFLY,1,25.0,00:00:19.875,0:13:15  ,0:13:15  ,29.0,--,--,9,--,--
REST,,,0.0,00:00:41.773,--,--,--,--,--,--,--,--
6,BUTTERFLY,1,25.0,00:00:20.141,0:13:25  ,0:13:25  ,28.0,--,--,8,8.0,6
6.1,BUTTERFLY,1,25.0,00:00:20.125,0:13:25  ,0:13:25  ,28.0,--,--,8,--,--
REST,,,0.0,00:01:05.483,--,--,--,--,--,--,--,--
7,BUTTERFLY,1,25.0,00:00:19.672,0:13:07  ,0:13:08  ,28.0,--,--,8,8.0,6
7.1,BUTTERFLY,1,25.0,00:00:19.687,0:13:08  ,0:13:08  ,28.0,--,--,8,--,--
REST,,,0.0,00:00:58.203,--,--,--,--,--,--,--,--
8,BUTTERFLY,1,25.0,00:00:18.742,0:12:32  ,0:12:33  ,34.0,--,--,9,10.0,7
8.1,BUTTERFLY,1,25.0,00:00:18.812,0:12:33  ,0:12:33  ,28.0,--,--,9,--,--
REST,,,0.0,00:00:46.445,--,--,--,--,--,--,--,--
9,BACKSTROKE,2,50.0,00:00:57.266,0:19:06  ,0:18:51  ,39.0,--,--,21,5.0,10
9.1,BACKSTROKE,1,25.0,00:00:28.250,0:18:51  ,0:18:51  ,39.0,--,--,11,--,--
9.2,BACKSTROKE,1,25.0,00:00:29.62,0:19:22  ,0:19:22  ,39.0,--,--,10,--,--
REST,,,0.0,00:00:42.609,--,--,--,--,--,--,--,--
10,DRILL,2,50.0,00:00:41.750,--,--,--,--,--,--,0.0,--
10.1,DRILL,1,25.0,00:00:20.875,--,--,--,--,--,0,--,--
10.2,DRILL,1,25.0,00:00:20.875,--,--,--,--,--,0,--,--
REST,,,0.0,00:00:32.625,--,--,--,--,--,--,--,--
11,DRILL,2,50.0,00:00:41.719,--,--,--,--,--,--,0.0,--
11.1,DRILL,1,25.0,00:00:20.859,--,--,--,--,--,0,--,--
11.2,DRILL,1,25.0,00:00:20.859,--,--,--,--,--,0,--,--
REST,,,0.0,00:00:27.219,--,--,--,--,--,--,--,--
12,DRILL,2,50.0,00:00:42.844,--,--,--,--,--,--,0.0,--
12.1,DRILL,1,25.0,00:00:21.422,--,--,--,--,--,0,--,--
12.2,DRILL,1,25.0,00:00:21.422,--,--,--,--,--,0,--,--
REST,,,0.0,00:00:54.906,--,--,--,--,--,--,--,--
13,DRILL,2,50.0,00:00:40.914,--,--,33.0,--,--,--,5.0,--
13.1,DRILL,1,25.0,00:00:20.457,--,--,--,--,--,0,--,--
13.2,DRILL,1,25.0,00:00:20.457,--,--,--,--,--,0,--,--
REST,,,0.0,00:00:51.273,--,--,--,--,--,--,--,--
14,BUTTERFLY,2,50.0,00:00:45.313,0:15:07  ,0:14:48  ,31.0,--,--,19,9.0,12
14.1,BUTTERFLY,1,25.0,00:00:23.187,0:15:27  ,0:15:27  ,33.0,--,--,10,--,--
14.2,BUTTERFLY,1,25.0,00:00:22.187,0:14:48  ,0:14:48  ,31.0,--,--,9,--,--
REST,,,0.0,00:01:04.250,--,--,--,--,--,--,--,--
15,BUTTERFLY,1,25.0,00:00:19.359,0:12:55  ,0:12:55  ,27.0,--,--,8,8.0,7
15.1,BUTTERFLY,1,25.0,00:00:19.375,0:12:55  ,0:12:55  ,27.0,--,--,8,--,--
REST,,,0.0,00:00:52.141,--,--,--,--,--,--,--,--
16,BUTTERFLY,1,25.0,00:00:20.180,0:13:27  ,0:13:27  ,33.0,--,--,8,9.0,6
16.1,BUTTERFLY,1,25.0,00:00:20.187,0:13:27  ,0:13:27  ,28.0,--,--,8,--,--
REST,,,0.0,00:00:29.570,--,--,--,--,--,--,--,--
17,BACKSTROKE,2,50.0,00:00:55.211,0:18:23  ,0:18:22  ,35.0,--,--,20,10.0,10
17.1,BACKSTROKE,1,25.0,00:00:27.625,0:18:26  ,0:18:26  ,38.0,--,--,10,--,--
17.2,BACKSTROKE,1,25.0,00:00:27.562,0:18:22  ,0:18:22  ,38.0,--,--,10,--,--
REST,,,0.0,00:01:07.602,--,--,--,--,--,--,--,--
18,FREESTYLE,4,100.0,00:01:31.109,0:15:11  ,0:14:05  ,33.0,--,--,43,10.25,20
18.1,FREESTYLE,1,25.0,00:00:21.125,0:14:05  ,0:14:05  ,31.0,--,--,10,--,--
18.2,FREESTYLE,1,25.0,00:00:23.375,0:15:35  ,0:15:35  ,35.0,--,--,12,--,--
18.3,FREESTYLE,1,25.0,00:00:24.437,0:16:17  ,0:16:17  ,35.0,--,--,11,--,--
18.4,FREESTYLE,1,25.0,00:00:22.187,0:14:48  ,0:14:48  ,32.0,--,--,10,--,--
REST,,,0.0,00:01:52.953,--,--,--,--,--,--,--,--
19,BUTTERFLY,2,50.0,00:00:41.500,0:13:51  ,0:13:03  ,31.0,--,--,17,9.0,12
19.1,BUTTERFLY,1,25.0,00:00:19.562,0:13:03  ,0:13:03  ,28.0,--,--,8,--,--
19.2,BUTTERFLY,1,25.0,00:00:22.00,0:14:40  ,0:14:40  ,31.0,--,--,9,--,--
REST,,,0.0,00:01:01.625,--,--,--,--,--,--,--,--
20,BUTTERFLY,1,25.0,00:00:19.594,0:13:04  ,0:13:05  ,28.0,--,--,8,8.0,6
20.1,BUTTERFLY,1,25.0,00:00:19.625,0:13:05  ,0:13:05  ,28.0,--,--,8,--,--
REST,,,0.0,00:01:13.906,--,--,--,--,--,--,--,--
21,BUTTERFLY,1,25.0,00:00:19.859,0:13:14  ,0:13:15  ,30.0,--,--,7,8.5,6
21.1,BUTTERFLY,1,25.0,00:00:19.875,0:13:15  ,0:13:15  ,27.0,--,--,7,--,--
REST,,,0.0,00:00:37.516,--,--,--,--,--,--,--,--
22,FREESTYLE,4,100.0,00:01:30.211,0:15:02  ,0:14:25  ,34.0,--,--,44,11.25,20
22.1,FREESTYLE,1,25.0,00:00:21.625,0:14:25  ,0:14:25  ,32.0,--,--,10,--,--
22.2,FREESTYLE,1,25.0,00:00:22.375,0:14:55  ,0:14:55  ,32.0,--,--,10,--,--
22.3,FREESTYLE,1,25.0,00:00:23.500,0:15:40  ,0:15:40  ,36.0,--,--,12,--,--
22.4,FREESTYLE,1,25.0,00:00:22.750,0:15:10  ,0:15:10  ,35.0,--,--,12,--,--
REST,,,0.0,00:00:49.852,--,--,--,--,--,--,--,--
23,FREESTYLE,4,100.0,00:01:34.492,0:15:45  ,0:14:50  ,36.0,--,--,45,8.5,20
23.1,FREESTYLE,1,25.0,00:00:22.250,0:14:50  ,0:14:50  ,33.0,--,--,11,--,--
23.2,FREESTYLE,1,25.0,00:00:24.875,0:16:35  ,0:16:35  ,37.0,--,--,12,--,--
23.3,FREESTYLE,1,25.0,00:00:24.687,0:16:28  ,0:16:28  ,36.0,--,--,11,--,--
23.4,FREESTYLE,1,25.0,00:00:22.687,0:15:08  ,0:15:08  ,34.0,--,--,11,--,--
REST,,,0.0,00:01:41.570,--,--,--,--,--,--,--,--
24,DRILL,2,50.0,00:00:40.742,--,--,--,--,--,--,0.0,--
24.1,DRILL,1,25.0,00:00:20.371,--,--,--,--,--,0,--,--
24.2,DRILL,1,25.0,00:00:20.371,--,--,--,--,--,0,--,--
REST,,,0.0,00:00:36.133,--,--,--,--,--,--,--,--
25,DRILL,2,50.0,00:00:41.383,--,--,--,--,--,--,0.0,--
25.1,DRILL,1,25.0,00:00:20.691,--,--,--,--,--,0,--,--
25.2,DRILL,1,25.0,00:00:20.691,--,--,--,--,--,0,--,--
REST,,,0.0,00:00:31.117,--,--,--,--,--,--,--,--
26,DRILL,4,100.0,00:01:24.625,--,--,--,--,--,--,0.0,--
26.1,DRILL,1,25.0,00:00:21.156,--,--,--,--,--,0,--,--
26.2,DRILL,1,25.0,00:00:21.156,--,--,--,--,--,0,--,--
26.3,DRILL,1,25.0,00:00:21.156,--,--,--,--,--,0,--,--
26.4,DRILL,1,25.0,00:00:21.156,--,--,--,--,--,0,--,--
REST,,,0.0,00:36:36.125,--,--,--,--,--,--,--,--
REST,,,0.0,00:00:01.172,--,--,--,--,--,--,--,--
Summary,,68,1700.0,01:25:52.430,0:15:45  ,0:12:33  ,34.0,--,--,544,8.0,281
