Split,Swim Stroke,Lengths,Distance,Time,Avg Pace,Best Pace,Avg SWOLF,Avg Power,Max Power,Total Strokes,Avg Strokes,Calories
1,FREESTYLE,2,100.0,00:01:33.156,0:13:36  ,0:12:10  ,62.0,--,--,42,21.0,18
1.1,FREESTYLE,1,50.0,00:00:45.125,0:15:02  ,0:15:02  ,69.0,--,--,24,--,--
1.2,FREESTYLE,1,50.0,00:00:36.500,0:12:10  ,0:12:10  ,55.0,--,--,18,--,--
REST,,,0.0,00:00:59.656,--,--,0.0,--,--,--,21.0,--
2,BUTTERFLY,1,50.0,00:00:51.781,0:17:16  ,0:17:16  ,73.0,--,--,21,21.0,10
2.1,BUTTERFLY,1,50.0,00:00:51.812,0:17:16  ,0:17:16  ,73.0,--,--,21,--,--
REST,,,0.0,00:01:45.844,--,--,0.0,--,--,--,21.0,--
3,BACKSTROKE,1,50.0,00:00:58.78,0:15:59  ,0:16:00  ,67.0,--,--,19,19.0,10
3.1,BACKSTROKE,1,50.0,00:00:48.00,0:16:00  ,0:16:00  ,67.0,--,--,19,--,--
REST,,,0.0,00:01:30.922,--,--,0.0,--,--,--,20.5,--
4,FREESTYLE,1,50.0,00:00:45.328,0:15:06  ,0:15:06  ,68.0,--,--,23,23.0,9
4.1,FREESTYLE,1,50.0,00:00:45.312,0:15:06  ,0:15:06  ,68.0,--,--,23,--,--
REST,,,0.0,00:00:22.797,--,--,0.0,--,--,--,21.0,--
5,FREESTYLE,1,50.0,00:00:48.711,0:12:09  ,0:12:10  ,54.0,--,--,17,17.0,9
5.1,FREESTYLE,1,50.0,00:00:36.500,0:12:10  ,0:12:10  ,54.0,--,--,17,--,--
REST,,,0.0,00:00:18.602,--,--,0.0,--,--,--,21.142857142857142,--
6,BREASTSTROKE,2,100.0,00:02:04.125,0:20:40  ,0:20:25  ,88.0,--,--,53,26.0,26
6.1,BREASTSTROKE,1,50.0,00:01:01.250,0:20:25  ,0:20:25  ,87.0,--,--,26,--,--
6.2,BREASTSTROKE,1,50.0,00:01:02.875,0:20:57  ,0:20:57  ,90.0,--,--,27,--,--
REST,,,0.0,00:00:32.938,--,--,0.0,--,--,--,21.77777777777778,--
7,FREESTYLE,4,200.0,00:03:29.641,0:16:55  ,0:15:24  ,75.0,--,--,96,24.0,36
7.1,FREESTYLE,1,50.0,00:00:50.812,0:16:56  ,0:16:56  ,72.0,--,--,21,--,--
7.2,FREESTYLE,1,50.0,00:00:53.00,0:17:40  ,0:17:40  ,79.0,--,--,26,--,--
7.3,FREESTYLE,1,50.0,00:00:53.00,0:17:40  ,0:17:40  ,80.0,--,--,27,--,--
7.4,FREESTYLE,1,50.0,00:00:46.187,0:15:24  ,0:15:24  ,68.0,--,--,22,--,--
REST,,,0.0,00:02:10.172,--,--,0.0,--,--,--,22.615384615384617,--
8,FREESTYLE,2,100.0,00:01:35.758,0:14:13  ,0:12:24  ,63.0,--,--,42,21.0,18
8.1,FREESTYLE,1,50.0,00:00:48.187,0:16:04  ,0:16:04  ,71.0,--,--,23,--,--
8.2,FREESTYLE,1,50.0,00:00:37.187,0:12:24  ,0:12:24  ,56.0,--,--,19,--,--
REST,,,0.0,00:00:27.430,--,--,0.0,--,--,--,22.933333333333334,--
9,BREASTSTROKE,2,100.0,00:02:09.366,0:21:33  ,0:20:30  ,94.0,--,--,59,29.0,26
9.1,BREASTSTROKE,1,50.0,00:01:07.937,0:22:40  ,0:22:40  ,99.0,--,--,31,--,--
9.2,BREASTSTROKE,1,50.0,00:01:01.500,0:20:30  ,0:20:30  ,90.0,--,--,28,--,--
REST,,,0.0,00:00:51.70,--,--,0.0,--,--,--,23.529411764705884,--
10,BREASTSTROKE,2,100.0,00:02:14.609,0:22:25  ,0:22:24  ,95.0,--,--,55,27.0,26
10.1,BREASTSTROKE,1,50.0,00:01:07.437,0:22:29  ,0:22:29  ,95.0,--,--,28,--,--
10.2,BREASTSTROKE,1,50.0,00:01:07.187,0:22:24  ,0:22:24  ,94.0,--,--,27,--,--
REST,,,0.0,00:01:01.641,--,--,0.0,--,--,--,23.789473684210527,--
11,FREESTYLE,2,100.0,00:01:33.609,0:13:38  ,0:12:05  ,63.0,--,--,45,22.0,18
11.1,FREESTYLE,1,50.0,00:00:45.562,0:15:11  ,0:15:11  ,71.0,--,--,25,--,--
11.2,FREESTYLE,1,50.0,00:00:36.250,0:12:05  ,0:12:05  ,56.0,--,--,20,--,--
Summary,,20,1000.0,00:28:05.531,0:17:01  ,0:12:05  ,75.0,--,--,472,23.600000381469727,206
