Split,Swim Stroke,Lengths,Distance,Time,Avg Pace,Best Pace,Avg SWOLF,Avg Power,Max Power,Total Strokes,Avg Strokes,Calories
1,BUTTERFLY,1,25.0,00:00:20.719,0:13:34  ,0:13:35  ,29.0,--,--,9,9.0,6
1.1,BUTTERFLY,1,25.0,00:00:20.375,0:13:35  ,0:13:35  ,29.0,--,--,9,--,--
REST,,,0.0,00:00:14.430,--,--,0.0,--,--,--,10.5,--
2,FREESTYLE,3,75.0,00:01:07.391,0:14:59  ,0:13:20  ,34.0,--,--,35,11.0,15
2.1,FREESTYLE,1,25.0,00:00:24.00,0:16:00  ,0:16:00  ,36.0,--,--,12,--,--
2.2,FREESTYLE,1,25.0,00:00:20.00,0:13:20  ,0:13:20  ,31.0,--,--,11,--,--
2.3,FREESTYLE,1,25.0,00:00:23.437,0:15:38  ,0:15:38  ,35.0,--,--,12,--,--
REST,,,0.0,00:01:16.47,--,--,0.0,--,--,--,11.0,--
3,BUTTERFLY,1,25.0,00:00:21.727,0:14:32  ,0:14:32  ,31.0,--,--,9,9.0,6
3.1,BUTTERFLY,1,25.0,00:00:21.812,0:14:32  ,0:14:32  ,31.0,--,--,9,--,--
REST,,,0.0,00:00:13.648,--,--,0.0,--,--,--,11.333333333333334,--
4,BREASTSTROKE,2,50.0,00:01:03.39,0:21:01  ,0:20:48  ,46.0,--,--,29,14.0,13
4.1,BREASTSTROKE,1,25.0,00:00:31.187,0:20:48  ,0:20:48  ,46.0,--,--,15,--,--
4.2,BREASTSTROKE,1,25.0,00:00:31.875,0:21:15  ,0:21:15  ,46.0,--,--,14,--,--
REST,,,0.0,00:00:13.773,--,--,0.0,--,--,--,11.714285714285714,--
5,BUTTERFLY,1,25.0,00:00:21.594,0:14:22  ,0:14:22  ,31.0,--,--,9,9.0,6
5.1,BUTTERFLY,1,25.0,00:00:21.562,0:14:22  ,0:14:22  ,31.0,--,--,9,--,--
REST,,,0.0,00:00:34.781,--,--,0.0,--,--,--,11.375,--
6,FREESTYLE,1,25.0,00:00:20.555,0:13:42  ,0:13:43  ,31.0,--,--,10,10.0,5
6.1,FREESTYLE,1,25.0,00:00:20.562,0:13:43  ,0:13:43  ,31.0,--,--,10,--,--
REST,,,0.0,00:00:53.633,--,--,0.0,--,--,--,11.222222222222221,--
7,FREESTYLE,1,25.0,00:00:17.422,0:11:39  ,0:11:40  ,25.0,--,--,7,7.0,5
7.1,FREESTYLE,1,25.0,00:00:17.500,0:11:40  ,0:11:40  ,25.0,--,--,7,--,--
Summary,,10,250.0,00:07:18.969,0:15:29  ,0:11:40  ,34.0,--,--,108,10.800000190734863,56
