Split,Swim Stroke,Lengths,Distance,Time,Avg Pace,Best Pace,Avg SWOLF,Avg Power,Max Power,Total Strokes,Avg Strokes,Calories
1,DRILL,16,800.0,00:14:02.984,--,--,0.0,--,--,--,0.0,--
1.1,DRILL,1,50.0,00:00:52.686,--,--,--,--,--,0,--,--
1.2,DRILL,1,50.0,00:00:52.686,--,--,--,--,--,0,--,--
1.3,DRILL,1,50.0,00:00:52.686,--,--,--,--,--,0,--,--
1.4,DRILL,1,50.0,00:00:52.686,--,--,--,--,--,0,--,--
1.5,DRILL,1,50.0,00:00:52.686,--,--,--,--,--,0,--,--
1.6,DRILL,1,50.0,00:00:52.686,--,--,--,--,--,0,--,--
1.7,DRILL,1,50.0,00:00:52.686,--,--,--,--,--,0,--,--
1.8,DRILL,1,50.0,00:00:52.686,--,--,--,--,--,0,--,--
1.9,DRILL,1,50.0,00:00:52.686,--,--,--,--,--,0,--,--
1.10,DRILL,1,50.0,00:00:52.686,--,--,--,--,--,0,--,--
1.11,DRILL,1,50.0,00:00:52.686,--,--,--,--,--,0,--,--
1.12,DRILL,1,50.0,00:00:52.686,--,--,--,--,--,0,--,--
1.13,DRILL,1,50.0,00:00:52.686,--,--,--,--,--,0,--,--
1.14,DRILL,1,50.0,00:00:52.686,--,--,--,--,--,0,--,--
1.15,DRILL,1,50.0,00:00:52.686,--,--,--,--,--,0,--,--
1.16,DRILL,1,50.0,00:00:52.686,--,--,--,--,--,0,--,--
REST,,,0.0,00:01:49.320,--,--,0.0,--,--,--,0.0,--
2,DRILL,4,200.0,00:05:13.672,--,--,0.0,--,--,--,1.0952380952380953,--
2.1,DRILL,1,50.0,00:01:18.418,--,--,--,--,--,0,--,--
2.2,DRILL,1,50.0,00:01:18.418,--,--,--,--,--,0,--,--
2.3,DRILL,1,50.0,00:01:18.418,--,--,--,--,--,0,--,--
2.4,DRILL,1,50.0,00:01:18.418,--,--,--,--,--,0,--,--
REST,,,0.0,00:01:19.578,--,--,0.0,--,--,--,1.0952380952380953,--
3,FREESTYLE,2,100.0,00:01:34.133,0:15:41  ,0:15:10  ,70.0,--,--,47,23.0,18
3.1,FREESTYLE,1,50.0,00:00:45.500,0:15:10  ,0:15:10  ,69.0,--,--,23,--,--
3.2,FREESTYLE,1,50.0,00:00:48.625,0:16:12  ,0:16:12  ,73.0,--,--,24,--,--
REST,,,0.0,00:01:56.305,--,--,0.0,--,--,--,3.0,--
4,FREESTYLE,2,100.0,00:01:31.789,0:15:19  ,0:14:39  ,70.0,--,--,48,24.0,18
4.1,FREESTYLE,1,50.0,00:00:43.937,0:14:39  ,0:14:39  ,66.0,--,--,22,--,--
4.2,FREESTYLE,1,50.0,00:00:47.937,0:15:58  ,0:15:58  ,74.0,--,--,26,--,--
REST,,,0.0,00:00:12.398,--,--,0.0,--,--,--,5.08,--
5,BREASTSTROKE,2,100.0,00:02:25.750,0:24:17  ,0:23:40  ,106.0,--,--,66,33.0,25
5.1,BREASTSTROKE,1,50.0,00:01:11.00,0:23:40  ,0:23:40  ,103.0,--,--,32,--,--
5.2,BREASTSTROKE,1,50.0,00:01:14.750,0:24:57  ,0:24:57  ,109.0,--,--,34,--,--
REST,,,0.0,00:01:08.63,--,--,0.0,--,--,--,6.814814814814815,--
6,FREESTYLE,4,200.0,00:03:09.570,0:15:47  ,0:14:57  ,72.0,--,--,99,24.0,36
6.1,FREESTYLE,1,50.0,00:00:44.875,0:14:57  ,0:14:57  ,68.0,--,--,23,--,--
6.2,FREESTYLE,1,50.0,00:00:49.312,0:16:27  ,0:16:27  ,74.0,--,--,25,--,--
6.3,FREESTYLE,1,50.0,00:00:46.187,0:15:24  ,0:15:24  ,71.0,--,--,25,--,--
6.4,FREESTYLE,1,50.0,00:00:49.187,0:16:24  ,0:16:24  ,75.0,--,--,26,--,--
REST,,,0.0,00:00:10.930,--,--,0.0,--,--,--,9.419354838709678,--
7,BREASTSTROKE,2,100.0,00:02:20.430,0:23:24  ,0:22:36  ,101.0,--,--,62,31.0,25
7.1,BREASTSTROKE,1,50.0,00:01:12.625,0:24:13  ,0:24:13  ,105.0,--,--,32,--,--
7.2,BREASTSTROKE,1,50.0,00:01:07.812,0:22:36  ,0:22:36  ,98.0,--,--,30,--,--
REST,,,0.0,00:00:26.320,--,--,0.0,--,--,--,10.484848484848484,--
8,FREESTYLE,4,200.0,00:03:26.805,0:17:14  ,0:16:19  ,77.0,--,--,102,25.0,36
8.1,FREESTYLE,1,50.0,00:00:48.937,0:16:19  ,0:16:19  ,73.0,--,--,24,--,--
8.2,FREESTYLE,1,50.0,00:00:58.125,0:19:22  ,0:19:22  ,87.0,--,--,29,--,--
8.3,FREESTYLE,1,50.0,00:00:49.62,0:16:21  ,0:16:21  ,73.0,--,--,24,--,--
8.4,FREESTYLE,1,50.0,00:00:50.687,0:16:54  ,0:16:54  ,76.0,--,--,25,--,--
REST,,,0.0,00:00:21.445,--,--,0.0,--,--,--,12.27027027027027,--
9,BREASTSTROKE,2,100.0,00:02:18.273,0:23:03  ,0:21:40  ,100.0,--,--,62,31.0,25
9.1,BREASTSTROKE,1,50.0,00:01:04.937,0:21:40  ,0:21:40  ,95.0,--,--,30,--,--
9.2,BREASTSTROKE,1,50.0,00:01:13.375,0:24:28  ,0:24:28  ,105.0,--,--,32,--,--
REST,,,0.0,00:00:11.977,--,--,0.0,--,--,--,13.076923076923077,--
10,FREESTYLE,2,100.0,00:01:38.773,0:16:28  ,0:16:01  ,74.0,--,--,50,25.0,18
10.1,FREESTYLE,1,50.0,00:00:48.62,0:16:01  ,0:16:01  ,72.0,--,--,24,--,--
10.2,FREESTYLE,1,50.0,00:00:50.750,0:16:55  ,0:16:55  ,77.0,--,--,26,--,--
Summary,,40,2000.0,00:45:18.969,0:18:26  ,0:14:39  ,82.0,--,--,536,26.799999237060547,201
