Split,Swim Stroke,Lengths,Distance,Time,Avg Pace,Best Pace,Avg SWOLF,Avg Power,Max Power,Total Strokes,Avg Strokes,Calories
1,FREESTYLE,8,400.0,00:07:07.656,0:17:48  ,0:15:04  ,79.0,--,--,211,26.0,72
1.1,FREESTYLE,1,50.0,00:00:45.187,0:15:04  ,0:15:04  ,67.0,--,--,22,--,--
1.2,FREESTYLE,1,50.0,00:00:52.62,0:17:21  ,0:17:21  ,78.0,--,--,26,--,--
1.3,FREESTYLE,1,50.0,00:01:00.62,0:20:01  ,0:20:01  ,89.0,--,--,29,--,--
1.4,FREESTYLE,1,50.0,00:00:53.250,0:17:46  ,0:17:46  ,79.0,--,--,26,--,--
1.5,FREESTYLE,1,50.0,00:00:57.687,0:19:14  ,0:19:14  ,87.0,--,--,29,--,--
1.6,FREESTYLE,1,50.0,00:00:54.00,0:18:01  ,0:18:01  ,80.0,--,--,26,--,--
1.7,FREESTYLE,1,50.0,00:00:55.00,0:18:20  ,0:18:20  ,82.0,--,--,27,--,--
1.8,FREESTYLE,1,50.0,00:00:50.250,0:16:45  ,0:16:45  ,76.0,--,--,26,--,--
REST,,,0.0,00:06:28.70,--,--,0.0,--,--,--,26.375,--
2,BUTTERFLY,1,50.0,00:00:45.688,0:15:14  ,0:15:14  ,68.0,--,--,22,22.0,12
2.1,BUTTERFLY,1,50.0,00:00:45.687,0:15:14  ,0:15:14  ,68.0,--,--,22,--,--
REST,,,0.0,00:00:14.813,--,--,0.0,--,--,--,25.88888888888889,--
3,BREASTSTROKE,1,50.0,00:01:04.617,0:21:31  ,0:21:33  ,96.0,--,--,31,31.0,13
3.1,BREASTSTROKE,1,50.0,00:01:04.625,0:21:33  ,0:21:33  ,96.0,--,--,31,--,--
REST,,,0.0,00:00:16.945,--,--,0.0,--,--,--,26.272727272727273,--
4,FREESTYLE,2,100.0,00:01:34.938,0:15:49  ,0:15:47  ,72.0,--,--,50,25.0,18
4.1,FREESTYLE,1,50.0,00:00:47.375,0:15:47  ,0:15:47  ,72.0,--,--,25,--,--
4.2,FREESTYLE,1,50.0,00:00:47.562,0:15:51  ,0:15:51  ,73.0,--,--,25,--,--
REST,,,0.0,00:00:17.250,--,--,0.0,--,--,--,26.307692307692307,--
5,FREESTYLE,2,100.0,00:01:46.727,0:17:47  ,0:17:21  ,80.0,--,--,54,27.0,18
5.1,FREESTYLE,1,50.0,00:00:54.687,0:18:14  ,0:18:14  ,83.0,--,--,28,--,--
5.2,FREESTYLE,1,50.0,00:00:52.62,0:17:21  ,0:17:21  ,78.0,--,--,26,--,--
REST,,,0.0,00:00:13.148,--,--,0.0,--,--,--,26.733333333333334,--
6,BREASTSTROKE,2,100.0,00:02:09.398,0:21:33  ,0:20:00  ,95.0,--,--,61,30.0,26
6.1,BREASTSTROKE,1,50.0,00:01:09.437,0:23:08  ,0:23:08  ,102.0,--,--,33,--,--
6.2,BREASTSTROKE,1,50.0,00:01:00.00,0:20:00  ,0:20:00  ,88.0,--,--,28,--,--
REST,,,0.0,00:00:38.852,--,--,0.0,--,--,--,26.764705882352942,--
7,FREESTYLE,2,100.0,00:01:36.711,0:16:07  ,0:16:04  ,73.0,--,--,50,25.0,18
7.1,FREESTYLE,1,50.0,00:00:48.562,0:16:11  ,0:16:11  ,75.0,--,--,26,--,--
7.2,FREESTYLE,1,50.0,00:00:48.187,0:16:04  ,0:16:04  ,72.0,--,--,24,--,--
REST,,,0.0,00:01:34.539,--,--,0.0,--,--,--,27.0,--
8,BREASTSTROKE,2,100.0,00:02:13.531,0:22:15  ,0:19:59  ,97.0,--,--,61,30.0,25
8.1,BREASTSTROKE,1,50.0,00:01:13.625,0:24:32  ,0:24:32  ,108.0,--,--,34,--,--
8.2,BREASTSTROKE,1,50.0,00:00:59.937,0:19:59  ,0:19:59  ,87.0,--,--,27,--,--
REST,,,0.0,00:03:58.406,--,--,0.0,--,--,--,26.952380952380953,--
9,MIXED,10,500.0,00:10:11.47,0:20:23  ,0:14:54  ,89.0,--,--,286,28.0,108
9.1,FREESTYLE,1,50.0,00:00:50.312,0:16:47  ,0:16:47  ,76.0,--,--,26,--,--
9.2,BREASTSTROKE,1,50.0,00:01:14.937,0:24:59  ,0:24:59  ,109.0,--,--,34,--,--
9.3,FREESTYLE,1,50.0,00:00:48.750,0:16:15  ,0:16:15  ,73.0,--,--,24,--,--
9.4,BREASTSTROKE,1,50.0,00:01:09.875,0:23:18  ,0:23:18  ,102.0,--,--,32,--,--
9.5,FREESTYLE,1,50.0,00:00:58.62,0:19:21  ,0:19:21  ,78.0,--,--,20,--,--
9.6,BREASTSTROKE,1,50.0,00:01:18.187,0:26:04  ,0:26:04  ,112.0,--,--,34,--,--
9.7,FREESTYLE,1,50.0,00:00:44.687,0:14:54  ,0:14:54  ,67.0,--,--,22,--,--
9.8,BREASTSTROKE,1,50.0,00:01:11.500,0:23:50  ,0:23:50  ,106.0,--,--,34,--,--
9.9,FREESTYLE,1,50.0,00:00:47.125,0:15:42  ,0:15:42  ,74.0,--,--,27,--,--
9.10,BREASTSTROKE,1,50.0,00:01:08.562,0:22:51  ,0:22:51  ,102.0,--,--,33,--,--
REST,,,0.0,00:01:47.578,--,--,0.0,--,--,--,27.533333333333335,--
10,FREESTYLE,1,50.0,00:00:49.55,0:16:21  ,0:16:21  ,75.0,--,--,26,26.0,9
10.1,FREESTYLE,1,50.0,00:00:49.62,0:16:21  ,0:16:21  ,75.0,--,--,26,--,--
REST,,,0.0,00:00:40.508,--,--,0.0,--,--,--,27.483870967741936,--
11,FREESTYLE,1,50.0,00:00:41.633,0:13:54  ,0:13:54  ,65.0,--,--,23,23.0,9
11.1,FREESTYLE,1,50.0,00:00:41.687,0:13:54  ,0:13:54  ,65.0,--,--,23,--,--
Summary,,32,1600.0,00:46:11.625,0:18:46  ,0:13:54  ,83.0,--,--,875,27.299999237060547,328
