Split,Swim Stroke,Lengths,Distance,Time,Avg Pace,Best Pace,Avg SWOLF,Avg Power,Max Power,Total Strokes,Avg Strokes,Calories
1,DRILL,8,400.0,00:06:48.594,--,--,0.0,--,--,--,3.4444444444444446,--
1.1,DRILL,1,50.0,00:00:51.74,--,--,--,--,--,0,--,--
1.2,DRILL,1,50.0,00:00:51.74,--,--,--,--,--,0,--,--
1.3,DRILL,1,50.0,00:00:51.74,--,--,--,--,--,0,--,--
1.4,DRILL,1,50.0,00:00:51.74,--,--,--,--,--,0,--,--
1.5,DRILL,1,50.0,00:00:51.74,--,--,--,--,--,0,--,--
1.6,DRILL,1,50.0,00:00:51.74,--,--,--,--,--,0,--,--
1.7,DRILL,1,50.0,00:00:51.74,--,--,--,--,--,0,--,--
1.8,DRILL,1,50.0,00:00:51.74,--,--,--,--,--,0,--,--
REST,,,0.0,00:00:33.531,--,--,0.0,--,--,--,3.4444444444444446,--
2,MIXED,4,200.0,00:04:31.391,0:22:36  ,0:19:47  ,96.0,--,--,114,28.0,66
2.1,BREASTSTROKE,1,50.0,00:01:09.937,0:23:20  ,0:23:20  ,101.0,--,--,31,--,--
2.2,BREASTSTROKE,1,50.0,00:01:14.749,0:24:54  ,0:24:54  ,107.0,--,--,32,--,--
2.3,BREASTSTROKE,1,50.0,00:01:07.437,0:22:29  ,0:22:29  ,95.0,--,--,28,--,--
2.4,BACKSTROKE,1,50.0,00:00:59.375,0:19:47  ,0:19:47  ,82.0,--,--,23,--,--
REST,,,0.0,00:00:15.109,--,--,0.0,--,--,--,10.76923076923077,--
3,FREESTYLE,2,100.0,00:01:40.102,0:16:42  ,0:16:04  ,75.0,--,--,50,25.0,18
3.1,FREESTYLE,1,50.0,00:00:52.00,0:17:20  ,0:17:20  ,78.0,--,--,26,--,--
3.2,FREESTYLE,1,50.0,00:00:48.187,0:16:04  ,0:16:04  ,72.0,--,--,24,--,--
REST,,,0.0,00:02:39.23,--,--,0.0,--,--,--,11.714285714285714,--
4,FREESTYLE,1,50.0,00:00:43.867,0:14:37  ,0:14:37  ,67.0,--,--,23,23.0,9
4.1,FREESTYLE,1,50.0,00:00:43.875,0:14:37  ,0:14:37  ,67.0,--,--,23,--,--
REST,,,0.0,00:00:18.633,--,--,0.0,--,--,--,13.75,--
5,BREASTSTROKE,2,100.0,00:02:19.844,0:23:18  ,0:22:18  ,100.0,--,--,61,30.0,42
5.1,BREASTSTROKE,1,50.0,00:01:12.999,0:24:19  ,0:24:19  ,106.0,--,--,33,--,--
5.2,BREASTSTROKE,1,50.0,00:01:06.875,0:22:18  ,0:22:18  ,95.0,--,--,28,--,--
REST,,,0.0,00:00:12.844,--,--,0.0,--,--,--,15.055555555555555,--
6,FREESTYLE,2,100.0,00:01:26.727,0:14:27  ,0:14:20  ,67.0,--,--,48,24.0,18
6.1,FREESTYLE,1,50.0,00:00:43.00,0:14:20  ,0:14:20  ,66.0,--,--,23,--,--
6.2,FREESTYLE,1,50.0,00:00:43.750,0:14:35  ,0:14:35  ,69.0,--,--,25,--,--
REST,,,0.0,00:02:04.211,--,--,0.0,--,--,--,15.578947368421053,--
7,FREESTYLE,1,50.0,00:00:40.734,0:13:34  ,0:13:35  ,65.0,--,--,24,24.0,9
7.1,FREESTYLE,1,50.0,00:00:40.750,0:13:35  ,0:13:35  ,65.0,--,--,24,--,--
REST,,,0.0,00:00:30.703,--,--,0.0,--,--,--,13.91304347826087,--
8,DRILL,4,200.0,00:03:25.695,--,--,0.0,--,--,--,12.8,--
8.1,DRILL,1,50.0,00:00:51.423,--,--,--,--,--,0,--,--
8.2,DRILL,1,50.0,00:00:51.423,--,--,--,--,--,0,--,--
8.3,DRILL,1,50.0,00:00:51.423,--,--,--,--,--,0,--,--
8.4,DRILL,1,50.0,00:00:51.423,--,--,--,--,--,0,--,--
REST,,,0.0,00:04:02.430,--,--,0.0,--,--,--,12.8,--
9,DRILL,2,100.0,00:01:34.820,--,--,0.0,--,--,--,13.0,--
9.1,DRILL,1,50.0,00:00:47.410,--,--,--,--,--,0,--,--
9.2,DRILL,1,50.0,00:00:47.410,--,--,--,--,--,0,--,--
REST,,,0.0,00:00:15.867,--,--,0.0,--,--,--,13.0,--
10,BREASTSTROKE,4,200.0,00:04:27.844,0:22:18  ,0:19:09  ,95.0,--,--,115,28.0,52
10.1,BREASTSTROKE,1,50.0,00:01:10.687,0:23:34  ,0:23:34  ,102.0,--,--,31,--,--
10.2,BREASTSTROKE,1,50.0,00:01:09.312,0:23:06  ,0:23:06  ,98.0,--,--,29,--,--
10.3,BREASTSTROKE,1,50.0,00:01:10.437,0:23:30  ,0:23:30  ,100.0,--,--,30,--,--
10.4,BREASTSTROKE,1,50.0,00:00:57.437,0:19:09  ,0:19:09  ,82.0,--,--,25,--,--
REST,,,0.0,00:01:26.219,--,--,0.0,--,--,--,13.181818181818182,--
11,DRILL,4,200.0,00:03:16.969,--,--,0.0,--,--,--,13.228571428571428,--
11.1,DRILL,1,50.0,00:00:49.242,--,--,--,--,--,0,--,--
11.2,DRILL,1,50.0,00:00:49.242,--,--,--,--,--,0,--,--
11.3,DRILL,1,50.0,00:00:49.242,--,--,--,--,--,0,--,--
11.4,DRILL,1,50.0,00:00:49.242,--,--,--,--,--,0,--,--
REST,,,0.0,00:01:58.594,--,--,0.0,--,--,--,13.228571428571428,--
12,BREASTSTROKE,2,100.0,00:02:39.39,0:24:30  ,0:23:56  ,100.0,--,--,54,27.0,25
12.1,BREASTSTROKE,1,50.0,00:01:15.312,0:25:08  ,0:25:08  ,103.0,--,--,28,--,--
12.2,BREASTSTROKE,1,50.0,00:01:11.750,0:23:56  ,0:23:56  ,98.0,--,--,26,--,--
Summary,,36,1800.0,00:47:53.445,0:20:19  ,0:13:35  ,88.0,--,--,489,27.200000762939453,239
