Split,Swim Stroke,Lengths,Distance,Time,Avg Pace,Best Pace,Avg SWOLF,Avg Power,Max Power,Total Strokes,Avg Strokes,Calories
REST,,,0.0,00:00:00.523,--,--,0.0,--,--,--,0.0,--
REST,,,0.0,00:00:03.328,--,--,0.0,--,--,--,0.0,--
REST,,,0.0,00:00:07.320,--,--,0.0,--,--,--,0.0,--
1,DRILL,8,400.0,00:06:32.39,--,--,0.0,--,--,--,0.0,--
1.1,DRILL,1,50.0,00:00:49.04,--,--,--,--,--,0,--,--
1.2,DRILL,1,50.0,00:00:49.04,--,--,--,--,--,0,--,--
1.3,DRILL,1,50.0,00:00:49.04,--,--,--,--,--,0,--,--
1.4,DRILL,1,50.0,00:00:49.04,--,--,--,--,--,0,--,--
1.5,DRILL,1,50.0,00:00:49.04,--,--,--,--,--,0,--,--
1.6,DRILL,1,50.0,00:00:49.04,--,--,--,--,--,0,--,--
1.7,DRILL,1,50.0,00:00:49.04,--,--,--,--,--,0,--,--
1.8,DRILL,1,50.0,00:00:49.04,--,--,--,--,--,0,--,--
REST,,,0.0,00:03:05.773,--,--,0.0,--,--,--,0.0,--
2,DRILL,8,400.0,00:06:03.383,--,--,0.0,--,--,--,1.411764705882353,--
2.1,DRILL,1,50.0,00:00:45.422,--,--,--,--,--,0,--,--
2.2,DRILL,1,50.0,00:00:45.422,--,--,--,--,--,0,--,--
2.3,DRILL,1,50.0,00:00:45.422,--,--,--,--,--,0,--,--
2.4,DRILL,1,50.0,00:00:45.422,--,--,--,--,--,0,--,--
2.5,DRILL,1,50.0,00:00:45.422,--,--,--,--,--,0,--,--
2.6,DRILL,1,50.0,00:00:45.422,--,--,--,--,--,0,--,--
2.7,DRILL,1,50.0,00:00:45.422,--,--,--,--,--,0,--,--
2.8,DRILL,1,50.0,00:00:45.422,--,--,--,--,--,0,--,--
REST,,,0.0,00:00:57.430,--,--,0.0,--,--,--,1.411764705882353,--
3,BREASTSTROKE,4,200.0,00:04:20.563,0:21:43  ,0:21:02  ,92.0,--,--,108,27.0,52
3.1,BREASTSTROKE,1,50.0,00:01:03.500,0:21:10  ,0:21:10  ,88.0,--,--,24,--,--
3.2,BREASTSTROKE,1,50.0,00:01:08.875,0:22:59  ,0:22:59  ,97.0,--,--,28,--,--
3.3,BREASTSTROKE,1,50.0,00:01:05.125,0:21:43  ,0:21:43  ,93.0,--,--,28,--,--
3.4,BREASTSTROKE,1,50.0,00:01:03.125,0:21:02  ,0:21:02  ,91.0,--,--,28,--,--
REST,,,0.0,00:01:03.750,--,--,0.0,--,--,--,6.238095238095238,--
4,FREESTYLE,2,100.0,00:01:25.234,0:14:12  ,0:14:11  ,66.0,--,--,47,23.0,18
4.1,FREESTYLE,1,50.0,00:00:42.562,0:14:11  ,0:14:11  ,66.0,--,--,23,--,--
4.2,FREESTYLE,1,50.0,00:00:42.687,0:14:13  ,0:14:13  ,67.0,--,--,24,--,--
REST,,,0.0,00:01:46.516,--,--,0.0,--,--,--,7.739130434782608,--
5,FREESTYLE,2,100.0,00:01:24.727,0:14:08  ,0:13:58  ,67.0,--,--,49,24.0,18
5.1,FREESTYLE,1,50.0,00:00:42.875,0:14:17  ,0:14:17  ,66.0,--,--,23,--,--
5.2,FREESTYLE,1,50.0,00:00:41.937,0:13:58  ,0:13:58  ,68.0,--,--,26,--,--
REST,,,0.0,00:03:18.148,--,--,0.0,--,--,--,8.5,--
6,BACKSTROKE,1,50.0,00:00:51.859,0:17:17  ,0:17:18  ,75.0,--,--,23,23.0,10
6.1,BACKSTROKE,1,50.0,00:00:51.875,0:17:18  ,0:17:18  ,75.0,--,--,23,--,--
REST,,,0.0,00:00:35.578,--,--,0.0,--,--,--,9.08,--
7,BACKSTROKE,1,50.0,00:00:49.984,0:16:40  ,0:16:40  ,73.0,--,--,23,23.0,10
7.1,BACKSTROKE,1,50.0,00:00:50.00,0:16:40  ,0:16:40  ,73.0,--,--,23,--,--
REST,,,0.0,00:00:55.16,--,--,0.0,--,--,--,9.615384615384615,--
8,BREASTSTROKE,1,50.0,00:00:56.492,0:18:51  ,0:18:52  ,81.0,--,--,24,24.0,13
8.1,BREASTSTROKE,1,50.0,00:00:56.562,0:18:52  ,0:18:52  ,81.0,--,--,24,--,--
REST,,,0.0,00:01:02.70,--,--,0.0,--,--,--,10.148148148148149,--
9,BREASTSTROKE,1,50.0,00:00:56.859,0:18:57  ,0:18:57  ,82.0,--,--,25,25.0,13
9.1,BREASTSTROKE,1,50.0,00:00:56.875,0:18:57  ,0:18:57  ,82.0,--,--,25,--,--
REST,,,0.0,00:00:16.15,--,--,0.0,--,--,--,11.137931034482758,--
10,BACKSTROKE,2,100.0,00:02:05.109,0:20:51  ,0:20:22  ,87.0,--,--,49,24.0,22
10.1,BACKSTROKE,1,50.0,00:01:01.62,0:20:22  ,0:20:22  ,85.0,--,--,24,--,--
10.2,BACKSTROKE,1,50.0,00:01:04.125,0:21:23  ,0:21:23  ,89.0,--,--,25,--,--
REST,,,0.0,00:10:30.891,--,--,0.0,--,--,--,11.6,--
11,BUTTERFLY,1,50.0,00:00:43.86,0:14:22  ,0:14:22  ,63.0,--,--,20,20.0,12
11.1,BUTTERFLY,1,50.0,00:00:43.125,0:14:22  ,0:14:22  ,63.0,--,--,20,--,--
REST,,,0.0,00:00:13.914,--,--,0.0,--,--,--,11.870967741935484,--
12,BACKSTROKE,1,50.0,00:01:09.508,0:23:10  ,0:23:12  ,95.0,--,--,25,25.0,12
12.1,BACKSTROKE,1,50.0,00:01:09.562,0:23:12  ,0:23:12  ,95.0,--,--,25,--,--
REST,,,0.0,00:02:06.180,--,--,0.0,--,--,--,10.621621621621621,--
13,DRILL,6,300.0,00:04:29.336,--,--,0.0,--,--,--,11.076923076923077,--
13.1,DRILL,1,50.0,00:00:44.889,--,--,--,--,--,0,--,--
13.2,DRILL,1,50.0,00:00:44.889,--,--,--,--,--,0,--,--
13.3,DRILL,1,50.0,00:00:44.889,--,--,--,--,--,0,--,--
13.4,DRILL,1,50.0,00:00:44.889,--,--,--,--,--,0,--,--
13.5,DRILL,1,50.0,00:00:44.889,--,--,--,--,--,0,--,--
13.6,DRILL,1,50.0,00:00:44.889,--,--,--,--,--,0,--,--
REST,,,0.0,00:00:13.852,--,--,0.0,--,--,--,11.076923076923077,--
14,BREASTSTROKE,2,100.0,00:02:48.211,0:28:03  ,0:27:06  ,121.0,--,--,74,37.0,41
14.1,BREASTSTROKE,1,50.0,00:01:27.62,0:29:02  ,0:29:02  ,126.0,--,--,39,--,--
14.2,BREASTSTROKE,1,50.0,00:01:21.187,0:27:06  ,0:27:06  ,116.0,--,--,35,--,--
Summary,,40,2000.0,01:00:53.227,0:19:29  ,0:13:58  ,84.0,--,--,467,25.899999618530273,221
