Split,Swim Stroke,Lengths,Distance,Time,Avg Pace,Best Pace,Avg SWOLF,Avg Power,Max Power,Total Strokes,Avg Strokes,Calories
1,FREESTYLE,4,100.0,00:01:32.844,0:15:24  ,0:13:35  ,33.0,--,--,42,10.4,20
1.1,FREESTYLE,1,25.0,00:00:20.875,0:13:55  ,0:13:55  ,31.0,--,--,10,--,--
1.2,FREESTYLE,1,25.0,00:00:27.250,0:18:10  ,0:18:10  ,38.0,--,--,11,--,--
1.3,FREESTYLE,1,25.0,00:00:20.375,0:13:35  ,0:13:35  ,30.0,--,--,10,--,--
1.4,FREESTYLE,1,25.0,00:00:23.937,0:15:57  ,0:15:57  ,35.0,--,--,11,--,--
REST,,,0.0,00:00:16.250,--,--,--,--,--,--,--,--
2,FREESTYLE,4,100.0,00:01:29.469,0:14:56  ,0:14:25  ,36.0,--,--,43,11.5,20
2.1,FREESTYLE,1,25.0,00:00:21.625,0:14:25  ,0:14:25  ,32.0,--,--,10,--,--
2.2,FREESTYLE,1,25.0,00:00:23.375,0:15:35  ,0:15:35  ,34.0,--,--,11,--,--
2.3,FREESTYLE,1,25.0,00:00:21.875,0:14:35  ,0:14:35  ,33.0,--,--,11,--,--
2.4,FREESTYLE,1,25.0,00:00:22.812,0:15:13  ,0:15:13  ,34.0,--,--,11,--,--
REST,,,0.0,00:00:22.219,--,--,--,--,--,--,--,--
3,BREASTSTROKE,2,50.0,00:00:59.711,0:19:54  ,0:19:20  ,37.0,--,--,26,11.5,14
3.1,BREASTSTROKE,1,25.0,00:00:30.750,0:20:30  ,0:20:30  ,44.0,--,--,13,--,--
3.2,BREASTSTROKE,1,25.0,00:00:29.00,0:19:20  ,0:19:20  ,42.0,--,--,13,--,--
REST,,,0.0,00:01:38.164,--,--,--,--,--,--,--,--
4,FREESTYLE,4,100.0,00:01:30.234,0:15:02  ,0:13:45  ,33.0,--,--,41,10.25,20
4.1,FREESTYLE,1,25.0,00:00:20.625,0:13:45  ,0:13:45  ,31.0,--,--,10,--,--
4.2,FREESTYLE,1,25.0,00:00:24.687,0:16:28  ,0:16:28  ,35.0,--,--,10,--,--
4.3,FREESTYLE,1,25.0,00:00:22.312,0:14:52  ,0:14:52  ,32.0,--,--,10,--,--
4.4,FREESTYLE,1,25.0,00:00:22.625,0:15:05  ,0:15:05  ,34.0,--,--,11,--,--
REST,,,0.0,00:00:27.641,--,--,--,--,--,--,--,--
5,FREESTYLE,4,100.0,00:01:29.563,0:14:55  ,0:14:12  ,33.0,--,--,43,10.75,20
5.1,FREESTYLE,1,25.0,00:00:21.312,0:14:12  ,0:14:12  ,31.0,--,--,10,--,--
5.2,FREESTYLE,1,25.0,00:00:24.437,0:16:17  ,0:16:17  ,36.0,--,--,12,--,--
5.3,FREESTYLE,1,25.0,00:00:22.250,0:14:50  ,0:14:50  ,33.0,--,--,11,--,--
5.4,FREESTYLE,1,25.0,00:00:21.562,0:14:22  ,0:14:22  ,32.0,--,--,10,--,--
REST,,,0.0,00:03:53.125,--,--,--,--,--,--,--,--
6,FREESTYLE,2,50.0,00:00:41.555,0:13:51  ,0:13:25  ,38.0,--,--,20,12.0,10
6.1,FREESTYLE,1,25.0,00:00:20.125,0:13:25  ,0:13:25  ,30.0,--,--,10,--,--
6.2,FREESTYLE,1,25.0,00:00:21.437,0:14:17  ,0:14:17  ,31.0,--,--,10,--,--
REST,,,0.0,00:00:20.945,--,--,--,--,--,--,--,--
7,BREASTSTROKE,2,50.0,00:00:57.289,0:19:05  ,0:17:42  ,35.0,--,--,25,10.5,14
7.1,BREASTSTROKE,1,25.0,00:00:30.687,0:20:28  ,0:20:28  ,45.0,--,--,14,--,--
7.2,BREASTSTROKE,1,25.0,00:00:26.562,0:17:42  ,0:17:42  ,38.0,--,--,11,--,--
REST,,,0.0,00:00:09.461,--,--,--,--,--,--,--,--
8,FREESTYLE,2,50.0,00:00:41.297,0:13:46  ,0:13:40  ,31.0,--,--,20,10.0,10
8.1,FREESTYLE,1,25.0,00:00:20.500,0:13:40  ,0:13:40  ,31.0,--,--,10,--,--
8.2,FREESTYLE,1,25.0,00:00:20.812,0:13:52  ,0:13:52  ,31.0,--,--,10,--,--
REST,,,0.0,00:01:33.203,--,--,--,--,--,--,--,--
9,BACKSTROKE,1,25.0,00:00:26.555,0:17:42  ,0:17:42  ,36.0,--,--,9,9.0,5
9.1,BACKSTROKE,1,25.0,00:00:26.562,0:17:42  ,0:17:42  ,36.0,--,--,9,--,--
REST,,,0.0,00:00:08.132,--,--,--,--,--,--,--,--
10,BACKSTROKE,1,25.0,00:00:31.883,0:21:15  ,0:21:15  ,38.0,--,--,9,10.0,6
10.1,BACKSTROKE,1,25.0,00:00:31.875,0:21:15  ,0:21:15  ,41.0,--,--,9,--,--
REST,,,0.0,00:00:13.930,--,--,--,--,--,--,--,--
11,FREESTYLE,2,50.0,00:00:47.328,0:15:47  ,0:15:38  ,35.0,--,--,22,11.0,10
11.1,FREESTYLE,1,25.0,00:00:23.437,0:15:38  ,0:15:38  ,34.0,--,--,11,--,--
11.2,FREESTYLE,1,25.0,00:00:23.937,0:15:57  ,0:15:57  ,35.0,--,--,11,--,--
REST,,,0.0,00:00:14.234,--,--,--,--,--,--,--,--
12,FREESTYLE,2,50.0,00:00:46.969,0:15:39  ,0:15:10  ,41.0,--,--,22,12.5,10
12.1,FREESTYLE,1,25.0,00:00:22.750,0:15:10  ,0:15:10  ,34.0,--,--,11,--,--
12.2,FREESTYLE,1,25.0,00:00:24.250,0:16:10  ,0:16:10  ,35.0,--,--,11,--,--
REST,,,0.0,00:00:10.906,--,--,--,--,--,--,--,--
13,BREASTSTROKE,2,50.0,00:01:06.742,0:22:15  ,0:21:13  ,50.0,--,--,29,7.5,12
13.1,BREASTSTROKE,1,25.0,00:00:31.812,0:21:13  ,0:21:13  ,46.0,--,--,14,--,--
13.2,BREASTSTROKE,1,25.0,00:00:34.937,0:23:18  ,0:23:18  ,50.0,--,--,15,--,--
REST,,,0.0,00:00:17.133,--,--,--,--,--,--,--,--
14,DRILL,2,50.0,00:00:45.570,--,--,--,--,--,--,0.0,--
14.1,DRILL,1,25.0,00:00:22.785,--,--,--,--,--,0,--,--
14.2,DRILL,1,25.0,00:00:22.785,--,--,--,--,--,0,--,--
REST,,,0.0,00:02:23.492,--,--,--,--,--,--,--,--
15,BUTTERFLY,1,25.0,00:00:17.898,0:11:54  ,0:11:55  ,26.0,--,--,8,8.0,7
15.1,BUTTERFLY,1,25.0,00:00:17.875,0:11:55  ,0:11:55  ,26.0,--,--,8,--,--
REST,,,0.0,00:00:21.727,--,--,--,--,--,--,--,--
16,BUTTERFLY,1,25.0,00:00:20.109,0:13:25  ,0:13:25  ,30.0,--,--,8,9.0,6
16.1,BUTTERFLY,1,25.0,00:00:20.125,0:13:25  ,0:13:25  ,28.0,--,--,8,--,--
REST,,,0.0,00:01:09.766,--,--,--,--,--,--,--,--
17,FREESTYLE,2,50.0,00:00:43.375,0:14:28  ,0:14:10  ,33.0,--,--,21,11.0,10
17.1,FREESTYLE,1,25.0,00:00:21.250,0:14:10  ,0:14:10  ,31.0,--,--,10,--,--
17.2,FREESTYLE,1,25.0,00:00:22.187,0:14:48  ,0:14:48  ,33.0,--,--,11,--,--
REST,,,0.0,00:03:16.750,--,--,--,--,--,--,--,--
18,DRILL,1,25.0,00:00:22.680,--,--,--,--,--,--,0.0,--
18.1,DRILL,1,25.0,00:00:22.680,--,--,--,--,--,0,--,--
REST,,,0.0,00:00:11.695,--,--,--,--,--,--,--,--
19,DRILL,1,25.0,00:00:24.500,--,--,33.0,--,--,--,5.5,--
19.1,DRILL,1,25.0,00:00:24.500,--,--,--,--,--,0,--,--
REST,,,0.0,00:00:28.563,--,--,--,--,--,--,--,--
20,FREESTYLE,2,50.0,00:00:43.219,0:14:23  ,0:13:50  ,30.0,--,--,21,10.0,10
20.1,FREESTYLE,1,25.0,00:00:22.437,0:14:57  ,0:14:57  ,33.0,--,--,11,--,--
20.2,FREESTYLE,1,25.0,00:00:20.750,0:13:50  ,0:13:50  ,31.0,--,--,10,--,--
REST,,,0.0,00:01:33.281,--,--,--,--,--,--,--,--
21,FREESTYLE,2,50.0,00:00:36.406,0:12:09  ,0:11:50  ,28.0,--,--,19,9.0,10
21.1,FREESTYLE,1,25.0,00:00:17.750,0:11:50  ,0:11:50  ,28.0,--,--,10,--,--
21.2,FREESTYLE,1,25.0,00:00:18.750,0:12:30  ,0:12:30  ,28.0,--,--,9,--,--
Summary,,44,1100.0,00:36:26.734,0:15:42  ,0:11:50  ,34.0,--,--,428,9.727272727272727,214
