Split,Swim Stroke,Lengths,Distance,Time,Avg Pace,Best Pace,Avg SWOLF,Avg Power,Max Power,Total Strokes,Avg Strokes,Calories
1,BREASTSTROKE,6,300.0,00:06:19.484,0:21:04  ,0:19:18  ,89.0,--,--,156,26.0,78
1.1,BREASTSTROKE,1,50.0,00:00:57.937,0:19:18  ,0:19:18  ,82.0,--,--,24,--,--
1.2,BREASTSTROKE,1,50.0,00:01:03.125,0:21:02  ,0:21:02  ,89.0,--,--,26,--,--
1.3,BREASTSTROKE,1,50.0,00:00:58.312,0:19:26  ,0:19:26  ,83.0,--,--,25,--,--
1.4,BREASTSTROKE,1,50.0,00:01:11.312,0:23:46  ,0:23:46  ,99.0,--,--,28,--,--
1.5,BREASTSTROKE,1,50.0,00:01:00.812,0:20:16  ,0:20:16  ,86.0,--,--,25,--,--
1.6,BREASTSTROKE,1,50.0,00:01:07.812,0:22:36  ,0:22:36  ,96.0,--,--,28,--,--
REST,,,0.0,00:00:38.141,--,--,--,--,--,--,--,--
2,FREESTYLE,2,100.0,00:01:38.922,0:15:09  ,0:15:09  ,70.0,--,--,45,23.333333333333332,19
2.1,FREESTYLE,1,50.0,00:00:45.468,0:15:09  ,0:15:09  ,67.0,--,--,22,--,--
2.2,FREESTYLE,1,50.0,00:00:45.468,0:15:09  ,0:15:09  ,68.0,--,--,23,--,--
REST,,,0.0,00:00:18.641,--,--,--,--,--,--,--,--
3,FREESTYLE,4,200.0,00:03:38.16,0:18:10  ,0:16:54  ,80.0,--,--,105,26.25,36
3.1,FREESTYLE,1,50.0,00:00:50.687,0:16:54  ,0:16:54  ,76.0,--,--,25,--,--
3.2,FREESTYLE,1,50.0,00:01:00.187,0:20:04  ,0:20:04  ,88.0,--,--,28,--,--
3.3,FREESTYLE,1,50.0,00:00:51.00,0:17:00  ,0:17:00  ,76.0,--,--,25,--,--
3.4,FREESTYLE,1,50.0,00:00:56.125,0:18:43  ,0:18:43  ,83.0,--,--,27,--,--
REST,,,0.0,00:01:13.172,--,--,--,--,--,--,--,--
4,FREESTYLE,2,100.0,00:01:33.625,0:15:37  ,0:15:10  ,74.0,--,--,51,26.0,18
4.1,FREESTYLE,1,50.0,00:00:45.500,0:15:10  ,0:15:10  ,71.0,--,--,25,--,--
4.2,FREESTYLE,1,50.0,00:00:48.187,0:16:04  ,0:16:04  ,74.0,--,--,26,--,--
REST,,,0.0,00:01:12.250,--,--,--,--,--,--,--,--
5,BACKSTROKE,1,50.0,00:01:07.922,0:22:40  ,0:22:40  ,91.0,--,--,23,23.0,11
5.1,BACKSTROKE,1,50.0,00:01:08.00,0:22:40  ,0:22:40  ,91.0,--,--,23,--,--
REST,,,0.0,00:00:22.391,--,--,--,--,--,--,--,--
6,BUTTERFLY,1,50.0,00:00:46.289,0:15:27  ,0:15:27  ,83.0,--,--,19,24.5,11
6.1,BUTTERFLY,1,50.0,00:00:46.375,0:15:27  ,0:15:27  ,65.0,--,--,19,--,--
REST,,,0.0,00:00:25.898,--,--,--,--,--,--,--,--
7,BREASTSTROKE,2,100.0,00:02:14.742,0:22:27  ,0:21:33  ,90.0,--,--,55,25.0,26
7.1,BREASTSTROKE,1,50.0,00:01:10.125,0:23:22  ,0:23:22  ,100.0,--,--,30,--,--
7.2,BREASTSTROKE,1,50.0,00:01:04.625,0:21:33  ,0:21:33  ,90.0,--,--,25,--,--
REST,,,0.0,00:00:12.695,--,--,--,--,--,--,--,--
8,FREESTYLE,8,400.0,00:07:09.625,0:17:54  ,0:16:20  ,84.0,--,--,224,28.22222222222222,72
8.1,FREESTYLE,1,50.0,00:00:52.875,0:17:37  ,0:17:37  ,80.0,--,--,27,--,--
8.2,FREESTYLE,1,50.0,00:00:52.875,0:17:37  ,0:17:37  ,81.0,--,--,28,--,--
8.3,FREESTYLE,1,50.0,00:00:54.312,0:18:06  ,0:18:06  ,82.0,--,--,28,--,--
8.4,FREESTYLE,1,50.0,00:00:55.125,0:18:22  ,0:18:22  ,84.0,--,--,29,--,--
8.5,FREESTYLE,1,50.0,00:00:54.00,0:18:01  ,0:18:01  ,82.0,--,--,28,--,--
8.6,FREESTYLE,1,50.0,00:00:55.187,0:18:23  ,0:18:23  ,84.0,--,--,29,--,--
8.7,FREESTYLE,1,50.0,00:00:56.312,0:18:47  ,0:18:47  ,85.0,--,--,29,--,--
8.8,FREESTYLE,1,50.0,00:00:49.00,0:16:20  ,0:16:20  ,75.0,--,--,26,--,--
REST,,,0.0,00:00:19.375,--,--,--,--,--,--,--,--
9,BREASTSTROKE,4,200.0,00:04:45.766,0:23:48  ,0:16:56  ,92.0,--,--,110,26.5,50
9.1,BREASTSTROKE,1,50.0,00:01:12.562,0:24:11  ,0:24:11  ,103.0,--,--,30,--,--
9.2,BREASTSTROKE,1,50.0,00:01:09.562,0:23:12  ,0:23:12  ,98.0,--,--,28,--,--
9.3,BREASTSTROKE,1,50.0,00:00:50.812,0:16:56  ,0:16:56  ,68.0,--,--,17,--,--
9.4,BREASTSTROKE,1,50.0,00:01:32.875,0:30:58  ,0:30:58  ,128.0,--,--,35,--,--
REST,,,0.0,00:00:25.172,--,--,--,--,--,--,--,--
10,FREESTYLE,2,100.0,00:01:40.133,0:16:41  ,0:16:12  ,82.0,--,--,52,27.5,18
10.1,FREESTYLE,1,50.0,00:00:48.625,0:16:12  ,0:16:12  ,75.0,--,--,26,--,--
10.2,FREESTYLE,1,50.0,00:00:51.500,0:17:10  ,0:17:10  ,78.0,--,--,26,--,--
REST,,,0.0,00:00:10.992,--,--,--,--,--,--,--,--
11,FREESTYLE,4,200.0,00:03:31.742,0:16:51  ,0:13:55  ,82.0,--,--,103,26.25,36
11.1,FREESTYLE,1,50.0,00:00:55.500,0:18:31  ,0:18:31  ,85.0,--,--,29,--,--
11.2,FREESTYLE,1,50.0,00:00:51.875,0:17:18  ,0:17:18  ,77.0,--,--,25,--,--
11.3,FREESTYLE,1,50.0,00:00:53.00,0:17:40  ,0:17:40  ,81.0,--,--,28,--,--
11.4,FREESTYLE,1,50.0,00:00:41.750,0:13:55  ,0:13:55  ,63.0,--,--,21,--,--
REST,,,0.0,00:00:09.320,--,--,--,--,--,--,--,--
12,BREASTSTROKE,2,100.0,00:02:25.844,0:24:17  ,0:23:36  ,85.0,--,--,60,27.5,41
12.1,BREASTSTROKE,1,50.0,00:01:15.62,0:25:01  ,0:25:01  ,106.0,--,--,31,--,--
12.2,BREASTSTROKE,1,50.0,00:01:10.812,0:23:36  ,0:23:36  ,100.0,--,--,29,--,--
REST,,,0.0,00:01:30.906,--,--,--,--,--,--,--,--
13,FREESTYLE,2,100.0,00:01:25.117,0:12:06  ,0:10:02  ,48.0,--,--,44,18.0,18
13.1,FREESTYLE,1,50.0,00:00:42.500,0:14:10  ,0:14:10  ,69.0,--,--,26,--,--
13.2,FREESTYLE,1,50.0,00:00:30.125,0:10:02  ,0:10:02  ,48.0,--,--,18,--,--
Summary,,40,2000.0,00:45:16.578,0:18:53  ,0:10:02  ,83.0,--,--,1047,26.175,434
