Split,Swim Stroke,Lengths,Distance,Time,Avg Pace,Best Pace,Avg SWOLF,Avg Power,Max Power,Total Strokes,Avg Strokes,Calories
1,FREESTYLE,4,200.0,00:03:07.625,0:15:37  ,0:14:08  ,72.0,--,--,102,25.0,36
1.1,FREESTYLE,1,50.0,00:00:42.375,0:14:08  ,0:14:08  ,65.0,--,--,23,--,--
1.2,FREESTYLE,1,50.0,00:00:47.812,0:15:56  ,0:15:56  ,73.0,--,--,25,--,--
1.3,FREESTYLE,1,50.0,00:00:48.187,0:16:04  ,0:16:04  ,75.0,--,--,27,--,--
1.4,FREESTYLE,1,50.0,00:00:49.00,0:16:20  ,0:16:20  ,76.0,--,--,27,--,--
REST,,,0.0,00:00:35.141,--,--,0.0,--,--,--,25.4,--
2,BREASTSTROKE,2,100.0,00:02:24.828,0:24:09  ,0:23:05  ,100.0,--,--,55,27.0,25
2.1,BREASTSTROKE,1,50.0,00:01:09.187,0:23:05  ,0:23:05  ,94.0,--,--,25,--,--
2.2,BREASTSTROKE,1,50.0,00:01:15.687,0:25:15  ,0:25:15  ,106.0,--,--,30,--,--
REST,,,0.0,00:00:33.47,--,--,0.0,--,--,--,22.428571428571427,--
3,DRILL,2,100.0,00:01:37.734,--,--,0.0,--,--,--,19.625,--
3.1,DRILL,1,50.0,00:00:48.867,--,--,--,--,--,0,--,--
3.2,DRILL,1,50.0,00:00:48.867,--,--,--,--,--,0,--,--
REST,,,0.0,00:00:32.953,--,--,0.0,--,--,--,19.625,--
4,DRILL,1,50.0,00:00:46.922,--,--,0.0,--,--,--,17.444444444444443,--
4.1,DRILL,1,50.0,00:00:46.922,--,--,--,--,--,0,--,--
REST,,,0.0,00:00:17.766,--,--,0.0,--,--,--,17.444444444444443,--
5,DRILL,1,50.0,00:01:05.641,--,--,0.0,--,--,--,15.818181818181818,--
5.1,DRILL,1,50.0,00:01:05.641,--,--,--,--,--,0,--,--
REST,,,0.0,00:02:09.172,--,--,0.0,--,--,--,15.818181818181818,--
REST,,,0.0,00:00:02.563,--,--,0.0,--,--,--,15.818181818181818,--
REST,,,0.0,00:00:10.250,--,--,0.0,--,--,--,15.818181818181818,--
6,FREESTYLE,2,100.0,00:01:24.789,0:14:07  ,0:12:04  ,63.0,--,--,41,20.0,18
6.1,FREESTYLE,1,50.0,00:00:36.187,0:12:04  ,0:12:04  ,53.0,--,--,17,--,--
6.2,FREESTYLE,1,50.0,00:00:48.562,0:16:11  ,0:16:11  ,73.0,--,--,24,--,--
REST,,,0.0,00:01:17.148,--,--,0.0,--,--,--,15.23076923076923,--
7,DRILL,2,100.0,00:01:33.469,--,--,0.0,--,--,--,13.2,--
7.1,DRILL,1,50.0,00:00:46.734,--,--,--,--,--,0,--,--
7.2,DRILL,1,50.0,00:00:46.734,--,--,--,--,--,0,--,--
REST,,,0.0,00:01:00.344,--,--,0.0,--,--,--,13.2,--
8,DRILL,2,100.0,00:01:44.336,--,--,0.0,--,--,--,11.647058823529411,--
8.1,DRILL,1,50.0,00:00:52.168,--,--,--,--,--,0,--,--
8.2,DRILL,1,50.0,00:00:52.168,--,--,--,--,--,0,--,--
REST,,,0.0,00:02:16.977,--,--,0.0,--,--,--,11.647058823529411,--
9,DRILL,2,100.0,00:01:33.969,--,--,0.0,--,--,--,11.789473684210526,--
9.1,DRILL,1,50.0,00:00:46.984,--,--,--,--,--,0,--,--
9.2,DRILL,1,50.0,00:00:46.984,--,--,--,--,--,0,--,--
REST,,,0.0,00:00:18.94,--,--,0.0,--,--,--,11.789473684210526,--
10,BREASTSTROKE,2,100.0,00:02:14.148,0:22:22  ,0:21:18  ,92.0,--,--,50,25.0,26
10.1,BREASTSTROKE,1,50.0,00:01:10.250,0:23:26  ,0:23:26  ,96.0,--,--,26,--,--
10.2,BREASTSTROKE,1,50.0,00:01:03.937,0:21:18  ,0:21:18  ,88.0,--,--,24,--,--
REST,,,0.0,00:01:45.289,--,--,0.0,--,--,--,12.4,--
11,FREESTYLE,1,50.0,00:00:40.883,0:13:37  ,0:13:37  ,63.0,--,--,22,22.0,9
11.1,FREESTYLE,1,50.0,00:00:40.875,0:13:37  ,0:13:37  ,63.0,--,--,22,--,--
REST,,,0.0,00:00:21.930,--,--,0.0,--,--,--,12.857142857142858,--
12,FREESTYLE,1,50.0,00:00:44.516,0:14:51  ,0:14:51  ,69.0,--,--,24,24.0,9
12.1,FREESTYLE,1,50.0,00:00:44.562,0:14:51  ,0:14:51  ,69.0,--,--,24,--,--
REST,,,0.0,00:04:24.109,--,--,0.0,--,--,--,13.869565217391305,--
13,FREESTYLE,2,100.0,00:01:41.148,0:16:52  ,0:16:43  ,75.0,--,--,49,24.0,18
13.1,FREESTYLE,1,50.0,00:00:50.125,0:16:43  ,0:16:43  ,75.0,--,--,25,--,--
13.2,FREESTYLE,1,50.0,00:00:51.62,0:17:01  ,0:17:01  ,75.0,--,--,24,--,--
Summary,,24,1200.0,00:36:25.133,0:17:33  ,0:12:04  ,77.0,--,--,343,24.5,141
