Split,Swim Stroke,Lengths,Distance,Time,Avg Pace,Best Pace,Avg SWOLF,Avg Power,Max Power,Total Strokes,Avg Strokes,Calories
1,FREESTYLE,2,100.0,00:01:38.219,0:14:13  ,0:13:09  ,65.0,--,--,44,22.0,18
1.1,FREESTYLE,1,50.0,00:00:45.875,0:15:18  ,0:15:18  ,69.0,--,--,23,--,--
1.2,FREESTYLE,1,50.0,00:00:39.437,0:13:09  ,0:13:09  ,60.0,--,--,21,--,--
REST,,,0.0,00:00:10.547,--,--,--,--,--,--,--,--
2,FREESTYLE,6,300.0,00:05:06.102,0:17:01  ,0:16:07  ,79.0,--,--,162,27.142857142857142,54
2.1,FREESTYLE,1,50.0,00:00:51.656,0:17:13  ,0:17:13  ,79.0,--,--,27,--,--
2.2,FREESTYLE,1,50.0,00:00:51.656,0:17:13  ,0:17:13  ,79.0,--,--,27,--,--
2.3,FREESTYLE,1,50.0,00:00:48.312,0:16:07  ,0:16:07  ,73.0,--,--,25,--,--
2.4,FREESTYLE,1,50.0,00:00:49.625,0:16:33  ,0:16:33  ,77.0,--,--,27,--,--
2.5,FREESTYLE,1,50.0,00:00:48.375,0:16:08  ,0:16:08  ,74.0,--,--,26,--,--
2.6,FREESTYLE,1,50.0,00:00:56.875,0:18:57  ,0:18:57  ,87.0,--,--,30,--,--
REST,,,0.0,00:00:46.711,--,--,--,--,--,--,--,--
3,BREASTSTROKE,2,100.0,00:01:59.141,0:19:51  ,0:19:28  ,89.0,--,--,56,28.0,26
3.1,BREASTSTROKE,1,50.0,00:00:58.375,0:19:28  ,0:19:28  ,86.0,--,--,28,--,--
3.2,BREASTSTROKE,1,50.0,00:01:00.750,0:20:15  ,0:20:15  ,89.0,--,--,28,--,--
REST,,,0.0,00:01:53.734,--,--,--,--,--,--,--,--
4,FREESTYLE,8,400.0,00:06:59.938,0:17:29  ,0:15:56  ,80.0,--,--,212,26.666666666666668,83
4.1,FREESTYLE,1,50.0,00:00:49.593,0:16:32  ,0:16:32  ,76.0,--,--,26,--,--
4.2,FREESTYLE,1,50.0,00:00:49.593,0:16:32  ,0:16:32  ,77.0,--,--,27,--,--
4.3,FREESTYLE,1,50.0,00:00:54.500,0:18:10  ,0:18:10  ,82.0,--,--,27,--,--
4.4,FREESTYLE,1,50.0,00:00:55.62,0:18:21  ,0:18:21  ,82.0,--,--,27,--,--
4.5,FREESTYLE,1,50.0,00:00:54.188,0:18:03  ,0:18:03  ,80.0,--,--,26,--,--
4.6,FREESTYLE,1,50.0,00:00:54.188,0:18:03  ,0:18:03  ,81.0,--,--,27,--,--
4.7,FREESTYLE,1,50.0,00:00:55.00,0:18:20  ,0:18:20  ,82.0,--,--,27,--,--
4.8,FREESTYLE,1,50.0,00:00:47.812,0:15:56  ,0:15:56  ,73.0,--,--,25,--,--
REST,,,0.0,00:00:42.938,--,--,--,--,--,--,--,--
5,BREASTSTROKE,2,100.0,00:02:03.703,0:20:37  ,0:19:47  ,82.0,--,--,58,27.0,26
5.1,BREASTSTROKE,1,50.0,00:00:59.312,0:19:47  ,0:19:47  ,87.0,--,--,28,--,--
5.2,BREASTSTROKE,1,50.0,00:01:04.437,0:21:30  ,0:21:30  ,94.0,--,--,30,--,--
REST,,,0.0,00:00:24.359,--,--,--,--,--,--,--,--
6,FREESTYLE,2,100.0,00:01:31.109,0:15:11  ,0:14:55  ,71.0,--,--,49,25.0,18
6.1,FREESTYLE,1,50.0,00:00:44.750,0:14:55  ,0:14:55  ,69.0,--,--,24,--,--
6.2,FREESTYLE,1,50.0,00:00:46.375,0:15:27  ,0:15:27  ,71.0,--,--,25,--,--
REST,,,0.0,00:00:35.641,--,--,--,--,--,--,--,--
7,FREESTYLE,1,50.0,00:00:44.773,0:14:55  ,0:14:55  ,69.0,--,--,24,24.0,9
7.1,FREESTYLE,1,50.0,00:00:44.750,0:14:55  ,0:14:55  ,69.0,--,--,24,--,--
REST,,,0.0,00:00:40.227,--,--,--,--,--,--,--,--
8,FREESTYLE,1,50.0,00:00:46.320,0:15:27  ,0:15:27  ,82.0,--,--,25,26.5,9
8.1,FREESTYLE,1,50.0,00:00:46.375,0:15:27  ,0:15:27  ,71.0,--,--,25,--,--
REST,,,0.0,00:01:47.305,--,--,--,--,--,--,--,--
9,BREASTSTROKE,2,100.0,00:01:59.695,0:19:56  ,0:18:12  ,77.0,--,--,52,24.5,27
9.1,BREASTSTROKE,1,50.0,00:01:05.62,0:21:42  ,0:21:42  ,93.0,--,--,28,--,--
9.2,BREASTSTROKE,1,50.0,00:00:54.625,0:18:12  ,0:18:12  ,79.0,--,--,24,--,--
REST,,,0.0,00:00:23.992,--,--,--,--,--,--,--,--
10,FREESTYLE,2,100.0,00:01:37.828,0:16:18  ,0:16:10  ,73.0,--,--,52,26.0,18
10.1,FREESTYLE,1,50.0,00:00:48.500,0:16:10  ,0:16:10  ,74.0,--,--,25,--,--
10.2,FREESTYLE,1,50.0,00:00:49.375,0:16:28  ,0:16:28  ,76.0,--,--,27,--,--
REST,,,0.0,00:00:37.922,--,--,--,--,--,--,--,--
11,FREESTYLE,2,100.0,00:01:30.766,0:13:00  ,0:11:17  ,62.0,--,--,45,22.5,18
11.1,FREESTYLE,1,50.0,00:00:44.187,0:14:44  ,0:14:44  ,69.0,--,--,25,--,--
11.2,FREESTYLE,1,50.0,00:00:33.875,0:11:17  ,0:11:17  ,54.0,--,--,20,--,--
REST,,,0.0,00:03:49.297,--,--,--,--,--,--,--,--
12,FREESTYLE,2,100.0,00:01:34.117,0:13:08  ,0:11:17  ,71.0,--,--,44,23.0,18
12.1,FREESTYLE,1,50.0,00:00:45.00,0:15:00  ,0:15:00  ,70.0,--,--,25,--,--
12.2,FREESTYLE,1,50.0,00:00:33.875,0:11:17  ,0:11:17  ,53.0,--,--,19,--,--
REST,,,0.0,00:00:06.320,--,--,--,--,--,--,--,--
13,BREASTSTROKE,2,100.0,00:02:07.398,0:21:13  ,0:20:16  ,85.0,--,--,56,27.5,26
13.1,BREASTSTROKE,1,50.0,00:01:00.812,0:20:16  ,0:20:16  ,88.0,--,--,27,--,--
13.2,BREASTSTROKE,1,50.0,00:01:06.625,0:22:13  ,0:22:13  ,96.0,--,--,29,--,--
REST,,,0.0,00:00:18.477,--,--,--,--,--,--,--,--
14,FREESTYLE,2,100.0,00:01:37.141,0:14:03  ,0:12:19  ,59.0,--,--,45,20.5,18
14.1,FREESTYLE,1,50.0,00:00:47.437,0:15:48  ,0:15:48  ,73.0,--,--,26,--,--
14.2,FREESTYLE,1,50.0,00:00:36.937,0:12:19  ,0:12:19  ,56.0,--,--,19,--,--
REST,,,0.0,00:00:22.109,--,--,--,--,--,--,--,--
15,FREESTYLE,2,100.0,00:01:43.172,0:14:06  ,0:13:27  ,77.0,--,--,43,24.0,18
15.1,FREESTYLE,1,50.0,00:00:40.375,0:13:27  ,0:13:27  ,62.0,--,--,22,--,--
15.2,FREESTYLE,1,50.0,00:00:44.250,0:14:45  ,0:14:45  ,65.0,--,--,21,--,--
REST,,,0.0,00:00:32.141,--,--,--,--,--,--,--,--
16,BREASTSTROKE,2,100.0,00:02:02.266,0:20:22  ,0:20:06  ,87.0,--,--,54,27.0,43
16.1,BREASTSTROKE,1,50.0,00:01:02.62,0:20:40  ,0:20:40  ,89.0,--,--,27,--,--
16.2,BREASTSTROKE,1,50.0,00:01:00.250,0:20:06  ,0:20:06  ,87.0,--,--,27,--,--
Summary,,40,2000.0,00:48:14.133,0:16:55  ,0:11:17  ,76.0,--,--,1021,25.525,429
