Interval,Swim Stroke,Lengths,Distance,Time,Avg Pace,Best Pace,Avg SWOLF,sumStrokes,Avg Strokes,Calories,
 1,Freestyle,2,100,1:23.8,1:24,1:22,66,49,24,18,
 1.1,Freestyle,1,50,:41.0,1:22,1:22,65,24,--,--,
 1.2,Freestyle,1,50,:42.6,1:25,1:25,68,25,--,--,
 Rest,,0,0,:56.8,--:--,--,0,--,25,--,
 2,Freestyle,4,200,3:23.9,1:42,1:35,78,111,27,36,
 2.1,Freestyle,1,50,:47.5,1:35,1:35,74,26,--,--,
 2.2,Freestyle,1,50,:51.5,1:43,1:43,80,28,--,--,
 2.3,Freestyle,1,50,:52.1,1:44,1:44,80,28,--,--,
 2.4,Freestyle,1,50,:52.8,1:46,1:46,82,29,--,--,
 Rest,,0,0,:47.9,--:--,--,0,--,25,--,
 3,Backstroke,2,100,1:09.6,1:10,:57,49,28,14,17,
 3.1,Backstroke,1,50,:28.3,:57,:57,40,12,--,--,
 3.2,Backstroke,1,50,:41.3,1:23,1:23,57,16,--,--,
 Rest,,0,0,1:08.1,--:--,--,0,--,22,--,
 4,Backstroke,2,100,:58.1,:58,:50,39,21,10,17,
 4.1,Backstroke,1,50,:33.1,1:06,1:06,45,12,--,--,
 4.2,Backstroke,1,50,:25.1,:50,:50,34,9,--,--,
 Rest,,0,0,:42.6,--:--,--,0,--,16,--,
 Rest,,0,0,:00.8,--:--,--,0,--,16,--,
 Rest,,0,0,:23.5,--:--,--,0,--,16,--,
 5,Drill,4,200,3:08.8,--:--,--:--,0,--,16,--,
 5.1,Drill,1,50,:47.2,--:--,--:--,--,0,--,--,
 5.2,Drill,1,50,:47.2,--:--,--:--,--,0,--,--,
 5.3,Drill,1,50,:47.2,--:--,--:--,--,0,--,--,
 5.4,Drill,1,50,:47.2,--:--,--:--,--,0,--,--,
 Rest,,0,0,:31.1,--:--,--,0,--,16,--,
 6,Breaststroke,2,100,2:09.3,2:09,2:04,93,58,29,26,
 6.1,Breaststroke,1,50,1:07.4,2:15,2:15,98,31,--,--,
 6.2,Breaststroke,1,50,1:02.0,2:04,2:04,89,27,--,--,
 Rest,,0,0,2:19.8,--:--,--,0,--,17,--,
 7,Freestyle,2,100,1:35.0,1:35,1:34,74,53,26,18,
 7.1,Freestyle,1,50,:47.9,1:36,1:36,74,26,--,--,
 7.2,Freestyle,1,50,:47.2,1:34,1:34,74,27,--,--,
 Rest,,0,0,:07.3,--:--,--,0,--,19,--,
 8,Breaststroke,2,100,2:23.3,2:23,2:20,106,70,35,25,
 8.1,Breaststroke,1,50,1:13.3,2:27,2:27,109,36,--,--,
 8.2,Breaststroke,1,50,1:10.0,2:20,2:20,104,34,--,--,
 Rest,,0,0,1:06.7,--:--,--,0,--,20,--,
 9,Freestyle,2,100,1:34.5,1:35,1:29,73,51,25,18,
 9.1,Freestyle,1,50,:44.6,1:29,1:29,69,24,--,--,
 9.2,Freestyle,1,50,:49.9,1:40,1:40,77,27,--,--,
 Summary,,22,"1,100",25:51.3,1:37,:50,73,441,24,175,