Split,Swim Stroke,Lengths,Distance,Time,Avg Pace,Best Pace,Avg SWOLF,Avg Power,Max Power,Total Strokes,Avg Strokes,Calories
1,DRILL,30,1500.0,00:24:37.63,--,--,0.0,--,--,--,1.032258064516129,--
1.1,DRILL,1,50.0,00:00:49.235,--,--,--,--,--,0,--,--
1.2,DRILL,1,50.0,00:00:49.235,--,--,--,--,--,0,--,--
1.3,DRILL,1,50.0,00:00:49.235,--,--,--,--,--,0,--,--
1.4,DRILL,1,50.0,00:00:49.235,--,--,--,--,--,0,--,--
1.5,DRILL,1,50.0,00:00:49.235,--,--,--,--,--,0,--,--
1.6,DRILL,1,50.0,00:00:49.235,--,--,--,--,--,0,--,--
1.7,DRILL,1,50.0,00:00:49.235,--,--,--,--,--,0,--,--
1.8,DRILL,1,50.0,00:00:49.235,--,--,--,--,--,0,--,--
1.9,DRILL,1,50.0,00:00:49.235,--,--,--,--,--,0,--,--
1.10,DRILL,1,50.0,00:00:49.235,--,--,--,--,--,0,--,--
1.11,DRILL,1,50.0,00:00:49.235,--,--,--,--,--,0,--,--
1.12,DRILL,1,50.0,00:00:49.235,--,--,--,--,--,0,--,--
1.13,DRILL,1,50.0,00:00:49.235,--,--,--,--,--,0,--,--
1.14,DRILL,1,50.0,00:00:49.235,--,--,--,--,--,0,--,--
1.15,DRILL,1,50.0,00:00:49.235,--,--,--,--,--,0,--,--
1.16,DRILL,1,50.0,00:00:49.235,--,--,--,--,--,0,--,--
1.17,DRILL,1,50.0,00:00:49.235,--,--,--,--,--,0,--,--
1.18,DRILL,1,50.0,00:00:49.235,--,--,--,--,--,0,--,--
1.19,DRILL,1,50.0,00:00:49.235,--,--,--,--,--,0,--,--
1.20,DRILL,1,50.0,00:00:49.235,--,--,--,--,--,0,--,--
1.21,DRILL,1,50.0,00:00:49.235,--,--,--,--,--,0,--,--
1.22,DRILL,1,50.0,00:00:49.235,--,--,--,--,--,0,--,--
1.23,DRILL,1,50.0,00:00:49.235,--,--,--,--,--,0,--,--
1.24,DRILL,1,50.0,00:00:49.235,--,--,--,--,--,0,--,--
1.25,DRILL,1,50.0,00:00:49.235,--,--,--,--,--,0,--,--
1.26,DRILL,1,50.0,00:00:49.235,--,--,--,--,--,0,--,--
1.27,DRILL,1,50.0,00:00:49.235,--,--,--,--,--,0,--,--
1.28,DRILL,1,50.0,00:00:49.235,--,--,--,--,--,0,--,--
1.29,DRILL,1,50.0,00:00:49.235,--,--,--,--,--,0,--,--
1.30,DRILL,1,50.0,00:00:49.235,--,--,--,--,--,0,--,--
REST,,,0.0,00:00:36.164,--,--,0.0,--,--,--,1.032258064516129,--
2,BREASTSTROKE,2,100.0,00:02:17.383,0:22:53  ,0:22:35  ,100.0,--,--,64,32.0,26
2.1,BREASTSTROKE,1,50.0,00:01:09.687,0:23:14  ,0:23:14  ,102.0,--,--,32,--,--
2.2,BREASTSTROKE,1,50.0,00:01:07.750,0:22:35  ,0:22:35  ,100.0,--,--,32,--,--
REST,,,0.0,00:00:13.555,--,--,0.0,--,--,--,2.0,--
3,BACKSTROKE,1,50.0,00:00:57.461,0:19:09  ,0:19:10  ,77.0,--,--,19,19.0,11
3.1,BACKSTROKE,1,50.0,00:00:57.500,0:19:10  ,0:19:10  ,77.0,--,--,19,--,--
REST,,,0.0,00:00:16.227,--,--,0.0,--,--,--,2.515151515151515,--
4,FREESTYLE,1,50.0,00:00:42.211,0:14:03  ,0:14:03  ,66.0,--,--,24,24.0,9
4.1,FREESTYLE,1,50.0,00:00:42.187,0:14:03  ,0:14:03  ,66.0,--,--,24,--,--
REST,,,0.0,00:00:07.414,--,--,0.0,--,--,--,3.1470588235294117,--
5,BACKSTROKE,1,50.0,00:01:01.63,0:20:21  ,0:20:22  ,84.0,--,--,23,23.0,11
5.1,BACKSTROKE,1,50.0,00:01:01.62,0:20:22  ,0:20:22  ,84.0,--,--,23,--,--
REST,,,0.0,00:00:44.00,--,--,0.0,--,--,--,3.7142857142857144,--
6,FREESTYLE,1,50.0,00:00:42.78,0:14:01  ,0:14:01  ,65.0,--,--,23,23.0,9
6.1,FREESTYLE,1,50.0,00:00:42.62,0:14:01  ,0:14:01  ,65.0,--,--,23,--,--
Summary,,36,1800.0,00:32:14.797,0:18:53  ,0:14:01  ,82.0,--,--,153,25.5,66
