Split,Swim Stroke,Lengths,Distance,Time,Avg Pace,Best Pace,Avg SWOLF,Avg Power,Max Power,Total Strokes,Avg Strokes,Calories
REST,,,0.0,00:00:05.688,--,--,0.0,--,--,--,0.0,--
REST,,,0.0,00:00:07.63,--,--,0.0,--,--,--,0.0,--
1,DRILL,10,500.0,00:09:46.258,--,--,0.0,--,--,--,0.0,--
1.1,DRILL,1,50.0,00:00:58.625,--,--,--,--,--,0,--,--
1.2,DRILL,1,50.0,00:00:58.625,--,--,--,--,--,0,--,--
1.3,DRILL,1,50.0,00:00:58.625,--,--,--,--,--,0,--,--
1.4,DRILL,1,50.0,00:00:58.625,--,--,--,--,--,0,--,--
1.5,DRILL,1,50.0,00:00:58.625,--,--,--,--,--,0,--,--
1.6,DRILL,1,50.0,00:00:58.625,--,--,--,--,--,0,--,--
1.7,DRILL,1,50.0,00:00:58.625,--,--,--,--,--,0,--,--
1.8,DRILL,1,50.0,00:00:58.625,--,--,--,--,--,0,--,--
1.9,DRILL,1,50.0,00:00:58.625,--,--,--,--,--,0,--,--
1.10,DRILL,1,50.0,00:00:58.625,--,--,--,--,--,0,--,--
REST,,,0.0,00:01:41.555,--,--,0.0,--,--,--,0.0,--
2,DRILL,10,500.0,00:10:30.133,--,--,0.0,--,--,--,0.0,--
2.1,DRILL,1,50.0,00:01:03.13,--,--,--,--,--,0,--,--
2.2,DRILL,1,50.0,00:01:03.13,--,--,--,--,--,0,--,--
2.3,DRILL,1,50.0,00:01:03.13,--,--,--,--,--,0,--,--
2.4,DRILL,1,50.0,00:01:03.13,--,--,--,--,--,0,--,--
2.5,DRILL,1,50.0,00:01:03.13,--,--,--,--,--,0,--,--
2.6,DRILL,1,50.0,00:01:03.13,--,--,--,--,--,0,--,--
2.7,DRILL,1,50.0,00:01:03.13,--,--,--,--,--,0,--,--
2.8,DRILL,1,50.0,00:01:03.13,--,--,--,--,--,0,--,--
2.9,DRILL,1,50.0,00:01:03.13,--,--,--,--,--,0,--,--
2.10,DRILL,1,50.0,00:01:03.13,--,--,--,--,--,0,--,--
REST,,,0.0,00:07:41.305,--,--,0.0,--,--,--,0.0,--
3,DRILL,5,250.0,00:05:25.641,--,--,0.0,--,--,--,0.0,--
3.1,DRILL,1,50.0,00:01:05.128,--,--,--,--,--,0,--,--
3.2,DRILL,1,50.0,00:01:05.128,--,--,--,--,--,0,--,--
3.3,DRILL,1,50.0,00:01:05.128,--,--,--,--,--,0,--,--
3.4,DRILL,1,50.0,00:01:05.128,--,--,--,--,--,0,--,--
3.5,DRILL,1,50.0,00:01:05.128,--,--,--,--,--,0,--,--
REST,,,0.0,00:02:06.297,--,--,0.0,--,--,--,0.0,--
4,DRILL,1,50.0,00:00:44.297,--,--,0.0,--,--,--,0.0,--
4.1,DRILL,1,50.0,00:00:44.297,--,--,--,--,--,0,--,--
REST,,,0.0,00:00:27.141,--,--,0.0,--,--,--,0.0,--
5,DRILL,1,50.0,00:01:14.94,--,--,0.0,--,--,--,0.0,--
5.1,DRILL,1,50.0,00:01:14.94,--,--,--,--,--,0,--,--
REST,,,0.0,00:00:48.219,--,--,0.0,--,--,--,0.0,--
6,DRILL,1,50.0,00:00:46.398,--,--,0.0,--,--,--,0.0,--
6.1,DRILL,1,50.0,00:00:46.398,--,--,--,--,--,0,--,--
Summary,,28,1400.0,00:41:24.352,--,--,0.0,--,--,--,0.0,--
