Split,Swim Stroke,Lengths,Distance,Time,Avg Pace,Best Pace,Avg SWOLF,Avg Power,Max Power,Total Strokes,Avg Strokes,Calories
1,DRILL,20,1000.0,00:16:07.266,--,--,0.0,--,--,--,0.0,--
1.1,DRILL,1,50.0,00:00:48.363,--,--,--,--,--,0,--,--
1.2,DRILL,1,50.0,00:00:48.363,--,--,--,--,--,0,--,--
1.3,DRILL,1,50.0,00:00:48.363,--,--,--,--,--,0,--,--
1.4,DRILL,1,50.0,00:00:48.363,--,--,--,--,--,0,--,--
1.5,DRILL,1,50.0,00:00:48.363,--,--,--,--,--,0,--,--
1.6,DRILL,1,50.0,00:00:48.363,--,--,--,--,--,0,--,--
1.7,DRILL,1,50.0,00:00:48.363,--,--,--,--,--,0,--,--
1.8,DRILL,1,50.0,00:00:48.363,--,--,--,--,--,0,--,--
1.9,DRILL,1,50.0,00:00:48.363,--,--,--,--,--,0,--,--
1.10,DRILL,1,50.0,00:00:48.363,--,--,--,--,--,0,--,--
1.11,DRILL,1,50.0,00:00:48.363,--,--,--,--,--,0,--,--
1.12,DRILL,1,50.0,00:00:48.363,--,--,--,--,--,0,--,--
1.13,DRILL,1,50.0,00:00:48.363,--,--,--,--,--,0,--,--
1.14,DRILL,1,50.0,00:00:48.363,--,--,--,--,--,0,--,--
1.15,DRILL,1,50.0,00:00:48.363,--,--,--,--,--,0,--,--
1.16,DRILL,1,50.0,00:00:48.363,--,--,--,--,--,0,--,--
1.17,DRILL,1,50.0,00:00:48.363,--,--,--,--,--,0,--,--
1.18,DRILL,1,50.0,00:00:48.363,--,--,--,--,--,0,--,--
1.19,DRILL,1,50.0,00:00:48.363,--,--,--,--,--,0,--,--
1.20,DRILL,1,50.0,00:00:48.363,--,--,--,--,--,0,--,--
REST,,,0.0,00:00:31.570,--,--,0.0,--,--,--,0.0,--
2,DRILL,6,300.0,00:04:29.188,--,--,0.0,--,--,--,0.9259259259259259,--
2.1,DRILL,1,50.0,00:00:44.864,--,--,--,--,--,0,--,--
2.2,DRILL,1,50.0,00:00:44.864,--,--,--,--,--,0,--,--
2.3,DRILL,1,50.0,00:00:44.864,--,--,--,--,--,0,--,--
2.4,DRILL,1,50.0,00:00:44.864,--,--,--,--,--,0,--,--
2.5,DRILL,1,50.0,00:00:44.864,--,--,--,--,--,0,--,--
2.6,DRILL,1,50.0,00:00:44.864,--,--,--,--,--,0,--,--
REST,,,0.0,00:00:45.938,--,--,0.0,--,--,--,0.9259259259259259,--
3,FREESTYLE,4,200.0,00:03:11.766,0:15:58  ,0:15:47  ,73.0,--,--,101,25.0,36
3.1,FREESTYLE,1,50.0,00:00:47.437,0:15:48  ,0:15:48  ,72.0,--,--,25,--,--
3.2,FREESTYLE,1,50.0,00:00:47.375,0:15:47  ,0:15:47  ,72.0,--,--,25,--,--
3.3,FREESTYLE,1,50.0,00:00:49.312,0:16:27  ,0:16:27  ,75.0,--,--,26,--,--
3.4,FREESTYLE,1,50.0,00:00:47.687,0:15:54  ,0:15:54  ,73.0,--,--,25,--,--
REST,,,0.0,00:01:02.484,--,--,0.0,--,--,--,4.225806451612903,--
4,BREASTSTROKE,2,100.0,00:02:15.164,0:22:33  ,0:22:31  ,98.0,--,--,61,30.0,26
4.1,BREASTSTROKE,1,50.0,00:01:07.500,0:22:31  ,0:22:31  ,98.0,--,--,30,--,--
4.2,BREASTSTROKE,1,50.0,00:01:07.750,0:22:35  ,0:22:35  ,99.0,--,--,31,--,--
Summary,,32,1600.0,00:28:23.555,0:18:10  ,0:15:47  ,81.0,--,--,162,27.0,62
