Split,Swim Stroke,Lengths,Distance,Time,Avg Pace,Best Pace,Avg SWOLF,Avg Power,Max Power,Total Strokes,Avg Strokes,Calories
1,FREESTYLE,6,150.0,00:02:20.47,0:15:32  ,0:14:05  ,34.0,--,--,68,11.0,30
1.1,FREESTYLE,1,25.0,00:00:21.125,0:14:05  ,0:14:05  ,31.0,--,--,10,--,--
1.2,FREESTYLE,1,25.0,00:00:22.125,0:14:45  ,0:14:45  ,34.0,--,--,12,--,--
1.3,FREESTYLE,1,25.0,00:00:25.00,0:16:40  ,0:16:40  ,37.0,--,--,12,--,--
1.4,FREESTYLE,1,25.0,00:00:23.187,0:15:27  ,0:15:27  ,34.0,--,--,11,--,--
1.5,FREESTYLE,1,25.0,00:00:25.750,0:17:10  ,0:17:10  ,38.0,--,--,12,--,--
1.6,FREESTYLE,1,25.0,00:00:22.687,0:15:08  ,0:15:08  ,34.0,--,--,11,--,--
REST,,,0.0,00:00:12.31,--,--,0.0,--,--,--,11.142857142857142,--
2,BACKSTROKE,2,50.0,00:01:04.272,0:21:25  ,0:21:01  ,42.0,--,--,21,10.0,12
2.1,BACKSTROKE,1,25.0,00:00:31.500,0:21:01  ,0:21:01  ,42.0,--,--,10,--,--
2.2,BACKSTROKE,1,25.0,00:00:32.750,0:21:50  ,0:21:50  ,44.0,--,--,11,--,--
REST,,,0.0,00:00:03.414,--,--,0.0,--,--,--,11.555555555555555,--
3,BREASTSTROKE,2,50.0,00:01:04.194,0:21:25  ,0:21:09  ,47.0,--,--,30,15.0,13
3.1,BREASTSTROKE,1,25.0,00:00:31.687,0:21:09  ,0:21:09  ,47.0,--,--,15,--,--
3.2,BREASTSTROKE,1,25.0,00:00:32.561,0:21:43  ,0:21:43  ,48.0,--,--,15,--,--
REST,,,0.0,00:00:25.180,--,--,0.0,--,--,--,11.727272727272727,--
4,FREESTYLE,2,50.0,00:00:41.930,0:14:00  ,0:13:55  ,31.0,--,--,20,10.0,10
4.1,FREESTYLE,1,25.0,00:00:21.125,0:14:05  ,0:14:05  ,31.0,--,--,10,--,--
4.2,FREESTYLE,1,25.0,00:00:20.875,0:13:55  ,0:13:55  ,31.0,--,--,10,--,--
REST,,,0.0,00:00:19.70,--,--,0.0,--,--,--,11.923076923076923,--
5,BREASTSTROKE,4,100.0,00:02:06.852,0:21:07  ,0:19:05  ,46.0,--,--,59,14.0,26
5.1,BREASTSTROKE,1,25.0,00:00:33.187,0:22:08  ,0:22:08  ,49.0,--,--,16,--,--
5.2,BREASTSTROKE,1,25.0,00:00:33.750,0:22:31  ,0:22:31  ,50.0,--,--,16,--,--
5.3,BREASTSTROKE,1,25.0,00:00:31.250,0:20:49  ,0:20:49  ,44.0,--,--,13,--,--
5.4,BREASTSTROKE,1,25.0,00:00:28.625,0:19:05  ,0:19:05  ,43.0,--,--,14,--,--
REST,,,0.0,00:01:12.586,--,--,0.0,--,--,--,12.294117647058824,--
6,FREESTYLE,6,150.0,00:02:21.719,0:15:45  ,0:15:10  ,34.0,--,--,63,10.0,30
6.1,FREESTYLE,1,25.0,00:00:23.187,0:15:27  ,0:15:27  ,34.0,--,--,11,--,--
6.2,FREESTYLE,1,25.0,00:00:22.750,0:15:10  ,0:15:10  ,33.0,--,--,10,--,--
6.3,FREESTYLE,1,25.0,00:00:24.00,0:16:00  ,0:16:00  ,32.0,--,--,8,--,--
6.4,FREESTYLE,1,25.0,00:00:24.187,0:16:08  ,0:16:08  ,36.0,--,--,12,--,--
6.5,FREESTYLE,1,25.0,00:00:23.750,0:15:50  ,0:15:50  ,35.0,--,--,11,--,--
6.6,FREESTYLE,1,25.0,00:00:23.875,0:15:55  ,0:15:55  ,35.0,--,--,11,--,--
REST,,,0.0,00:01:50.406,--,--,0.0,--,--,--,11.782608695652174,--
7,FREESTYLE,6,150.0,00:02:21.47,0:15:40  ,0:14:35  ,33.0,--,--,58,9.0,30
7.1,FREESTYLE,1,25.0,00:00:23.312,0:15:32  ,0:15:32  ,33.0,--,--,10,--,--
7.2,FREESTYLE,1,25.0,00:00:21.875,0:14:35  ,0:14:35  ,32.0,--,--,10,--,--
7.3,FREESTYLE,1,25.0,00:00:23.812,0:15:53  ,0:15:53  ,32.0,--,--,8,--,--
7.4,FREESTYLE,1,25.0,00:00:24.187,0:16:08  ,0:16:08  ,32.0,--,--,8,--,--
7.5,FREESTYLE,1,25.0,00:00:25.125,0:16:45  ,0:16:45  ,36.0,--,--,11,--,--
7.6,FREESTYLE,1,25.0,00:00:22.750,0:15:10  ,0:15:10  ,34.0,--,--,11,--,--
REST,,,0.0,00:00:08.203,--,--,0.0,--,--,--,11.620689655172415,--
8,BREASTSTROKE,4,100.0,00:02:21.430,0:23:34  ,0:22:15  ,52.0,--,--,68,17.0,24
8.1,BREASTSTROKE,1,25.0,00:00:37.937,0:25:19  ,0:25:19  ,56.0,--,--,18,--,--
8.2,BREASTSTROKE,1,25.0,00:00:33.937,0:22:38  ,0:22:38  ,49.0,--,--,15,--,--
8.3,BREASTSTROKE,1,25.0,00:00:36.250,0:24:11  ,0:24:11  ,55.0,--,--,19,--,--
8.4,BREASTSTROKE,1,25.0,00:00:33.375,0:22:15  ,0:22:15  ,49.0,--,--,16,--,--
REST,,,0.0,00:00:25.758,--,--,0.0,--,--,--,12.06060606060606,--
9,FREESTYLE,4,100.0,00:01:35.39,0:15:50  ,0:15:02  ,33.0,--,--,40,10.0,20
9.1,FREESTYLE,1,25.0,00:00:22.937,0:15:18  ,0:15:18  ,34.0,--,--,11,--,--
9.2,FREESTYLE,1,25.0,00:00:22.937,0:15:18  ,0:15:18  ,34.0,--,--,11,--,--
9.3,FREESTYLE,1,25.0,00:00:26.625,0:17:46  ,0:17:46  ,37.0,--,--,10,--,--
9.4,FREESTYLE,1,25.0,00:00:22.562,0:15:02  ,0:15:02  ,31.0,--,--,8,--,--
REST,,,0.0,00:00:07.836,--,--,0.0,--,--,--,11.837837837837839,--
10,BACKSTROKE,4,100.0,00:02:03.438,0:20:34  ,0:19:00  ,41.0,--,--,44,11.0,22
10.1,BACKSTROKE,1,25.0,00:00:32.500,0:21:40  ,0:21:40  ,44.0,--,--,11,--,--
10.2,BACKSTROKE,1,25.0,00:00:29.250,0:19:30  ,0:19:30  ,40.0,--,--,11,--,--
10.3,BACKSTROKE,1,25.0,00:00:33.187,0:22:08  ,0:22:08  ,45.0,--,--,12,--,--
10.4,BACKSTROKE,1,25.0,00:00:28.500,0:19:00  ,0:19:00  ,39.0,--,--,10,--,--
REST,,,0.0,00:02:04.625,--,--,0.0,--,--,--,11.775,--
11,BUTTERFLY,1,25.0,00:00:19.234,0:12:49  ,0:12:50  ,28.0,--,--,9,9.0,7
11.1,BUTTERFLY,1,25.0,00:00:19.250,0:12:50  ,0:12:50  ,28.0,--,--,9,--,--
REST,,,0.0,00:00:22.641,--,--,0.0,--,--,--,11.619047619047619,--
12,FREESTYLE,6,150.0,00:02:15.445,0:15:02  ,0:14:12  ,32.0,--,--,60,10.0,30
12.1,FREESTYLE,1,25.0,00:00:21.312,0:14:12  ,0:14:12  ,29.0,--,--,8,--,--
12.2,FREESTYLE,1,25.0,00:00:23.375,0:15:35  ,0:15:35  ,30.0,--,--,7,--,--
12.3,FREESTYLE,1,25.0,00:00:22.437,0:14:57  ,0:14:57  ,34.0,--,--,12,--,--
12.4,FREESTYLE,1,25.0,00:00:23.125,0:15:25  ,0:15:25  ,34.0,--,--,11,--,--
12.5,FREESTYLE,1,25.0,00:00:23.62,0:15:22  ,0:15:22  ,34.0,--,--,11,--,--
12.6,FREESTYLE,1,25.0,00:00:22.125,0:14:45  ,0:14:45  ,33.0,--,--,11,--,--
REST,,,0.0,00:01:21.992,--,--,0.0,--,--,--,11.604166666666666,--
13,BREASTSTROKE,3,75.0,00:01:45.320,0:23:24  ,0:22:25  ,52.0,--,--,51,17.0,18
13.1,BREASTSTROKE,1,25.0,00:00:33.625,0:22:25  ,0:22:25  ,51.0,--,--,17,--,--
13.2,BREASTSTROKE,1,25.0,00:00:37.625,0:25:06  ,0:25:06  ,56.0,--,--,18,--,--
13.3,BREASTSTROKE,1,25.0,00:00:34.125,0:22:46  ,0:22:46  ,50.0,--,--,16,--,--
REST,,,0.0,00:00:05.242,--,--,0.0,--,--,--,11.82,--
14,BACKSTROKE,1,25.0,00:00:34.250,0:22:49  ,0:22:51  ,47.0,--,--,13,13.0,6
14.1,BACKSTROKE,1,25.0,00:00:34.250,0:22:51  ,0:22:51  ,47.0,--,--,13,--,--
REST,,,0.0,00:00:37.125,--,--,0.0,--,--,--,11.843137254901961,--
15,BACKSTROKE,1,25.0,00:00:28.328,0:18:55  ,0:18:55  ,38.0,--,--,10,10.0,5
15.1,BACKSTROKE,1,25.0,00:00:28.375,0:18:55  ,0:18:55  ,38.0,--,--,10,--,--
REST,,,0.0,00:00:16.984,--,--,0.0,--,--,--,11.81132075471698,--
16,FREESTYLE,2,50.0,00:00:43.08,0:14:21  ,0:13:47  ,32.0,--,--,21,10.0,10
16.1,FREESTYLE,1,25.0,00:00:22.375,0:14:55  ,0:14:55  ,34.0,--,--,12,--,--
16.2,FREESTYLE,1,25.0,00:00:20.687,0:13:47  ,0:13:47  ,30.0,--,--,9,--,--
REST,,,0.0,00:01:04.492,--,--,0.0,--,--,--,11.745454545454546,--
17,FREESTYLE,4,100.0,00:01:29.313,0:14:52  ,0:14:25  ,33.0,--,--,45,11.0,20
17.1,FREESTYLE,1,25.0,00:00:21.625,0:14:25  ,0:14:25  ,33.0,--,--,11,--,--
17.2,FREESTYLE,1,25.0,00:00:24.00,0:16:00  ,0:16:00  ,36.0,--,--,12,--,--
17.3,FREESTYLE,1,25.0,00:00:21.937,0:14:37  ,0:14:37  ,33.0,--,--,11,--,--
17.4,FREESTYLE,1,25.0,00:00:21.750,0:14:30  ,0:14:30  ,33.0,--,--,11,--,--
REST,,,0.0,00:01:26.813,--,--,0.0,--,--,--,11.813559322033898,--
18,BREASTSTROKE,2,50.0,00:01:06.242,0:22:04  ,0:20:37  ,48.0,--,--,31,15.0,13
18.1,BREASTSTROKE,1,25.0,00:00:35.312,0:23:34  ,0:23:34  ,52.0,--,--,17,--,--
18.2,BREASTSTROKE,1,25.0,00:00:30.937,0:20:37  ,0:20:37  ,45.0,--,--,14,--,--
REST,,,0.0,00:00:10.445,--,--,0.0,--,--,--,11.754098360655737,--
19,FREESTYLE,4,100.0,00:01:35.289,0:15:53  ,0:14:42  ,33.0,--,--,38,9.0,20
19.1,FREESTYLE,1,25.0,00:00:22.937,0:15:18  ,0:15:18  ,29.0,--,--,6,--,--
19.2,FREESTYLE,1,25.0,00:00:22.187,0:14:48  ,0:14:48  ,31.0,--,--,9,--,--
19.3,FREESTYLE,1,25.0,00:00:28.187,0:18:48  ,0:18:48  ,41.0,--,--,13,--,--
19.4,FREESTYLE,1,25.0,00:00:22.62,0:14:42  ,0:14:42  ,32.0,--,--,10,--,--
REST,,,0.0,00:00:10.586,--,--,0.0,--,--,--,11.707692307692307,--
20,BACKSTROKE,2,50.0,00:01:00.445,0:20:09  ,0:17:15  ,40.0,--,--,21,10.0,11
20.1,BACKSTROKE,1,25.0,00:00:34.562,0:23:03  ,0:23:03  ,47.0,--,--,12,--,--
20.2,BACKSTROKE,1,25.0,00:00:25.875,0:17:15  ,0:17:15  ,35.0,--,--,9,--,--
REST,,,0.0,00:00:09.117,--,--,0.0,--,--,--,11.656716417910447,--
21,FREESTYLE,2,50.0,00:00:46.977,0:15:39  ,0:15:35  ,34.0,--,--,22,11.0,10
21.1,FREESTYLE,1,25.0,00:00:23.375,0:15:35  ,0:15:35  ,34.0,--,--,11,--,--
21.2,FREESTYLE,1,25.0,00:00:23.625,0:15:45  ,0:15:45  ,35.0,--,--,11,--,--
REST,,,0.0,00:01:05.22,--,--,0.0,--,--,--,11.63768115942029,--
22,FREESTYLE,2,50.0,00:00:46.875,0:15:37  ,0:15:38  ,35.0,--,--,24,12.0,10
22.1,FREESTYLE,1,25.0,00:00:23.437,0:15:38  ,0:15:38  ,34.0,--,--,11,--,--
22.2,FREESTYLE,1,25.0,00:00:23.437,0:15:38  ,0:15:38  ,36.0,--,--,13,--,--
Summary,,70,1750.0,00:44:30.953,0:17:38  ,0:12:50  ,38.0,--,--,816,11.600000381469727,377
