Split,Swim Stroke,Lengths,Distance,Time,Avg Pace,Best Pace,Avg SWOLF,Avg Power,Max Power,Total Strokes,Avg Strokes,Calories
1,DRILL,8,400.0,00:07:06.164,--,--,0.0,--,--,--,0.0,--
1.1,DRILL,1,50.0,00:00:53.270,--,--,--,--,--,0,--,--
1.2,DRILL,1,50.0,00:00:53.270,--,--,--,--,--,0,--,--
1.3,DRILL,1,50.0,00:00:53.270,--,--,--,--,--,0,--,--
1.4,DRILL,1,50.0,00:00:53.270,--,--,--,--,--,0,--,--
1.5,DRILL,1,50.0,00:00:53.270,--,--,--,--,--,0,--,--
1.6,DRILL,1,50.0,00:00:53.270,--,--,--,--,--,0,--,--
1.7,DRILL,1,50.0,00:00:53.270,--,--,--,--,--,0,--,--
1.8,DRILL,1,50.0,00:00:53.270,--,--,--,--,--,0,--,--
REST,,,0.0,00:00:16.352,--,--,0.0,--,--,--,0.0,--
2,DRILL,8,400.0,00:07:51.898,--,--,0.0,--,--,--,0.0,--
2.1,DRILL,1,50.0,00:00:58.987,--,--,--,--,--,0,--,--
2.2,DRILL,1,50.0,00:00:58.987,--,--,--,--,--,0,--,--
2.3,DRILL,1,50.0,00:00:58.987,--,--,--,--,--,0,--,--
2.4,DRILL,1,50.0,00:00:58.987,--,--,--,--,--,0,--,--
2.5,DRILL,1,50.0,00:00:58.987,--,--,--,--,--,0,--,--
2.6,DRILL,1,50.0,00:00:58.987,--,--,--,--,--,0,--,--
2.7,DRILL,1,50.0,00:00:58.987,--,--,--,--,--,0,--,--
2.8,DRILL,1,50.0,00:00:58.987,--,--,--,--,--,0,--,--
REST,,,0.0,00:03:46.477,--,--,0.0,--,--,--,0.0,--
3,DRILL,6,300.0,00:05:35.930,--,--,0.0,--,--,--,0.0,--
3.1,DRILL,1,50.0,00:00:55.988,--,--,--,--,--,0,--,--
3.2,DRILL,1,50.0,00:00:55.988,--,--,--,--,--,0,--,--
3.3,DRILL,1,50.0,00:00:55.988,--,--,--,--,--,0,--,--
3.4,DRILL,1,50.0,00:00:55.988,--,--,--,--,--,0,--,--
3.5,DRILL,1,50.0,00:00:55.988,--,--,--,--,--,0,--,--
3.6,DRILL,1,50.0,00:00:55.988,--,--,--,--,--,0,--,--
REST,,,0.0,00:00:54.820,--,--,0.0,--,--,--,0.0,--
4,DRILL,4,200.0,00:03:03.63,--,--,0.0,--,--,--,0.0,--
4.1,DRILL,1,50.0,00:00:45.765,--,--,--,--,--,0,--,--
4.2,DRILL,1,50.0,00:00:45.765,--,--,--,--,--,0,--,--
4.3,DRILL,1,50.0,00:00:45.765,--,--,--,--,--,0,--,--
4.4,DRILL,1,50.0,00:00:45.765,--,--,--,--,--,0,--,--
REST,,,0.0,00:00:50.00,--,--,0.0,--,--,--,0.0,--
5,DRILL,4,200.0,00:03:33.273,--,--,0.0,--,--,--,0.0,--
5.1,DRILL,1,50.0,00:00:53.318,--,--,--,--,--,0,--,--
5.2,DRILL,1,50.0,00:00:53.318,--,--,--,--,--,0,--,--
5.3,DRILL,1,50.0,00:00:53.318,--,--,--,--,--,0,--,--
5.4,DRILL,1,50.0,00:00:53.318,--,--,--,--,--,0,--,--
REST,,,0.0,00:00:13.477,--,--,0.0,--,--,--,0.0,--
6,DRILL,6,300.0,00:06:32.08,--,--,0.0,--,--,--,0.0,--
6.1,DRILL,1,50.0,00:01:05.334,--,--,--,--,--,0,--,--
6.2,DRILL,1,50.0,00:01:05.334,--,--,--,--,--,0,--,--
6.3,DRILL,1,50.0,00:01:05.334,--,--,--,--,--,0,--,--
6.4,DRILL,1,50.0,00:01:05.334,--,--,--,--,--,0,--,--
6.5,DRILL,1,50.0,00:01:05.334,--,--,--,--,--,0,--,--
6.6,DRILL,1,50.0,00:01:05.334,--,--,--,--,--,0,--,--
Summary,,36,1800.0,00:39:43.586,--,--,0.0,--,--,--,0.0,--
