Split,Swim Stroke,Lengths,Distance,Time,Avg Pace,Best Pace,Avg SWOLF,Avg Power,Max Power,Total Strokes,Avg Strokes,Calories
1,DRILL,6,300.0,00:05:25.383,--,--,0.0,--,--,--,0.0,--
1.1,DRILL,1,50.0,00:00:54.230,--,--,--,--,--,0,--,--
1.2,DRILL,1,50.0,00:00:54.230,--,--,--,--,--,0,--,--
1.3,DRILL,1,50.0,00:00:54.230,--,--,--,--,--,0,--,--
1.4,DRILL,1,50.0,00:00:54.230,--,--,--,--,--,0,--,--
1.5,DRILL,1,50.0,00:00:54.230,--,--,--,--,--,0,--,--
1.6,DRILL,1,50.0,00:00:54.230,--,--,--,--,--,0,--,--
REST,,,0.0,00:00:54.211,--,--,0.0,--,--,--,0.0,--
2,DRILL,4,200.0,00:03:19.602,--,--,0.0,--,--,--,0.0,--
2.1,DRILL,1,50.0,00:00:49.900,--,--,--,--,--,0,--,--
2.2,DRILL,1,50.0,00:00:49.900,--,--,--,--,--,0,--,--
2.3,DRILL,1,50.0,00:00:49.900,--,--,--,--,--,0,--,--
2.4,DRILL,1,50.0,00:00:49.900,--,--,--,--,--,0,--,--
REST,,,0.0,00:02:29.836,--,--,0.0,--,--,--,0.0,--
3,DRILL,2,100.0,00:01:35.758,--,--,0.0,--,--,--,0.0,--
3.1,DRILL,1,50.0,00:00:47.879,--,--,--,--,--,0,--,--
3.2,DRILL,1,50.0,00:00:47.879,--,--,--,--,--,0,--,--
REST,,,0.0,00:03:18.55,--,--,0.0,--,--,--,0.0,--
4,DRILL,1,50.0,00:00:45.398,--,--,0.0,--,--,--,1.6428571428571428,--
4.1,DRILL,1,50.0,00:00:45.398,--,--,--,--,--,0,--,--
REST,,,0.0,00:00:32.601,--,--,0.0,--,--,--,1.6428571428571428,--
5,MIXED,4,200.0,00:03:58.727,0:19:54  ,0:15:20  ,86.0,--,--,107,26.0,41
5.1,BACKSTROKE,1,50.0,00:01:00.312,0:20:06  ,0:20:06  ,83.0,--,--,23,--,--
5.2,FREESTYLE,1,50.0,00:00:50.812,0:16:56  ,0:16:56  ,74.0,--,--,23,--,--
5.3,BREASTSTROKE,1,50.0,00:01:21.687,0:27:13  ,0:27:13  ,121.0,--,--,39,--,--
5.4,FREESTYLE,1,50.0,00:00:46.00,0:15:20  ,0:15:20  ,68.0,--,--,22,--,--
REST,,,0.0,00:00:08.773,--,--,0.0,--,--,--,7.166666666666667,--
6,FREESTYLE,3,150.0,00:02:12.914,0:14:46  ,0:14:45  ,68.0,--,--,71,23.0,27
6.1,FREESTYLE,1,50.0,00:00:44.312,0:14:46  ,0:14:46  ,66.0,--,--,22,--,--
6.2,FREESTYLE,1,50.0,00:00:44.375,0:14:48  ,0:14:48  ,69.0,--,--,25,--,--
6.3,FREESTYLE,1,50.0,00:00:44.250,0:14:45  ,0:14:45  ,68.0,--,--,24,--,--
REST,,,0.0,00:01:12.773,--,--,0.0,--,--,--,9.571428571428571,--
7,FREESTYLE,2,100.0,00:01:33.539,0:15:35  ,0:15:11  ,71.0,--,--,48,24.0,18
7.1,FREESTYLE,1,50.0,00:00:45.562,0:15:11  ,0:15:11  ,69.0,--,--,23,--,--
7.2,FREESTYLE,1,50.0,00:00:48.00,0:16:00  ,0:16:00  ,73.0,--,--,25,--,--
REST,,,0.0,00:00:56.836,--,--,0.0,--,--,--,10.695652173913043,--
8,MIXED,6,300.0,00:05:46.703,0:19:16  ,0:15:31  ,83.0,--,--,151,25.0,78
8.1,BACKSTROKE,1,50.0,00:00:50.375,0:16:48  ,0:16:48  ,70.0,--,--,20,--,--
8.2,BREASTSTROKE,1,50.0,00:01:18.187,0:26:04  ,0:26:04  ,110.0,--,--,32,--,--
8.3,FREESTYLE,1,50.0,00:00:48.437,0:16:08  ,0:16:08  ,71.0,--,--,23,--,--
8.4,BACKSTROKE,1,50.0,00:01:10.500,0:23:30  ,0:23:30  ,98.0,--,--,27,--,--
8.5,FREESTYLE,1,50.0,00:00:46.562,0:15:31  ,0:15:31  ,70.0,--,--,23,--,--
8.6,FREESTYLE,1,50.0,00:00:52.687,0:17:33  ,0:17:33  ,79.0,--,--,26,--,--
REST,,,0.0,00:01:10.547,--,--,0.0,--,--,--,13.586206896551724,--
9,FREESTYLE,6,300.0,00:04:49.258,0:16:04  ,0:15:09  ,70.0,--,--,136,22.0,54
9.1,FREESTYLE,1,50.0,00:00:45.437,0:15:09  ,0:15:09  ,62.0,--,--,17,--,--
9.2,FREESTYLE,1,50.0,00:00:47.812,0:15:56  ,0:15:56  ,72.0,--,--,24,--,--
9.3,FREESTYLE,1,50.0,00:00:47.687,0:15:54  ,0:15:54  ,73.0,--,--,25,--,--
9.4,FREESTYLE,1,50.0,00:00:48.937,0:16:19  ,0:16:19  ,69.0,--,--,20,--,--
9.5,FREESTYLE,1,50.0,00:00:49.625,0:16:33  ,0:16:33  ,75.0,--,--,25,--,--
9.6,FREESTYLE,1,50.0,00:00:49.812,0:16:37  ,0:16:37  ,75.0,--,--,25,--,--
REST,,,0.0,00:00:20.180,--,--,0.0,--,--,--,15.457142857142857,--
10,BREASTSTROKE,2,100.0,00:02:19.508,0:23:14  ,0:21:54  ,100.0,--,--,61,30.0,25
10.1,BREASTSTROKE,1,50.0,00:01:05.625,0:21:54  ,0:21:54  ,94.0,--,--,28,--,--
10.2,BREASTSTROKE,1,50.0,00:01:13.937,0:24:39  ,0:24:39  ,107.0,--,--,33,--,--
REST,,,0.0,00:00:25.55,--,--,0.0,--,--,--,16.135135135135137,--
11,FREESTYLE,2,100.0,00:01:32.680,0:15:25  ,0:15:20  ,70.0,--,--,47,23.0,18
11.1,FREESTYLE,1,50.0,00:00:46.00,0:15:20  ,0:15:20  ,69.0,--,--,23,--,--
11.2,FREESTYLE,1,50.0,00:00:46.625,0:15:32  ,0:15:32  ,71.0,--,--,24,--,--
Summary,,38,1900.0,00:44:48.844,0:17:47  ,0:14:45  ,78.0,--,--,621,24.799999237060547,261
