Split,Swim Stroke,Lengths,Distance,Time,Avg Pace,Best Pace,Avg SWOLF,Avg Power,Max Power,Total Strokes,Avg Strokes,Calories
1,DRILL,6,300.0,00:05:42.867,--,--,0.0,--,--,--,0.0,--
1.1,DRILL,1,50.0,00:00:57.144,--,--,--,--,--,0,--,--
1.2,DRILL,1,50.0,00:00:57.144,--,--,--,--,--,0,--,--
1.3,DRILL,1,50.0,00:00:57.144,--,--,--,--,--,0,--,--
1.4,DRILL,1,50.0,00:00:57.144,--,--,--,--,--,0,--,--
1.5,DRILL,1,50.0,00:00:57.144,--,--,--,--,--,0,--,--
1.6,DRILL,1,50.0,00:00:57.144,--,--,--,--,--,0,--,--
REST,,,0.0,00:00:16.922,--,--,0.0,--,--,--,0.0,--
2,DRILL,4,200.0,00:03:32.86,--,--,0.0,--,--,--,0.0,--
2.1,DRILL,1,50.0,00:00:53.21,--,--,--,--,--,0,--,--
2.2,DRILL,1,50.0,00:00:53.21,--,--,--,--,--,0,--,--
2.3,DRILL,1,50.0,00:00:53.21,--,--,--,--,--,0,--,--
2.4,DRILL,1,50.0,00:00:53.21,--,--,--,--,--,0,--,--
REST,,,0.0,00:00:19.914,--,--,0.0,--,--,--,0.0,--
3,DRILL,4,200.0,00:02:18.63,--,--,0.0,--,--,--,0.0,--
3.1,DRILL,1,50.0,00:00:34.515,--,--,--,--,--,0,--,--
3.2,DRILL,1,50.0,00:00:34.515,--,--,--,--,--,0,--,--
3.3,DRILL,1,50.0,00:00:34.515,--,--,--,--,--,0,--,--
3.4,DRILL,1,50.0,00:00:34.515,--,--,--,--,--,0,--,--
REST,,,0.0,00:02:46.313,--,--,0.0,--,--,--,0.0,--
4,DRILL,1,50.0,00:00:42.219,--,--,0.0,--,--,--,1.5625,--
4.1,DRILL,1,50.0,00:00:42.219,--,--,--,--,--,0,--,--
REST,,,0.0,00:00:19.781,--,--,0.0,--,--,--,1.5625,--
5,FREESTYLE,2,100.0,00:01:28.31,0:14:40  ,0:14:40  ,68.0,--,--,49,24.0,18
5.1,FREESTYLE,1,50.0,00:00:44.62,0:14:41  ,0:14:41  ,69.0,--,--,25,--,--
5.2,FREESTYLE,1,50.0,00:00:44.00,0:14:40  ,0:14:40  ,68.0,--,--,24,--,--
REST,,,0.0,00:00:27.531,--,--,0.0,--,--,--,2.8823529411764706,--
6,BACKSTROKE,1,50.0,00:00:55.102,0:18:21  ,0:18:21  ,76.0,--,--,21,21.0,10
6.1,BACKSTROKE,1,50.0,00:00:55.62,0:18:21  ,0:18:21  ,76.0,--,--,21,--,--
REST,,,0.0,00:00:30.773,--,--,0.0,--,--,--,5.421052631578948,--
7,MIXED,2,100.0,00:01:53.188,0:18:52  ,0:14:17  ,83.0,--,--,54,27.0,22
7.1,BREASTSTROKE,1,50.0,00:01:10.312,0:23:26  ,0:23:26  ,103.0,--,--,33,--,--
7.2,FREESTYLE,1,50.0,00:00:42.875,0:14:17  ,0:14:17  ,64.0,--,--,21,--,--
REST,,,0.0,00:01:17.188,--,--,0.0,--,--,--,5.904761904761905,--
8,DRILL,2,100.0,00:01:46.922,--,--,0.0,--,--,--,5.391304347826087,--
8.1,DRILL,1,50.0,00:00:53.461,--,--,--,--,--,0,--,--
8.2,DRILL,1,50.0,00:00:53.461,--,--,--,--,--,0,--,--
REST,,,0.0,00:00:37.516,--,--,0.0,--,--,--,5.391304347826087,--
9,DRILL,2,100.0,00:02:14.102,--,--,0.0,--,--,--,4.592592592592593,--
9.1,DRILL,1,50.0,00:01:07.51,--,--,--,--,--,0,--,--
9.2,DRILL,1,50.0,00:01:07.51,--,--,--,--,--,0,--,--
REST,,,0.0,00:01:34.773,--,--,0.0,--,--,--,4.592592592592593,--
10,DRILL,4,200.0,00:04:11.938,--,--,0.0,--,--,--,4.275862068965517,--
10.1,DRILL,1,50.0,00:01:02.984,--,--,--,--,--,0,--,--
10.2,DRILL,1,50.0,00:01:02.984,--,--,--,--,--,0,--,--
10.3,DRILL,1,50.0,00:01:02.984,--,--,--,--,--,0,--,--
10.4,DRILL,1,50.0,00:01:02.984,--,--,--,--,--,0,--,--
REST,,,0.0,00:01:58.875,--,--,0.0,--,--,--,4.275862068965517,--
11,DRILL,2,100.0,00:01:39.914,--,--,0.0,--,--,--,4.0,--
11.1,DRILL,1,50.0,00:00:49.957,--,--,--,--,--,0,--,--
11.2,DRILL,1,50.0,00:00:49.957,--,--,--,--,--,0,--,--
REST,,,0.0,00:00:36.461,--,--,0.0,--,--,--,4.0,--
12,DRILL,2,100.0,00:02:18.477,--,--,0.0,--,--,--,3.757575757575758,--
12.1,DRILL,1,50.0,00:01:09.238,--,--,--,--,--,0,--,--
12.2,DRILL,1,50.0,00:01:09.238,--,--,--,--,--,0,--,--
REST,,,0.0,00:00:17.86,--,--,0.0,--,--,--,3.757575757575758,--
13,DRILL,2,100.0,00:01:54.305,--,--,0.0,--,--,--,3.6470588235294117,--
13.1,DRILL,1,50.0,00:00:57.152,--,--,--,--,--,0,--,--
13.2,DRILL,1,50.0,00:00:57.152,--,--,--,--,--,0,--,--
Summary,,34,1700.0,00:41:40.609,0:17:05  ,0:14:17  ,76.0,--,--,124,24.799999237060547,50
