Split,Swim Stroke,Lengths,Distance,Time,Avg Pace,Best Pace,Avg SWOLF,Avg Power,Max Power,Total Strokes,Avg Strokes,Calories
1,DRILL,20,1000.0,00:19:18.773,--,--,0.0,--,--,--,0.0,--
1.1,DRILL,1,50.0,00:00:57.938,--,--,--,--,--,0,--,--
1.2,DRILL,1,50.0,00:00:57.938,--,--,--,--,--,0,--,--
1.3,DRILL,1,50.0,00:00:57.938,--,--,--,--,--,0,--,--
1.4,DRILL,1,50.0,00:00:57.938,--,--,--,--,--,0,--,--
1.5,DRILL,1,50.0,00:00:57.938,--,--,--,--,--,0,--,--
1.6,DRILL,1,50.0,00:00:57.938,--,--,--,--,--,0,--,--
1.7,DRILL,1,50.0,00:00:57.938,--,--,--,--,--,0,--,--
1.8,DRILL,1,50.0,00:00:57.938,--,--,--,--,--,0,--,--
1.9,DRILL,1,50.0,00:00:57.938,--,--,--,--,--,0,--,--
1.10,DRILL,1,50.0,00:00:57.938,--,--,--,--,--,0,--,--
1.11,DRILL,1,50.0,00:00:57.938,--,--,--,--,--,0,--,--
1.12,DRILL,1,50.0,00:00:57.938,--,--,--,--,--,0,--,--
1.13,DRILL,1,50.0,00:00:57.938,--,--,--,--,--,0,--,--
1.14,DRILL,1,50.0,00:00:57.938,--,--,--,--,--,0,--,--
1.15,DRILL,1,50.0,00:00:57.938,--,--,--,--,--,0,--,--
1.16,DRILL,1,50.0,00:00:57.938,--,--,--,--,--,0,--,--
1.17,DRILL,1,50.0,00:00:57.938,--,--,--,--,--,0,--,--
1.18,DRILL,1,50.0,00:00:57.938,--,--,--,--,--,0,--,--
1.19,DRILL,1,50.0,00:00:57.938,--,--,--,--,--,0,--,--
1.20,DRILL,1,50.0,00:00:57.938,--,--,--,--,--,0,--,--
REST,,,0.0,00:02:49.102,--,--,0.0,--,--,--,0.0,--
2,DRILL,2,100.0,00:01:25.727,--,--,0.0,--,--,--,0.0,--
2.1,DRILL,1,50.0,00:00:42.863,--,--,--,--,--,0,--,--
2.2,DRILL,1,50.0,00:00:42.863,--,--,--,--,--,0,--,--
REST,,,0.0,00:01:24.836,--,--,0.0,--,--,--,0.0,--
3,DRILL,8,400.0,00:06:29.531,--,--,0.0,--,--,--,1.064516129032258,--
3.1,DRILL,1,50.0,00:00:48.691,--,--,--,--,--,0,--,--
3.2,DRILL,1,50.0,00:00:48.691,--,--,--,--,--,0,--,--
3.3,DRILL,1,50.0,00:00:48.691,--,--,--,--,--,0,--,--
3.4,DRILL,1,50.0,00:00:48.691,--,--,--,--,--,0,--,--
3.5,DRILL,1,50.0,00:00:48.691,--,--,--,--,--,0,--,--
3.6,DRILL,1,50.0,00:00:48.691,--,--,--,--,--,0,--,--
3.7,DRILL,1,50.0,00:00:48.691,--,--,--,--,--,0,--,--
3.8,DRILL,1,50.0,00:00:48.691,--,--,--,--,--,0,--,--
REST,,,0.0,00:00:29.656,--,--,0.0,--,--,--,1.064516129032258,--
4,BREASTSTROKE,2,100.0,00:02:08.195,0:21:22  ,0:20:31  ,94.0,--,--,61,30.0,26
4.1,BREASTSTROKE,1,50.0,00:01:06.687,0:22:15  ,0:22:15  ,100.0,--,--,33,--,--
4.2,BREASTSTROKE,1,50.0,00:01:01.562,0:20:31  ,0:20:31  ,90.0,--,--,28,--,--
REST,,,0.0,00:02:42.930,--,--,0.0,--,--,--,1.90625,--
5,FREESTYLE,1,50.0,00:00:43.719,0:14:34  ,0:14:35  ,69.0,--,--,25,25.0,9
5.1,FREESTYLE,1,50.0,00:00:43.750,0:14:35  ,0:14:35  ,69.0,--,--,25,--,--
REST,,,0.0,00:00:38.344,--,--,0.0,--,--,--,2.606060606060606,--
6,FREESTYLE,1,50.0,00:00:42.141,0:14:03  ,0:14:03  ,66.0,--,--,24,24.0,9
6.1,FREESTYLE,1,50.0,00:00:42.187,0:14:03  ,0:14:03  ,66.0,--,--,24,--,--
REST,,,0.0,00:03:07.922,--,--,0.0,--,--,--,3.235294117647059,--
REST,,,0.0,00:24:14.750,--,--,0.0,--,--,--,3.235294117647059,--
Summary,,34,1700.0,01:06:15.773,0:17:50  ,0:14:03  ,81.0,--,--,110,27.5,44
