Split,Swim Stroke,Lengths,Distance,Time,Avg Pace,Best Pace,Avg SWOLF,Avg Power,Max Power,Total Strokes,Avg Strokes,Calories
1,DRILL,8,400.0,00:06:54.750,--,--,0.0,--,--,--,0.0,--
1.1,DRILL,1,50.0,00:00:51.843,--,--,--,--,--,0,--,--
1.2,DRILL,1,50.0,00:00:51.843,--,--,--,--,--,0,--,--
1.3,DRILL,1,50.0,00:00:51.843,--,--,--,--,--,0,--,--
1.4,DRILL,1,50.0,00:00:51.843,--,--,--,--,--,0,--,--
1.5,DRILL,1,50.0,00:00:51.843,--,--,--,--,--,0,--,--
1.6,DRILL,1,50.0,00:00:51.843,--,--,--,--,--,0,--,--
1.7,DRILL,1,50.0,00:00:51.843,--,--,--,--,--,0,--,--
1.8,DRILL,1,50.0,00:00:51.843,--,--,--,--,--,0,--,--
REST,,,0.0,00:01:29.555,--,--,0.0,--,--,--,0.0,--
2,DRILL,4,200.0,00:03:06.398,--,--,0.0,--,--,--,0.0,--
2.1,DRILL,1,50.0,00:00:46.599,--,--,--,--,--,0,--,--
2.2,DRILL,1,50.0,00:00:46.599,--,--,--,--,--,0,--,--
2.3,DRILL,1,50.0,00:00:46.599,--,--,--,--,--,0,--,--
2.4,DRILL,1,50.0,00:00:46.599,--,--,--,--,--,0,--,--
REST,,,0.0,00:00:30.852,--,--,0.0,--,--,--,0.0,--
3,DRILL,1,50.0,00:01:05.233,--,--,0.0,--,--,--,0.0,--
3.1,DRILL,1,50.0,00:01:05.233,--,--,--,--,--,0,--,--
REST,,,0.0,00:00:18.453,--,--,0.0,--,--,--,0.0,--
4,DRILL,1,50.0,00:01:03.492,--,--,0.0,--,--,--,0.0,--
4.1,DRILL,1,50.0,00:01:03.492,--,--,--,--,--,0,--,--
REST,,,0.0,00:00:33.570,--,--,0.0,--,--,--,0.0,--
5,DRILL,4,200.0,00:02:58.680,--,--,0.0,--,--,--,0.0,--
5.1,DRILL,1,50.0,00:00:44.670,--,--,--,--,--,0,--,--
5.2,DRILL,1,50.0,00:00:44.670,--,--,--,--,--,0,--,--
5.3,DRILL,1,50.0,00:00:44.670,--,--,--,--,--,0,--,--
5.4,DRILL,1,50.0,00:00:44.670,--,--,--,--,--,0,--,--
REST,,,0.0,00:01:15.258,--,--,0.0,--,--,--,0.0,--
6,DRILL,2,100.0,00:01:38.680,--,--,0.0,--,--,--,0.0,--
6.1,DRILL,1,50.0,00:00:49.340,--,--,--,--,--,0,--,--
6.2,DRILL,1,50.0,00:00:49.340,--,--,--,--,--,0,--,--
REST,,,0.0,00:00:28.695,--,--,0.0,--,--,--,0.0,--
7,DRILL,1,50.0,00:00:42.273,--,--,0.0,--,--,--,0.0,--
7.1,DRILL,1,50.0,00:00:42.273,--,--,--,--,--,0,--,--
REST,,,0.0,00:00:22.727,--,--,0.0,--,--,--,0.0,--
8,DRILL,5,250.0,00:03:40.23,--,--,0.0,--,--,--,0.7777777777777778,--
8.1,DRILL,1,50.0,00:00:44.04,--,--,--,--,--,0,--,--
8.2,DRILL,1,50.0,00:00:44.04,--,--,--,--,--,0,--,--
8.3,DRILL,1,50.0,00:00:44.04,--,--,--,--,--,0,--,--
8.4,DRILL,1,50.0,00:00:44.04,--,--,--,--,--,0,--,--
8.5,DRILL,1,50.0,00:00:44.04,--,--,--,--,--,0,--,--
REST,,,0.0,00:02:04.602,--,--,0.0,--,--,--,0.7777777777777778,--
9,FREESTYLE,2,100.0,00:01:28.47,0:14:40  ,0:14:34  ,65.0,--,--,43,21.0,18
9.1,FREESTYLE,1,50.0,00:00:43.687,0:14:34  ,0:14:34  ,65.0,--,--,21,--,--
9.2,FREESTYLE,1,50.0,00:00:44.375,0:14:48  ,0:14:48  ,66.0,--,--,22,--,--
REST,,,0.0,00:00:09.16,--,--,0.0,--,--,--,1.5357142857142858,--
10,BACKSTROKE,1,50.0,00:01:00.492,0:20:10  ,0:20:12  ,82.0,--,--,21,21.0,11
10.1,BACKSTROKE,1,50.0,00:01:00.562,0:20:12  ,0:20:12  ,82.0,--,--,21,--,--
REST,,,0.0,00:00:04.383,--,--,0.0,--,--,--,2.206896551724138,--
11,FREESTYLE,1,50.0,00:00:43.08,0:14:21  ,0:14:21  ,67.0,--,--,24,24.0,9
11.1,FREESTYLE,1,50.0,00:00:43.62,0:14:21  ,0:14:21  ,67.0,--,--,24,--,--
REST,,,0.0,00:03:26.617,--,--,0.0,--,--,--,2.6666666666666665,--
12,DRILL,4,200.0,00:02:50.883,--,--,0.0,--,--,--,3.1714285714285713,--
12.1,DRILL,1,50.0,00:00:42.720,--,--,--,--,--,0,--,--
12.2,DRILL,1,50.0,00:00:42.720,--,--,--,--,--,0,--,--
12.3,DRILL,1,50.0,00:00:42.720,--,--,--,--,--,0,--,--
12.4,DRILL,1,50.0,00:00:42.720,--,--,--,--,--,0,--,--
REST,,,0.0,00:02:45.555,--,--,0.0,--,--,--,3.1714285714285713,--
13,FREESTYLE,2,100.0,00:01:33.664,0:15:37  ,0:14:31  ,65.0,--,--,37,18.0,18
13.1,FREESTYLE,1,50.0,00:00:50.125,0:16:43  ,0:16:43  ,73.0,--,--,23,--,--
13.2,FREESTYLE,1,50.0,00:00:43.562,0:14:31  ,0:14:31  ,58.0,--,--,14,--,--
REST,,,0.0,00:00:17.398,--,--,0.0,--,--,--,3.4722222222222223,--
14,BREASTSTROKE,1,50.0,00:01:06.273,0:22:04  ,0:22:06  ,97.0,--,--,31,31.0,13
14.1,BREASTSTROKE,1,50.0,00:01:06.250,0:22:06  ,0:22:06  ,97.0,--,--,31,--,--
REST,,,0.0,00:00:22.414,--,--,0.0,--,--,--,4.216216216216216,--
15,BREASTSTROKE,1,50.0,00:00:57.469,0:19:09  ,0:19:10  ,81.0,--,--,23,23.0,13
15.1,BREASTSTROKE,1,50.0,00:00:57.500,0:19:10  ,0:19:10  ,81.0,--,--,23,--,--
REST,,,0.0,00:00:17.344,--,--,0.0,--,--,--,4.589743589743589,--
16,DRILL,2,100.0,00:01:59.39,--,--,0.0,--,--,--,3.6530612244897958,--
16.1,DRILL,1,50.0,00:00:59.519,--,--,--,--,--,0,--,--
16.2,DRILL,1,50.0,00:00:59.519,--,--,--,--,--,0,--,--
REST,,,0.0,00:00:28.211,--,--,0.0,--,--,--,3.6530612244897958,--
17,DRILL,10,500.0,00:07:48.813,--,--,0.0,--,--,--,3.9607843137254903,--
17.1,DRILL,1,50.0,00:00:46.881,--,--,--,--,--,0,--,--
17.2,DRILL,1,50.0,00:00:46.881,--,--,--,--,--,0,--,--
17.3,DRILL,1,50.0,00:00:46.881,--,--,--,--,--,0,--,--
17.4,DRILL,1,50.0,00:00:46.881,--,--,--,--,--,0,--,--
17.5,DRILL,1,50.0,00:00:46.881,--,--,--,--,--,0,--,--
17.6,DRILL,1,50.0,00:00:46.881,--,--,--,--,--,0,--,--
17.7,DRILL,1,50.0,00:00:46.881,--,--,--,--,--,0,--,--
17.8,DRILL,1,50.0,00:00:46.881,--,--,--,--,--,0,--,--
17.9,DRILL,1,50.0,00:00:46.881,--,--,--,--,--,0,--,--
17.10,DRILL,1,50.0,00:00:46.881,--,--,--,--,--,0,--,--
REST,,,0.0,00:00:20.688,--,--,0.0,--,--,--,3.9607843137254903,--
18,BACKSTROKE,2,100.0,00:02:08.586,0:21:27  ,0:20:19  ,89.0,--,--,49,24.0,22
18.1,BACKSTROKE,1,50.0,00:01:00.937,0:20:19  ,0:20:19  ,84.0,--,--,23,--,--
18.2,BACKSTROKE,1,50.0,00:01:07.687,0:22:35  ,0:22:35  ,94.0,--,--,26,--,--
REST,,,0.0,00:00:10.352,--,--,0.0,--,--,--,4.811320754716981,--
19,BREASTSTROKE,2,100.0,00:02:16.555,0:22:46  ,0:22:42  ,96.0,--,--,56,28.0,26
19.1,BREASTSTROKE,1,50.0,00:01:08.62,0:22:42  ,0:22:42  ,95.0,--,--,27,--,--
19.2,BREASTSTROKE,1,50.0,00:01:08.500,0:22:51  ,0:22:51  ,98.0,--,--,29,--,--
REST,,,0.0,00:00:53.383,--,--,0.0,--,--,--,5.2592592592592595,--
REST,,,0.0,00:00:01.563,--,--,0.0,--,--,--,5.2592592592592595,--
REST,,,0.0,00:00:08.750,--,--,0.0,--,--,--,5.2592592592592595,--
20,DRILL,1,50.0,00:00:41.766,--,--,0.0,--,--,--,5.163636363636364,--
20.1,DRILL,1,50.0,00:00:41.766,--,--,--,--,--,0,--,--
REST,,,0.0,00:00:31.109,--,--,0.0,--,--,--,5.163636363636364,--
21,DRILL,1,50.0,00:00:40.438,--,--,0.0,--,--,--,4.982456140350878,--
21.1,DRILL,1,50.0,00:00:40.438,--,--,--,--,--,0,--,--
REST,,,0.0,00:00:28.375,--,--,0.0,--,--,--,4.982456140350878,--
22,DRILL,2,100.0,00:01:28.406,--,--,0.0,--,--,--,4.896551724137931,--
22.1,DRILL,1,50.0,00:00:44.203,--,--,--,--,--,0,--,--
22.2,DRILL,1,50.0,00:00:44.203,--,--,--,--,--,0,--,--
REST,,,0.0,00:00:32.531,--,--,0.0,--,--,--,4.896551724137931,--
23,FREESTYLE,1,50.0,00:00:45.531,0:15:11  ,0:15:11  ,71.0,--,--,25,25.0,9
23.1,FREESTYLE,1,50.0,00:00:45.562,0:15:11  ,0:15:11  ,71.0,--,--,25,--,--
REST,,,0.0,00:00:06.156,--,--,0.0,--,--,--,5.237288135593221,--
24,BREASTSTROKE,1,50.0,00:01:10.94,0:23:20  ,0:23:22  ,104.0,--,--,34,34.0,13
24.1,BREASTSTROKE,1,50.0,00:01:10.62,0:23:22  ,0:23:22  ,104.0,--,--,34,--,--
Summary,,60,3000.0,01:07:57.188,0:18:48  ,0:14:21  ,80.0,--,--,343,24.5,152
