Split,Swim Stroke,Lengths,Distance,Time,Avg Pace,Best Pace,Avg SWOLF,Avg Power,Max Power,Total Strokes,Avg Strokes,Calories
1,FREESTYLE,4,200.0,00:02:57.484,0:14:46  ,0:14:13  ,69.0,--,--,100,25.0,36
1.1,FREESTYLE,1,50.0,00:00:42.687,0:14:13  ,0:14:13  ,65.0,--,--,22,--,--
1.2,FREESTYLE,1,50.0,00:00:44.312,0:14:46  ,0:14:46  ,69.0,--,--,25,--,--
1.3,FREESTYLE,1,50.0,00:00:47.375,0:15:47  ,0:15:47  ,74.0,--,--,27,--,--
1.4,FREESTYLE,1,50.0,00:00:42.875,0:14:17  ,0:14:17  ,69.0,--,--,26,--,--
REST,,,0.0,00:00:05.563,--,--,0.0,--,--,--,27.6,--
2,BREASTSTROKE,2,100.0,00:02:21.547,0:23:36  ,0:22:35  ,108.0,--,--,74,37.0,25
2.1,BREASTSTROKE,1,50.0,00:01:13.875,0:24:39  ,0:24:39  ,112.0,--,--,38,--,--
2.2,BREASTSTROKE,1,50.0,00:01:07.687,0:22:35  ,0:22:35  ,104.0,--,--,36,--,--
REST,,,0.0,00:00:03.953,--,--,0.0,--,--,--,29.0,--
3,BACKSTROKE,1,50.0,00:00:56.367,0:13:54  ,0:13:54  ,60.0,--,--,18,18.0,9
3.1,BACKSTROKE,1,50.0,00:00:41.687,0:13:54  ,0:13:54  ,60.0,--,--,18,--,--
REST,,,0.0,00:00:08.508,--,--,0.0,--,--,--,27.125,--
4,FREESTYLE,2,100.0,00:01:30.898,0:15:09  ,0:14:50  ,70.0,--,--,50,25.0,18
4.1,FREESTYLE,1,50.0,00:00:46.437,0:15:29  ,0:15:29  ,71.0,--,--,25,--,--
4.2,FREESTYLE,1,50.0,00:00:44.500,0:14:50  ,0:14:50  ,70.0,--,--,25,--,--
REST,,,0.0,00:00:08.852,--,--,0.0,--,--,--,26.88888888888889,--
5,BACKSTROKE,1,50.0,00:00:59.203,0:19:44  ,0:19:46  ,79.0,--,--,20,20.0,11
5.1,BACKSTROKE,1,50.0,00:00:59.250,0:19:46  ,0:19:46  ,79.0,--,--,20,--,--
REST,,,0.0,00:00:40.984,--,--,0.0,--,--,--,13.789473684210526,--
6,DRILL,10,500.0,00:07:54.188,--,--,0.0,--,--,--,13.1,--
6.1,DRILL,1,50.0,00:00:47.418,--,--,--,--,--,0,--,--
6.2,DRILL,1,50.0,00:00:47.418,--,--,--,--,--,0,--,--
6.3,DRILL,1,50.0,00:00:47.418,--,--,--,--,--,0,--,--
6.4,DRILL,1,50.0,00:00:47.418,--,--,--,--,--,0,--,--
6.5,DRILL,1,50.0,00:00:47.418,--,--,--,--,--,0,--,--
6.6,DRILL,1,50.0,00:00:47.418,--,--,--,--,--,0,--,--
6.7,DRILL,1,50.0,00:00:47.418,--,--,--,--,--,0,--,--
6.8,DRILL,1,50.0,00:00:47.418,--,--,--,--,--,0,--,--
6.9,DRILL,1,50.0,00:00:47.418,--,--,--,--,--,0,--,--
6.10,DRILL,1,50.0,00:00:47.418,--,--,--,--,--,0,--,--
REST,,,0.0,00:01:52.750,--,--,0.0,--,--,--,13.1,--
7,BREASTSTROKE,1,50.0,00:01:11.273,0:23:44  ,0:23:46  ,105.0,--,--,34,34.0,13
7.1,BREASTSTROKE,1,50.0,00:01:11.250,0:23:46  ,0:23:46  ,105.0,--,--,34,--,--
REST,,,0.0,00:00:54.727,--,--,0.0,--,--,--,14.095238095238095,--
8,BREASTSTROKE,1,50.0,00:01:11.141,0:23:42  ,0:23:44  ,102.0,--,--,31,31.0,13
8.1,BREASTSTROKE,1,50.0,00:01:11.125,0:23:44  ,0:23:44  ,102.0,--,--,31,--,--
REST,,,0.0,00:00:14.47,--,--,0.0,--,--,--,15.130434782608695,--
9,BACKSTROKE,2,100.0,00:02:04.258,0:20:43  ,0:20:28  ,84.0,--,--,44,22.0,22
9.1,BACKSTROKE,1,50.0,00:01:02.937,0:20:59  ,0:20:59  ,84.0,--,--,21,--,--
9.2,BACKSTROKE,1,50.0,00:01:01.375,0:20:28  ,0:20:28  ,84.0,--,--,23,--,--
REST,,,0.0,00:00:13.805,--,--,0.0,--,--,--,15.92,--
10,FREESTYLE,4,200.0,00:03:03.313,0:15:16  ,0:14:42  ,72.0,--,--,108,27.0,36
10.1,FREESTYLE,1,50.0,00:00:47.00,0:15:40  ,0:15:40  ,74.0,--,--,27,--,--
10.2,FREESTYLE,1,50.0,00:00:45.812,0:15:16  ,0:15:16  ,73.0,--,--,27,--,--
10.3,FREESTYLE,1,50.0,00:00:46.375,0:15:27  ,0:15:27  ,73.0,--,--,27,--,--
10.4,FREESTYLE,1,50.0,00:00:44.125,0:14:42  ,0:14:42  ,71.0,--,--,27,--,--
REST,,,0.0,00:01:04.125,--,--,0.0,--,--,--,17.107142857142858,--
11,BREASTSTROKE,1,50.0,00:01:11.23,0:23:40  ,0:23:42  ,106.0,--,--,35,35.0,13
11.1,BREASTSTROKE,1,50.0,00:01:11.62,0:23:42  ,0:23:42  ,106.0,--,--,35,--,--
REST,,,0.0,00:00:19.539,--,--,0.0,--,--,--,17.724137931034484,--
12,FREESTYLE,1,50.0,00:00:35.406,0:11:48  ,0:11:49  ,55.0,--,--,20,20.0,14
12.1,FREESTYLE,1,50.0,00:00:35.437,0:11:49  ,0:11:49  ,55.0,--,--,20,--,--
Summary,,30,1500.0,00:31:43.375,0:17:47  ,0:11:49  ,80.0,--,--,534,26.700000762939453,210
