Split,Swim Stroke,Lengths,Distance,Time,Avg Pace,Best Pace,Avg SWOLF,Avg Power,Max Power,Total Strokes,Avg Strokes,Calories
1,DRILL,20,500.0,00:08:45.203,--,--,0.0,--,--,--,0.0,--
1.1,DRILL,1,25.0,00:00:26.260,--,--,--,--,--,0,--,--
1.2,DRILL,1,25.0,00:00:26.260,--,--,--,--,--,0,--,--
1.3,DRILL,1,25.0,00:00:26.260,--,--,--,--,--,0,--,--
1.4,DRILL,1,25.0,00:00:26.260,--,--,--,--,--,0,--,--
1.5,DRILL,1,25.0,00:00:26.260,--,--,--,--,--,0,--,--
1.6,DRILL,1,25.0,00:00:26.260,--,--,--,--,--,0,--,--
1.7,DRILL,1,25.0,00:00:26.260,--,--,--,--,--,0,--,--
1.8,DRILL,1,25.0,00:00:26.260,--,--,--,--,--,0,--,--
1.9,DRILL,1,25.0,00:00:26.260,--,--,--,--,--,0,--,--
1.10,DRILL,1,25.0,00:00:26.260,--,--,--,--,--,0,--,--
1.11,DRILL,1,25.0,00:00:26.260,--,--,--,--,--,0,--,--
1.12,DRILL,1,25.0,00:00:26.260,--,--,--,--,--,0,--,--
1.13,DRILL,1,25.0,00:00:26.260,--,--,--,--,--,0,--,--
1.14,DRILL,1,25.0,00:00:26.260,--,--,--,--,--,0,--,--
1.15,DRILL,1,25.0,00:00:26.260,--,--,--,--,--,0,--,--
1.16,DRILL,1,25.0,00:00:26.260,--,--,--,--,--,0,--,--
1.17,DRILL,1,25.0,00:00:26.260,--,--,--,--,--,0,--,--
1.18,DRILL,1,25.0,00:00:26.260,--,--,--,--,--,0,--,--
1.19,DRILL,1,25.0,00:00:26.260,--,--,--,--,--,0,--,--
1.20,DRILL,1,25.0,00:00:26.260,--,--,--,--,--,0,--,--
Summary,,20,500.0,00:08:45.203,--,--,0.0,--,--,--,0.0,--
