Split,Swim Stroke,Lengths,Distance,Time,Avg Pace,Best Pace,Avg SWOLF,Avg Power,Max Power,Total Strokes,Avg Strokes,Calories
1,FREESTYLE,4,200.0,00:03:12.188,0:15:59  ,0:15:16  ,72.0,--,--,97,24.0,36
1.1,FREESTYLE,1,50.0,00:00:45.812,0:15:16  ,0:15:16  ,71.0,--,--,25,--,--
1.2,FREESTYLE,1,50.0,00:00:48.312,0:16:07  ,0:16:07  ,72.0,--,--,24,--,--
1.3,FREESTYLE,1,50.0,00:00:51.437,0:17:08  ,0:17:08  ,76.0,--,--,25,--,--
1.4,FREESTYLE,1,50.0,00:00:46.312,0:15:26  ,0:15:26  ,69.0,--,--,23,--,--
REST,,,0.0,00:00:22.727,--,--,0.0,--,--,--,25.8,--
2,BREASTSTROKE,4,200.0,00:04:14.125,0:21:10  ,0:19:46  ,92.0,--,--,114,28.0,52
2.1,BREASTSTROKE,1,50.0,00:01:09.187,0:23:05  ,0:23:05  ,101.0,--,--,32,--,--
2.2,BREASTSTROKE,1,50.0,00:00:59.250,0:19:46  ,0:19:46  ,85.0,--,--,26,--,--
2.3,BREASTSTROKE,1,50.0,00:01:06.62,0:22:02  ,0:22:02  ,95.0,--,--,29,--,--
2.4,BREASTSTROKE,1,50.0,00:00:59.625,0:19:53  ,0:19:53  ,87.0,--,--,27,--,--
REST,,,0.0,00:00:05.00,--,--,0.0,--,--,--,26.22222222222222,--
3,FREESTYLE,4,200.0,00:03:10.227,0:15:51  ,0:15:30  ,72.0,--,--,100,25.0,36
3.1,FREESTYLE,1,50.0,00:00:47.875,0:15:57  ,0:15:57  ,73.0,--,--,25,--,--
3.2,FREESTYLE,1,50.0,00:00:46.500,0:15:30  ,0:15:30  ,72.0,--,--,25,--,--
3.3,FREESTYLE,1,50.0,00:00:48.687,0:16:14  ,0:16:14  ,75.0,--,--,26,--,--
3.4,FREESTYLE,1,50.0,00:00:47.187,0:15:44  ,0:15:44  ,71.0,--,--,24,--,--
REST,,,0.0,00:00:13.336,--,--,0.0,--,--,--,26.384615384615383,--
4,MIXED,4,200.0,00:04:28.523,0:22:22  ,0:21:35  ,96.0,--,--,117,29.0,49
4.1,BREASTSTROKE,1,50.0,00:01:04.937,0:21:40  ,0:21:40  ,97.0,--,--,32,--,--
4.2,BACKSTROKE,1,50.0,00:01:04.687,0:21:35  ,0:21:35  ,91.0,--,--,26,--,--
4.3,BACKSTROKE,1,50.0,00:01:11.250,0:23:46  ,0:23:46  ,97.0,--,--,26,--,--
4.4,BREASTSTROKE,1,50.0,00:01:07.625,0:22:33  ,0:22:33  ,101.0,--,--,33,--,--
REST,,,0.0,00:00:26.414,--,--,0.0,--,--,--,26.647058823529413,--
5,FREESTYLE,3,150.0,00:02:27.211,0:16:21  ,0:15:41  ,75.0,--,--,78,26.0,27
5.1,FREESTYLE,1,50.0,00:00:47.250,0:15:45  ,0:15:45  ,72.0,--,--,25,--,--
5.2,FREESTYLE,1,50.0,00:00:47.62,0:15:41  ,0:15:41  ,73.0,--,--,26,--,--
5.3,FREESTYLE,1,50.0,00:00:52.937,0:17:39  ,0:17:39  ,80.0,--,--,27,--,--
REST,,,0.0,00:05:19.852,--,--,0.0,--,--,--,26.5,--
6,FREESTYLE,2,100.0,00:01:34.563,0:13:18  ,0:11:49  ,61.0,--,--,42,21.0,18
6.1,FREESTYLE,1,50.0,00:00:44.375,0:14:48  ,0:14:48  ,68.0,--,--,24,--,--
6.2,FREESTYLE,1,50.0,00:00:35.437,0:11:49  ,0:11:49  ,53.0,--,--,18,--,--
REST,,,0.0,00:00:42.813,--,--,0.0,--,--,--,26.0,--
7,FREESTYLE,5,250.0,00:04:10.719,0:16:43  ,0:13:13  ,76.0,--,--,132,26.0,45
7.1,FREESTYLE,1,50.0,00:00:45.437,0:15:09  ,0:15:09  ,69.0,--,--,24,--,--
7.2,FREESTYLE,1,50.0,00:00:53.312,0:17:47  ,0:17:47  ,81.0,--,--,28,--,--
7.3,FREESTYLE,1,50.0,00:00:39.625,0:13:13  ,0:13:13  ,59.0,--,--,19,--,--
7.4,FREESTYLE,1,50.0,00:01:05.875,0:21:57  ,0:21:57  ,101.0,--,--,35,--,--
7.5,FREESTYLE,1,50.0,00:00:46.500,0:15:30  ,0:15:30  ,73.0,--,--,26,--,--
REST,,,0.0,00:00:34.844,--,--,0.0,--,--,--,26.48148148148148,--
8,BREASTSTROKE,2,100.0,00:02:13.836,0:22:18  ,0:19:36  ,97.0,--,--,61,30.0,25
8.1,BREASTSTROKE,1,50.0,00:01:15.00,0:25:01  ,0:25:01  ,110.0,--,--,35,--,--
8.2,BREASTSTROKE,1,50.0,00:00:58.812,0:19:36  ,0:19:36  ,85.0,--,--,26,--,--
REST,,,0.0,00:01:10.414,--,--,0.0,--,--,--,23.903225806451612,--
9,DRILL,4,200.0,00:03:01.375,--,--,0.0,--,--,--,23.15625,--
9.1,DRILL,1,50.0,00:00:45.343,--,--,--,--,--,0,--,--
9.2,DRILL,1,50.0,00:00:45.343,--,--,--,--,--,0,--,--
9.3,DRILL,1,50.0,00:00:45.343,--,--,--,--,--,0,--,--
9.4,DRILL,1,50.0,00:00:45.343,--,--,--,--,--,0,--,--
REST,,,0.0,00:01:13.563,--,--,0.0,--,--,--,23.15625,--
10,DRILL,1,50.0,00:00:55.516,--,--,0.0,--,--,--,21.17142857142857,--
10.1,DRILL,1,50.0,00:00:55.516,--,--,--,--,--,0,--,--
REST,,,0.0,00:03:32.484,--,--,0.0,--,--,--,21.17142857142857,--
11,DRILL,3,150.0,00:02:17.63,--,--,0.0,--,--,--,20.583333333333332,--
11.1,DRILL,1,50.0,00:00:45.687,--,--,--,--,--,0,--,--
11.2,DRILL,1,50.0,00:00:45.687,--,--,--,--,--,0,--,--
11.3,DRILL,1,50.0,00:00:45.687,--,--,--,--,--,0,--,--
REST,,,0.0,00:00:35.125,--,--,0.0,--,--,--,20.583333333333332,--
12,BREASTSTROKE,1,50.0,00:01:16.742,0:19:06  ,0:19:06  ,86.0,--,--,29,29.0,13
12.1,BREASTSTROKE,1,50.0,00:00:57.312,0:19:06  ,0:19:06  ,86.0,--,--,29,--,--
REST,,,0.0,00:00:32.195,--,--,0.0,--,--,--,20.842105263157894,--
13,FREESTYLE,2,100.0,00:01:36.734,0:16:07  ,0:15:38  ,71.0,--,--,46,23.0,18
13.1,FREESTYLE,1,50.0,00:00:46.875,0:15:38  ,0:15:38  ,69.0,--,--,22,--,--
13.2,FREESTYLE,1,50.0,00:00:49.875,0:16:38  ,0:16:38  ,74.0,--,--,24,--,--
REST,,,0.0,00:00:51.141,--,--,0.0,--,--,--,20.923076923076923,--
14,BREASTSTROKE,1,50.0,00:01:04.272,0:21:25  ,0:21:25  ,93.0,--,--,29,29.0,13
14.1,BREASTSTROKE,1,50.0,00:01:04.250,0:21:25  ,0:21:25  ,93.0,--,--,29,--,--
Summary,,40,2000.0,00:51:23.563,0:18:04  ,0:11:49  ,80.0,--,--,845,26.399999618530273,332
