Split,Swim Stroke,Lengths,Distance,Time,Avg Pace,Best Pace,Avg SWOLF,Avg Power,Max Power,Total Strokes,Avg Strokes,Calories
1,FREESTYLE,4,200.0,00:03:08.289,0:15:39  ,0:14:51  ,71.0,--,--,99,24.0,36
1.1,FREESTYLE,1,50.0,00:00:47.375,0:15:47  ,0:15:47  ,73.0,--,--,26,--,--
1.2,FREESTYLE,1,50.0,00:00:44.562,0:14:51  ,0:14:51  ,67.0,--,--,22,--,--
1.3,FREESTYLE,1,50.0,00:00:47.375,0:15:47  ,0:15:47  ,72.0,--,--,25,--,--
1.4,FREESTYLE,1,50.0,00:00:48.625,0:16:12  ,0:16:12  ,75.0,--,--,26,--,--
REST,,,0.0,00:00:07.539,--,--,0.0,--,--,--,24.75,--
2,BREASTSTROKE,1,50.0,00:01:08.711,0:22:55  ,0:22:55  ,105.0,--,--,36,36.0,13
2.1,BREASTSTROKE,1,50.0,00:01:08.750,0:22:55  ,0:22:55  ,105.0,--,--,36,--,--
REST,,,0.0,00:00:03.164,--,--,0.0,--,--,--,26.666666666666668,--
3,FREESTYLE,4,200.0,00:03:17.125,0:16:25  ,0:14:56  ,75.0,--,--,105,26.0,36
3.1,FREESTYLE,1,50.0,00:00:47.00,0:15:40  ,0:15:40  ,72.0,--,--,25,--,--
3.2,FREESTYLE,1,50.0,00:00:53.562,0:17:51  ,0:17:51  ,83.0,--,--,29,--,--
3.3,FREESTYLE,1,50.0,00:00:44.812,0:14:56  ,0:14:56  ,69.0,--,--,24,--,--
3.4,FREESTYLE,1,50.0,00:00:51.750,0:17:15  ,0:17:15  ,79.0,--,--,27,--,--
REST,,,0.0,00:00:03.750,--,--,0.0,--,--,--,26.666666666666668,--
4,BREASTSTROKE,1,50.0,00:01:08.805,0:22:55  ,0:22:57  ,103.0,--,--,34,34.0,13
4.1,BREASTSTROKE,1,50.0,00:01:08.812,0:22:57  ,0:22:57  ,103.0,--,--,34,--,--
REST,,,0.0,00:00:07.133,--,--,0.0,--,--,--,26.818181818181817,--
5,FREESTYLE,4,200.0,00:03:11.813,0:15:59  ,0:13:27  ,72.0,--,--,97,24.0,36
5.1,FREESTYLE,1,50.0,00:00:48.937,0:16:19  ,0:16:19  ,70.0,--,--,21,--,--
5.2,FREESTYLE,1,50.0,00:00:52.00,0:17:20  ,0:17:20  ,79.0,--,--,27,--,--
5.3,FREESTYLE,1,50.0,00:00:50.562,0:16:52  ,0:16:52  ,77.0,--,--,26,--,--
5.4,FREESTYLE,1,50.0,00:00:40.375,0:13:27  ,0:13:27  ,63.0,--,--,23,--,--
REST,,,0.0,00:00:54.938,--,--,0.0,--,--,--,26.4,--
6,BACKSTROKE,2,100.0,00:02:04.555,0:20:45  ,0:19:46  ,87.0,--,--,49,24.0,22
6.1,BACKSTROKE,1,50.0,00:01:05.312,0:21:47  ,0:21:47  ,90.0,--,--,25,--,--
6.2,BACKSTROKE,1,50.0,00:00:59.250,0:19:46  ,0:19:46  ,83.0,--,--,24,--,--
REST,,,0.0,00:00:17.08,--,--,0.0,--,--,--,26.25,--
7,FREESTYLE,1,50.0,00:00:46.86,0:15:21  ,0:15:21  ,71.0,--,--,25,25.0,9
7.1,FREESTYLE,1,50.0,00:00:46.62,0:15:21  ,0:15:21  ,71.0,--,--,25,--,--
REST,,,0.0,00:00:04.539,--,--,0.0,--,--,--,26.176470588235293,--
8,BREASTSTROKE,1,50.0,00:01:04.563,0:21:31  ,0:21:31  ,94.0,--,--,29,29.0,13
8.1,BREASTSTROKE,1,50.0,00:01:04.562,0:21:31  ,0:21:31  ,94.0,--,--,29,--,--
REST,,,0.0,00:00:45.188,--,--,0.0,--,--,--,26.36842105263158,--
9,FREESTYLE,4,200.0,00:03:18.367,0:16:32  ,0:16:15  ,75.0,--,--,104,26.0,36
9.1,FREESTYLE,1,50.0,00:00:50.312,0:16:47  ,0:16:47  ,77.0,--,--,27,--,--
9.2,FREESTYLE,1,50.0,00:00:50.250,0:16:45  ,0:16:45  ,77.0,--,--,27,--,--
9.3,FREESTYLE,1,50.0,00:00:49.125,0:16:23  ,0:16:23  ,73.0,--,--,24,--,--
9.4,FREESTYLE,1,50.0,00:00:48.750,0:16:15  ,0:16:15  ,75.0,--,--,26,--,--
REST,,,0.0,00:00:08.570,--,--,0.0,--,--,--,26.272727272727273,--
10,BACKSTROKE,1,50.0,00:01:03.703,0:21:13  ,0:21:13  ,84.0,--,--,20,20.0,11
10.1,BACKSTROKE,1,50.0,00:01:03.687,0:21:13  ,0:21:13  ,84.0,--,--,20,--,--
REST,,,0.0,00:00:05.172,--,--,0.0,--,--,--,26.0,--
11,BREASTSTROKE,1,50.0,00:01:07.656,0:22:33  ,0:22:35  ,99.0,--,--,31,31.0,13
11.1,BREASTSTROKE,1,50.0,00:01:07.687,0:22:35  ,0:22:35  ,99.0,--,--,31,--,--
REST,,,0.0,00:00:06.969,--,--,0.0,--,--,--,26.2,--
12,FREESTYLE,8,400.0,00:06:36.609,0:16:32  ,0:14:20  ,75.0,--,--,206,25.0,72
12.1,FREESTYLE,1,50.0,00:00:48.437,0:16:08  ,0:16:08  ,74.0,--,--,26,--,--
12.2,FREESTYLE,1,50.0,00:00:50.500,0:16:50  ,0:16:50  ,71.0,--,--,20,--,--
12.3,FREESTYLE,1,50.0,00:00:47.187,0:15:44  ,0:15:44  ,73.0,--,--,26,--,--
12.4,FREESTYLE,1,50.0,00:00:43.00,0:14:20  ,0:14:20  ,67.0,--,--,24,--,--
12.5,FREESTYLE,1,50.0,00:00:58.437,0:19:29  ,0:19:29  ,88.0,--,--,30,--,--
12.6,FREESTYLE,1,50.0,00:00:53.812,0:17:56  ,0:17:56  ,82.0,--,--,28,--,--
12.7,FREESTYLE,1,50.0,00:00:50.437,0:16:49  ,0:16:49  ,78.0,--,--,28,--,--
12.8,FREESTYLE,1,50.0,00:00:44.875,0:14:57  ,0:14:57  ,69.0,--,--,24,--,--
REST,,,0.0,00:00:19.266,--,--,0.0,--,--,--,25.303030303030305,--
13,DRILL,2,100.0,00:01:29.461,--,--,0.0,--,--,--,22.56756756756757,--
13.1,DRILL,1,50.0,00:00:44.730,--,--,--,--,--,0,--,--
13.2,DRILL,1,50.0,00:00:44.730,--,--,--,--,--,0,--,--
REST,,,0.0,00:00:57.477,--,--,0.0,--,--,--,22.56756756756757,--
14,DRILL,4,200.0,00:04:19.63,--,--,0.0,--,--,--,21.973684210526315,--
14.1,DRILL,1,50.0,00:01:04.765,--,--,--,--,--,0,--,--
14.2,DRILL,1,50.0,00:01:04.765,--,--,--,--,--,0,--,--
14.3,DRILL,1,50.0,00:01:04.765,--,--,--,--,--,0,--,--
14.4,DRILL,1,50.0,00:01:04.765,--,--,--,--,--,0,--,--
REST,,,0.0,00:00:13.625,--,--,0.0,--,--,--,21.973684210526315,--
15,FREESTYLE,1,50.0,00:00:45.742,0:15:14  ,0:15:15  ,72.0,--,--,26,26.0,9
15.1,FREESTYLE,1,50.0,00:00:45.750,0:15:15  ,0:15:15  ,72.0,--,--,26,--,--
REST,,,0.0,00:00:39.320,--,--,0.0,--,--,--,22.076923076923077,--
16,FREESTYLE,1,50.0,00:00:42.31,0:14:01  ,0:14:01  ,67.0,--,--,25,25.0,9
16.1,FREESTYLE,1,50.0,00:00:42.62,0:14:01  ,0:14:01  ,67.0,--,--,25,--,--
REST,,,0.0,00:00:16.219,--,--,0.0,--,--,--,22.48780487804878,--
17,BREASTSTROKE,2,100.0,00:02:19.555,0:23:14  ,0:23:05  ,105.0,--,--,71,35.0,26
17.1,BREASTSTROKE,1,50.0,00:01:10.312,0:23:26  ,0:23:26  ,106.0,--,--,36,--,--
17.2,BREASTSTROKE,1,50.0,00:01:09.250,0:23:05  ,0:23:05  ,104.0,--,--,35,--,--
Summary,,42,2100.0,00:42:42.625,0:17:37  ,0:13:27  ,79.0,--,--,957,26.5,354
