Split,Swim Stroke,Lengths,Distance,Time,Avg Pace,Best Pace,Avg SWOLF,Avg Power,Max Power,Total Strokes,Avg Strokes,Calories
1,FREESTYLE,1,50.0,00:00:39.172,0:12:53  ,0:12:53  ,60.0,--,--,21,21.0,9
1.1,FREESTYLE,1,50.0,00:00:38.687,0:12:53  ,0:12:53  ,60.0,--,--,21,--,--
REST,,,0.0,00:00:20.273,--,--,0.0,--,--,--,21.0,--
2,BREASTSTROKE,1,50.0,00:01:00.242,0:20:06  ,0:20:06  ,86.0,--,--,26,26.0,13
2.1,BREASTSTROKE,1,50.0,00:01:00.312,0:20:06  ,0:20:06  ,86.0,--,--,26,--,--
REST,,,0.0,00:00:04.758,--,--,0.0,--,--,--,23.0,--
3,FREESTYLE,2,100.0,00:01:23.664,0:13:56  ,0:13:56  ,64.0,--,--,45,22.0,18
3.1,FREESTYLE,1,50.0,00:00:41.875,0:13:57  ,0:13:57  ,64.0,--,--,22,--,--
3.2,FREESTYLE,1,50.0,00:00:41.812,0:13:56  ,0:13:56  ,65.0,--,--,23,--,--
REST,,,0.0,00:01:14.711,--,--,0.0,--,--,--,13.142857142857142,--
4,DRILL,4,200.0,00:03:01.594,--,--,0.0,--,--,--,10.222222222222221,--
4.1,DRILL,1,50.0,00:00:45.398,--,--,--,--,--,0,--,--
4.2,DRILL,1,50.0,00:00:45.398,--,--,--,--,--,0,--,--
4.3,DRILL,1,50.0,00:00:45.398,--,--,--,--,--,0,--,--
4.4,DRILL,1,50.0,00:00:45.398,--,--,--,--,--,0,--,--
REST,,,0.0,00:00:21.219,--,--,0.0,--,--,--,10.222222222222221,--
5,DRILL,2,100.0,00:01:32.906,--,--,0.0,--,--,--,5.411764705882353,--
5.1,DRILL,1,50.0,00:00:46.453,--,--,--,--,--,0,--,--
5.2,DRILL,1,50.0,00:00:46.453,--,--,--,--,--,0,--,--
REST,,,0.0,00:00:36.969,--,--,0.0,--,--,--,5.411764705882353,--
6,DRILL,8,400.0,00:07:27.250,--,--,0.0,--,--,--,4.0,--
6.1,DRILL,1,50.0,00:00:55.906,--,--,--,--,--,0,--,--
6.2,DRILL,1,50.0,00:00:55.906,--,--,--,--,--,0,--,--
6.3,DRILL,1,50.0,00:00:55.906,--,--,--,--,--,0,--,--
6.4,DRILL,1,50.0,00:00:55.906,--,--,--,--,--,0,--,--
6.5,DRILL,1,50.0,00:00:55.906,--,--,--,--,--,0,--,--
6.6,DRILL,1,50.0,00:00:55.906,--,--,--,--,--,0,--,--
6.7,DRILL,1,50.0,00:00:55.906,--,--,--,--,--,0,--,--
6.8,DRILL,1,50.0,00:00:55.906,--,--,--,--,--,0,--,--
REST,,,0.0,00:00:45.625,--,--,0.0,--,--,--,4.0,--
7,DRILL,6,300.0,00:04:42.844,--,--,0.0,--,--,--,4.72,--
7.1,DRILL,1,50.0,00:00:47.140,--,--,--,--,--,0,--,--
7.2,DRILL,1,50.0,00:00:47.140,--,--,--,--,--,0,--,--
7.3,DRILL,1,50.0,00:00:47.140,--,--,--,--,--,0,--,--
7.4,DRILL,1,50.0,00:00:47.140,--,--,--,--,--,0,--,--
7.5,DRILL,1,50.0,00:00:47.140,--,--,--,--,--,0,--,--
7.6,DRILL,1,50.0,00:00:47.140,--,--,--,--,--,0,--,--
REST,,,0.0,00:00:50.531,--,--,0.0,--,--,--,4.72,--
8,BREASTSTROKE,2,100.0,00:02:11.867,0:21:59  ,0:21:40  ,93.0,--,--,55,27.0,26
8.1,BREASTSTROKE,1,50.0,00:01:04.937,0:21:40  ,0:21:40  ,91.0,--,--,26,--,--
8.2,BREASTSTROKE,1,50.0,00:01:07.00,0:22:20  ,0:22:20  ,96.0,--,--,29,--,--
REST,,,0.0,00:00:08.883,--,--,0.0,--,--,--,6.37037037037037,--
9,BACKSTROKE,2,100.0,00:02:09.788,0:21:38  ,0:21:33  ,90.0,--,--,50,25.0,22
9.1,BACKSTROKE,1,50.0,00:01:05.187,0:21:43  ,0:21:43  ,90.0,--,--,25,--,--
9.2,BACKSTROKE,1,50.0,00:01:04.625,0:21:33  ,0:21:33  ,90.0,--,--,25,--,--
REST,,,0.0,00:01:08.273,--,--,0.0,--,--,--,7.586206896551724,--
10,FREESTYLE,2,100.0,00:01:28.219,0:14:42  ,0:14:08  ,67.0,--,--,47,23.0,18
10.1,FREESTYLE,1,50.0,00:00:42.375,0:14:08  ,0:14:08  ,65.0,--,--,23,--,--
10.2,FREESTYLE,1,50.0,00:00:45.875,0:15:18  ,0:15:18  ,70.0,--,--,24,--,--
REST,,,0.0,00:03:09.219,--,--,0.0,--,--,--,8.580645161290322,--
11,FREESTYLE,2,100.0,00:01:29.836,0:14:58  ,0:14:34  ,69.0,--,--,48,24.0,18
11.1,FREESTYLE,1,50.0,00:00:43.687,0:14:34  ,0:14:34  ,66.0,--,--,22,--,--
11.2,FREESTYLE,1,50.0,00:00:46.125,0:15:22  ,0:15:22  ,72.0,--,--,26,--,--
REST,,,0.0,00:00:24.414,--,--,0.0,--,--,--,8.342857142857143,--
12,DRILL,4,200.0,00:03:00.859,--,--,0.0,--,--,--,8.11111111111111,--
12.1,DRILL,1,50.0,00:00:45.214,--,--,--,--,--,0,--,--
12.2,DRILL,1,50.0,00:00:45.214,--,--,--,--,--,0,--,--
12.3,DRILL,1,50.0,00:00:45.214,--,--,--,--,--,0,--,--
12.4,DRILL,1,50.0,00:00:45.214,--,--,--,--,--,0,--,--
REST,,,0.0,00:00:39.766,--,--,0.0,--,--,--,8.11111111111111,--
13,BREASTSTROKE,1,50.0,00:01:01.461,0:20:30  ,0:20:30  ,89.0,--,--,27,27.0,13
13.1,BREASTSTROKE,1,50.0,00:01:01.500,0:20:30  ,0:20:30  ,89.0,--,--,27,--,--
REST,,,0.0,00:00:13.39,--,--,0.0,--,--,--,8.621621621621621,--
14,FREESTYLE,1,50.0,00:00:43.523,0:14:31  ,0:14:31  ,69.0,--,--,25,25.0,9
14.1,FREESTYLE,1,50.0,00:00:43.562,0:14:31  ,0:14:31  ,69.0,--,--,25,--,--
REST,,,0.0,00:00:54.39,--,--,0.0,--,--,--,9.052631578947368,--
15,BACKSTROKE,1,50.0,00:00:57.828,0:19:17  ,0:19:18  ,78.0,--,--,20,20.0,11
15.1,BACKSTROKE,1,50.0,00:00:57.875,0:19:18  ,0:19:18  ,78.0,--,--,20,--,--
REST,,,0.0,00:00:25.797,--,--,0.0,--,--,--,9.333333333333334,--
16,FREESTYLE,1,50.0,00:00:41.508,0:13:51  ,0:13:51  ,67.0,--,--,25,25.0,9
16.1,FREESTYLE,1,50.0,00:00:41.562,0:13:51  ,0:13:51  ,67.0,--,--,25,--,--
Summary,,40,2000.0,00:44:50.750,0:17:14  ,0:12:53  ,76.0,--,--,389,24.299999237060547,166
