Split,Swim Stroke,Lengths,Distance,Time,Avg Pace,Best Pace,Avg SWOLF,Avg Power,Max Power,Total Strokes,Avg Strokes,Calories
1,FREESTYLE,8,400.0,00:06:15.406,0:15:37  ,0:08:08  ,71.0,--,--,198,24.0,73
1.1,FREESTYLE,1,50.0,00:00:24.437,0:08:08  ,0:08:08  ,37.0,--,--,13,--,--
1.2,FREESTYLE,1,50.0,00:01:04.62,0:21:22  ,0:21:22  ,99.0,--,--,35,--,--
1.3,FREESTYLE,1,50.0,00:00:47.562,0:15:51  ,0:15:51  ,73.0,--,--,25,--,--
1.4,FREESTYLE,1,50.0,00:00:48.500,0:16:10  ,0:16:10  ,73.0,--,--,24,--,--
1.5,FREESTYLE,1,50.0,00:00:48.00,0:16:00  ,0:16:00  ,73.0,--,--,25,--,--
1.6,FREESTYLE,1,50.0,00:00:50.187,0:16:44  ,0:16:44  ,76.0,--,--,26,--,--
1.7,FREESTYLE,1,50.0,00:00:47.812,0:15:56  ,0:15:56  ,73.0,--,--,25,--,--
1.8,FREESTYLE,1,50.0,00:00:44.375,0:14:48  ,0:14:48  ,69.0,--,--,25,--,--
REST,,,0.0,00:01:37.539,--,--,0.0,--,--,--,24.666666666666668,--
2,BREASTSTROKE,2,100.0,00:02:02.156,0:20:21  ,0:20:07  ,86.0,--,--,51,25.0,26
2.1,BREASTSTROKE,1,50.0,00:01:00.375,0:20:07  ,0:20:07  ,84.0,--,--,24,--,--
2.2,BREASTSTROKE,1,50.0,00:01:01.750,0:20:36  ,0:20:36  ,89.0,--,--,27,--,--
REST,,,0.0,00:00:09.31,--,--,0.0,--,--,--,24.818181818181817,--
3,BACKSTROKE,4,200.0,00:03:56.492,0:19:42  ,0:16:28  ,82.0,--,--,92,23.0,44
3.1,BACKSTROKE,1,50.0,00:00:59.437,0:19:49  ,0:19:49  ,83.0,--,--,24,--,--
3.2,BACKSTROKE,1,50.0,00:00:49.375,0:16:28  ,0:16:28  ,69.0,--,--,20,--,--
3.3,BACKSTROKE,1,50.0,00:01:09.62,0:23:03  ,0:23:03  ,96.0,--,--,27,--,--
3.4,BACKSTROKE,1,50.0,00:00:58.625,0:19:33  ,0:19:33  ,80.0,--,--,21,--,--
REST,,,0.0,00:00:16.820,--,--,0.0,--,--,--,24.266666666666666,--
4,FREESTYLE,2,100.0,00:01:32.969,0:15:29  ,0:15:26  ,68.0,--,--,44,22.0,18
4.1,FREESTYLE,1,50.0,00:00:46.625,0:15:32  ,0:15:32  ,70.0,--,--,23,--,--
4.2,FREESTYLE,1,50.0,00:00:46.312,0:15:26  ,0:15:26  ,67.0,--,--,21,--,--
REST,,,0.0,00:00:12.844,--,--,0.0,--,--,--,24.647058823529413,--
5,BREASTSTROKE,2,100.0,00:02:05.758,0:20:57  ,0:19:28  ,95.0,--,--,64,32.0,26
5.1,BREASTSTROKE,1,50.0,00:01:07.437,0:22:29  ,0:22:29  ,101.0,--,--,34,--,--
5.2,BREASTSTROKE,1,50.0,00:00:58.375,0:19:28  ,0:19:28  ,88.0,--,--,30,--,--
Summary,,18,900.0,00:18:09.172,0:17:38  ,0:08:08  ,77.0,--,--,449,24.899999618530273,187
